ffd4Lattice.pt[0][0][0]	-31.00332151	-2.341762198	-23.7525596

ffd4Lattice.pt[0][0][1]	-31.00332151	-2.341762198	38.25405866

ffd4Lattice.pt[0][1][0]	-31.00332151	0.9217445689	-23.7525596

ffd4Lattice.pt[0][1][1]	-31.00332151	0.9217445689	38.25405866

ffd4Lattice.pt[0][2][0]	-31.00332151	4.185251336	-23.7525596

ffd4Lattice.pt[0][2][1]	-31.00332151	4.185251336	38.25405866

ffd4Lattice.pt[0][3][0]	-31.00332151	7.448758103	-23.7525596

ffd4Lattice.pt[0][3][1]	-31.00332151	7.448758103	38.25405866

ffd4Lattice.pt[0][4][0]	-31.00332151	10.71226487	-23.7525596

ffd4Lattice.pt[0][4][1]	-31.00332151	10.71226487	38.25405866

ffd4Lattice.pt[0][5][0]	-31.00332151	13.97577164	-23.7525596

ffd4Lattice.pt[0][5][1]	-31.00332151	13.97577164	38.25405866

ffd4Lattice.pt[0][6][0]	-31.00332151	17.2392784	-23.7525596

ffd4Lattice.pt[0][6][1]	-31.00332151	17.2392784	38.25405866

ffd4Lattice.pt[0][7][0]	-31.00332151	20.50278517	-23.7525596

ffd4Lattice.pt[0][7][1]	-31.00332151	20.50278517	38.25405866

ffd4Lattice.pt[0][8][0]	-31.00332151	23.76629194	-23.7525596

ffd4Lattice.pt[0][8][1]	-31.00332151	23.76629194	38.25405866

ffd4Lattice.pt[0][9][0]	-31.00332151	27.0297987	-23.7525596

ffd4Lattice.pt[0][9][1]	-31.00332151	27.0297987	38.25405866

ffd4Lattice.pt[0][10][0]	-31.00332151	30.29330547	-23.7525596

ffd4Lattice.pt[0][10][1]	-31.00332151	30.29330547	38.25405866

ffd4Lattice.pt[0][11][0]	-31.00332151	33.55681224	-23.7525596

ffd4Lattice.pt[0][11][1]	-31.00332151	33.55681224	38.25405866

ffd4Lattice.pt[0][12][0]	-31.00332151	36.820319	-23.7525596

ffd4Lattice.pt[0][12][1]	-31.00332151	36.820319	38.25405866

ffd4Lattice.pt[0][13][0]	-31.00332151	40.08382577	-23.7525596

ffd4Lattice.pt[0][13][1]	-31.00332151	40.08382577	38.25405866

ffd4Lattice.pt[0][14][0]	-31.00332151	43.34733254	-23.7525596

ffd4Lattice.pt[0][14][1]	-31.00332151	43.34733254	38.25405866

ffd4Lattice.pt[0][15][0]	-31.00332151	46.61083931	-23.7525596

ffd4Lattice.pt[0][15][1]	-31.00332151	46.61083931	38.25405866

ffd4Lattice.pt[0][16][0]	-31.00332151	49.87434607	-23.7525596

ffd4Lattice.pt[0][16][1]	-31.00332151	49.87434607	38.25405866

ffd4Lattice.pt[0][17][0]	-31.00332151	53.13785284	-23.7525596

ffd4Lattice.pt[0][17][1]	-31.00332151	53.13785284	38.25405866

ffd4Lattice.pt[0][18][0]	-31.00332151	56.40135961	-23.7525596

ffd4Lattice.pt[0][18][1]	-31.00332151	56.40135961	38.25405866

ffd4Lattice.pt[0][19][0]	-31.00332151	59.66486637	-23.7525596

ffd4Lattice.pt[0][19][1]	-31.00332151	59.66486637	38.25405866

ffd4Lattice.pt[1][0][0]	-27.7398142	-2.341762198	-23.7525596

ffd4Lattice.pt[1][0][1]	-27.7398142	-2.341762198	38.25405866

ffd4Lattice.pt[1][1][0]	-27.7398142	0.9217445689	-23.7525596

ffd4Lattice.pt[1][1][1]	-27.7398142	0.9217445689	38.25405866

ffd4Lattice.pt[1][2][0]	-27.7398142	4.185251336	-23.7525596

ffd4Lattice.pt[1][2][1]	-27.7398142	4.185251336	38.25405866

ffd4Lattice.pt[1][3][0]	-27.7398142	7.448758103	-23.7525596

ffd4Lattice.pt[1][3][1]	-27.7398142	7.448758103	38.25405866

ffd4Lattice.pt[1][4][0]	-27.7398142	10.71226487	-23.7525596

ffd4Lattice.pt[1][4][1]	-27.7398142	10.71226487	38.25405866

ffd4Lattice.pt[1][5][0]	-27.7398142	13.97577164	-23.7525596

ffd4Lattice.pt[1][5][1]	-27.7398142	13.97577164	38.25405866

ffd4Lattice.pt[1][6][0]	-27.7398142	17.2392784	-23.7525596

ffd4Lattice.pt[1][6][1]	-27.7398142	17.2392784	38.25405866

ffd4Lattice.pt[1][7][0]	-27.7398142	20.50278517	-23.7525596

ffd4Lattice.pt[1][7][1]	-27.7398142	20.50278517	38.25405866

ffd4Lattice.pt[1][8][0]	-27.7398142	23.76629194	-23.7525596

ffd4Lattice.pt[1][8][1]	-27.7398142	23.76629194	38.25405866

ffd4Lattice.pt[1][9][0]	-27.7398142	27.0297987	-23.7525596

ffd4Lattice.pt[1][9][1]	-27.7398142	27.0297987	38.25405866

ffd4Lattice.pt[1][10][0]	-27.7398142	30.29330547	-23.7525596

ffd4Lattice.pt[1][10][1]	-27.7398142	30.29330547	38.25405866

ffd4Lattice.pt[1][11][0]	-27.7398142	33.55681224	-23.7525596

ffd4Lattice.pt[1][11][1]	-27.7398142	33.55681224	38.25405866

ffd4Lattice.pt[1][12][0]	-27.7398142	36.820319	-23.7525596

ffd4Lattice.pt[1][12][1]	-27.7398142	36.820319	38.25405866

ffd4Lattice.pt[1][13][0]	-27.7398142	40.08382577	-23.7525596

ffd4Lattice.pt[1][13][1]	-27.7398142	40.08382577	38.25405866

ffd4Lattice.pt[1][14][0]	-27.7398142	43.34733254	-23.7525596

ffd4Lattice.pt[1][14][1]	-27.7398142	43.34733254	38.25405866

ffd4Lattice.pt[1][15][0]	-27.7398142	46.61083931	-23.7525596

ffd4Lattice.pt[1][15][1]	-27.7398142	46.61083931	38.25405866

ffd4Lattice.pt[1][16][0]	-27.7398142	49.87434607	-23.7525596

ffd4Lattice.pt[1][16][1]	-27.7398142	49.87434607	38.25405866

ffd4Lattice.pt[1][17][0]	-27.7398142	53.13785284	-23.7525596

ffd4Lattice.pt[1][17][1]	-27.7398142	53.13785284	38.25405866

ffd4Lattice.pt[1][18][0]	-27.7398142	56.40135961	-23.7525596

ffd4Lattice.pt[1][18][1]	-27.7398142	56.40135961	38.25405866

ffd4Lattice.pt[1][19][0]	-27.7398142	59.66486637	-23.7525596

ffd4Lattice.pt[1][19][1]	-27.7398142	59.66486637	38.25405866

ffd4Lattice.pt[2][0][0]	-24.47630689	-2.341762198	-23.7525596

ffd4Lattice.pt[2][0][1]	-24.47630689	-2.341762198	38.25405866

ffd4Lattice.pt[2][1][0]	-24.47630689	0.9217445689	-23.7525596

ffd4Lattice.pt[2][1][1]	-24.47630689	0.9217445689	38.25405866

ffd4Lattice.pt[2][2][0]	-24.47630689	4.185251336	-23.7525596

ffd4Lattice.pt[2][2][1]	-24.47630689	4.185251336	38.25405866

ffd4Lattice.pt[2][3][0]	-24.47630689	7.448758103	-23.7525596

ffd4Lattice.pt[2][3][1]	-24.47630689	7.448758103	38.25405866

ffd4Lattice.pt[2][4][0]	-24.47630689	10.71226487	-23.7525596

ffd4Lattice.pt[2][4][1]	-24.47630689	10.71226487	38.25405866

ffd4Lattice.pt[2][5][0]	-24.47630689	13.97577164	-23.7525596

ffd4Lattice.pt[2][5][1]	-24.47630689	13.97577164	38.25405866

ffd4Lattice.pt[2][6][0]	-24.47630689	17.2392784	-23.7525596

ffd4Lattice.pt[2][6][1]	-24.47630689	17.2392784	38.25405866

ffd4Lattice.pt[2][7][0]	-24.47630689	20.50278517	-23.7525596

ffd4Lattice.pt[2][7][1]	-24.47630689	20.50278517	38.25405866

ffd4Lattice.pt[2][8][0]	-24.47630689	23.76629194	-23.7525596

ffd4Lattice.pt[2][8][1]	-24.47630689	23.76629194	38.25405866

ffd4Lattice.pt[2][9][0]	-24.47630689	27.0297987	-23.7525596

ffd4Lattice.pt[2][9][1]	-24.47630689	27.0297987	38.25405866

ffd4Lattice.pt[2][10][0]	-24.47630689	30.29330547	-23.7525596

ffd4Lattice.pt[2][10][1]	-24.47630689	30.29330547	38.25405866

ffd4Lattice.pt[2][11][0]	-24.47630689	33.55681224	-23.7525596

ffd4Lattice.pt[2][11][1]	-24.47630689	33.55681224	38.25405866

ffd4Lattice.pt[2][12][0]	-24.47630689	36.820319	-23.7525596

ffd4Lattice.pt[2][12][1]	-24.47630689	36.820319	38.25405866

ffd4Lattice.pt[2][13][0]	-24.47630689	40.08382577	-23.7525596

ffd4Lattice.pt[2][13][1]	-24.47630689	40.08382577	38.25405866

ffd4Lattice.pt[2][14][0]	-24.47630689	43.34733254	-23.7525596

ffd4Lattice.pt[2][14][1]	-24.47630689	43.34733254	38.25405866

ffd4Lattice.pt[2][15][0]	-24.47630689	46.61083931	-23.7525596

ffd4Lattice.pt[2][15][1]	-24.47630689	46.61083931	38.25405866

ffd4Lattice.pt[2][16][0]	-24.47630689	49.87434607	-23.7525596

ffd4Lattice.pt[2][16][1]	-24.47630689	49.87434607	38.25405866

ffd4Lattice.pt[2][17][0]	-24.47630689	53.13785284	-23.7525596

ffd4Lattice.pt[2][17][1]	-24.47630689	53.13785284	38.25405866

ffd4Lattice.pt[2][18][0]	-24.47630689	56.40135961	-23.7525596

ffd4Lattice.pt[2][18][1]	-24.47630689	56.40135961	38.25405866

ffd4Lattice.pt[2][19][0]	-24.47630689	59.66486637	-23.7525596

ffd4Lattice.pt[2][19][1]	-24.47630689	59.66486637	38.25405866

ffd4Lattice.pt[3][0][0]	-21.21279958	-2.341762198	-23.7525596

ffd4Lattice.pt[3][0][1]	-21.21279958	-2.341762198	38.25405866

ffd4Lattice.pt[3][1][0]	-21.21279958	0.9217445689	-23.7525596

ffd4Lattice.pt[3][1][1]	-21.21279958	0.9217445689	38.25405866

ffd4Lattice.pt[3][2][0]	-21.21279958	4.185251336	-23.7525596

ffd4Lattice.pt[3][2][1]	-21.21279958	4.185251336	38.25405866

ffd4Lattice.pt[3][3][0]	-21.21279958	7.448758103	-23.7525596

ffd4Lattice.pt[3][3][1]	-21.21279958	7.448758103	38.25405866

ffd4Lattice.pt[3][4][0]	-21.21279958	10.71226487	-23.7525596

ffd4Lattice.pt[3][4][1]	-21.21279958	10.71226487	38.25405866

ffd4Lattice.pt[3][5][0]	-21.21279958	13.97577164	-23.7525596

ffd4Lattice.pt[3][5][1]	-21.21279958	13.97577164	38.25405866

ffd4Lattice.pt[3][6][0]	-21.21279958	17.2392784	-23.7525596

ffd4Lattice.pt[3][6][1]	-21.21279958	17.2392784	38.25405866

ffd4Lattice.pt[3][7][0]	-21.21279958	20.50278517	-23.7525596

ffd4Lattice.pt[3][7][1]	-21.21279958	20.50278517	38.25405866

ffd4Lattice.pt[3][8][0]	-21.21279958	23.76629194	-23.7525596

ffd4Lattice.pt[3][8][1]	-21.21279958	23.76629194	38.25405866

ffd4Lattice.pt[3][9][0]	-21.21279958	27.0297987	-23.7525596

ffd4Lattice.pt[3][9][1]	-21.21279958	27.0297987	38.25405866

ffd4Lattice.pt[3][10][0]	-21.21279958	30.29330547	-23.7525596

ffd4Lattice.pt[3][10][1]	-21.21279958	30.29330547	38.25405866

ffd4Lattice.pt[3][11][0]	-21.21279958	33.55681224	-23.7525596

ffd4Lattice.pt[3][11][1]	-21.21279958	33.55681224	38.25405866

ffd4Lattice.pt[3][12][0]	-21.21279958	36.820319	-23.7525596

ffd4Lattice.pt[3][12][1]	-21.21279958	36.820319	38.25405866

ffd4Lattice.pt[3][13][0]	-21.21279958	40.08382577	-23.7525596

ffd4Lattice.pt[3][13][1]	-21.21279958	40.08382577	38.25405866

ffd4Lattice.pt[3][14][0]	-21.21279958	43.34733254	-23.7525596

ffd4Lattice.pt[3][14][1]	-21.21279958	43.34733254	38.25405866

ffd4Lattice.pt[3][15][0]	-21.21279958	46.61083931	-23.7525596

ffd4Lattice.pt[3][15][1]	-21.21279958	46.61083931	38.25405866

ffd4Lattice.pt[3][16][0]	-21.21279958	49.87434607	-23.7525596

ffd4Lattice.pt[3][16][1]	-21.21279958	49.87434607	38.25405866

ffd4Lattice.pt[3][17][0]	-21.21279958	53.13785284	-23.7525596

ffd4Lattice.pt[3][17][1]	-21.21279958	53.13785284	38.25405866

ffd4Lattice.pt[3][18][0]	-21.21279958	56.40135961	-23.7525596

ffd4Lattice.pt[3][18][1]	-21.21279958	56.40135961	38.25405866

ffd4Lattice.pt[3][19][0]	-21.21279958	59.66486637	-23.7525596

ffd4Lattice.pt[3][19][1]	-21.21279958	59.66486637	38.25405866

ffd4Lattice.pt[4][0][0]	-17.94929227	-2.341762198	-23.7525596

ffd4Lattice.pt[4][0][1]	-17.94929227	-2.341762198	38.25405866

ffd4Lattice.pt[4][1][0]	-17.94929227	0.9217445689	-23.7525596

ffd4Lattice.pt[4][1][1]	-17.94929227	0.9217445689	38.25405866

ffd4Lattice.pt[4][2][0]	-17.94929227	4.185251336	-23.7525596

ffd4Lattice.pt[4][2][1]	-17.94929227	4.185251336	38.25405866

ffd4Lattice.pt[4][3][0]	-17.94929227	7.448758103	-23.7525596

ffd4Lattice.pt[4][3][1]	-17.94929227	7.448758103	38.25405866

ffd4Lattice.pt[4][4][0]	-17.94929227	10.71226487	-23.7525596

ffd4Lattice.pt[4][4][1]	-17.94929227	10.71226487	38.25405866

ffd4Lattice.pt[4][5][0]	-17.94929227	13.97577164	-23.7525596

ffd4Lattice.pt[4][5][1]	-17.94929227	13.97577164	38.25405866

ffd4Lattice.pt[4][6][0]	-17.94929227	17.2392784	-23.7525596

ffd4Lattice.pt[4][6][1]	-17.94929227	17.2392784	38.25405866

ffd4Lattice.pt[4][7][0]	-17.94929227	20.50278517	-23.7525596

ffd4Lattice.pt[4][7][1]	-17.94929227	20.50278517	38.25405866

ffd4Lattice.pt[4][8][0]	-17.94929227	23.76629194	-23.7525596

ffd4Lattice.pt[4][8][1]	-17.94929227	23.76629194	38.25405866

ffd4Lattice.pt[4][9][0]	-17.94929227	27.0297987	-23.7525596

ffd4Lattice.pt[4][9][1]	-17.94929227	27.0297987	38.25405866

ffd4Lattice.pt[4][10][0]	-17.94929227	30.29330547	-23.7525596

ffd4Lattice.pt[4][10][1]	-17.94929227	30.29330547	38.25405866

ffd4Lattice.pt[4][11][0]	-17.94929227	33.55681224	-23.7525596

ffd4Lattice.pt[4][11][1]	-17.94929227	33.55681224	38.25405866

ffd4Lattice.pt[4][12][0]	-17.94929227	36.820319	-23.7525596

ffd4Lattice.pt[4][12][1]	-17.94929227	36.820319	38.25405866

ffd4Lattice.pt[4][13][0]	-17.94929227	40.08382577	-23.7525596

ffd4Lattice.pt[4][13][1]	-17.94929227	40.08382577	38.25405866

ffd4Lattice.pt[4][14][0]	-17.94929227	43.34733254	-23.7525596

ffd4Lattice.pt[4][14][1]	-17.94929227	43.34733254	38.25405866

ffd4Lattice.pt[4][15][0]	-17.94929227	46.61083931	-23.7525596

ffd4Lattice.pt[4][15][1]	-17.94929227	46.61083931	38.25405866

ffd4Lattice.pt[4][16][0]	-17.94929227	49.87434607	-23.7525596

ffd4Lattice.pt[4][16][1]	-17.94929227	49.87434607	38.25405866

ffd4Lattice.pt[4][17][0]	-17.94929227	53.13785284	-23.7525596

ffd4Lattice.pt[4][17][1]	-17.94929227	53.13785284	38.25405866

ffd4Lattice.pt[4][18][0]	-17.94929227	56.40135961	-23.7525596

ffd4Lattice.pt[4][18][1]	-17.94929227	56.40135961	38.25405866

ffd4Lattice.pt[4][19][0]	-17.94929227	59.66486637	-23.7525596

ffd4Lattice.pt[4][19][1]	-17.94929227	59.66486637	38.25405866

ffd4Lattice.pt[5][0][0]	-14.68578496	-2.341762198	-23.7525596

ffd4Lattice.pt[5][0][1]	-14.68578496	-2.341762198	38.25405866

ffd4Lattice.pt[5][1][0]	-14.68578496	0.9217445689	-23.7525596

ffd4Lattice.pt[5][1][1]	-14.68578496	0.9217445689	38.25405866

ffd4Lattice.pt[5][2][0]	-14.68578496	4.185251336	-23.7525596

ffd4Lattice.pt[5][2][1]	-14.68578496	4.185251336	38.25405866

ffd4Lattice.pt[5][3][0]	-14.68578496	7.448758103	-23.7525596

ffd4Lattice.pt[5][3][1]	-14.68578496	7.448758103	38.25405866

ffd4Lattice.pt[5][4][0]	-14.68578496	10.71226487	-23.7525596

ffd4Lattice.pt[5][4][1]	-14.68578496	10.71226487	38.25405866

ffd4Lattice.pt[5][5][0]	-14.68578496	13.97577164	-23.7525596

ffd4Lattice.pt[5][5][1]	-14.68578496	13.97577164	38.25405866

ffd4Lattice.pt[5][6][0]	-14.68578496	17.2392784	-23.7525596

ffd4Lattice.pt[5][6][1]	-14.68578496	17.2392784	38.25405866

ffd4Lattice.pt[5][7][0]	-14.68578496	20.50278517	-23.7525596

ffd4Lattice.pt[5][7][1]	-14.68578496	20.50278517	38.25405866

ffd4Lattice.pt[5][8][0]	-14.68578496	23.76629194	-23.7525596

ffd4Lattice.pt[5][8][1]	-14.68578496	23.76629194	38.25405866

ffd4Lattice.pt[5][9][0]	-14.68578496	27.0297987	-23.7525596

ffd4Lattice.pt[5][9][1]	-14.68578496	27.0297987	38.25405866

ffd4Lattice.pt[5][10][0]	-14.68578496	30.29330547	-23.7525596

ffd4Lattice.pt[5][10][1]	-14.68578496	30.29330547	38.25405866

ffd4Lattice.pt[5][11][0]	-14.68578496	33.55681224	-23.7525596

ffd4Lattice.pt[5][11][1]	-14.68578496	33.55681224	38.25405866

ffd4Lattice.pt[5][12][0]	-14.68578496	36.820319	-23.7525596

ffd4Lattice.pt[5][12][1]	-14.68578496	36.820319	38.25405866

ffd4Lattice.pt[5][13][0]	-14.68578496	40.08382577	-23.7525596

ffd4Lattice.pt[5][13][1]	-14.68578496	40.08382577	38.25405866

ffd4Lattice.pt[5][14][0]	-14.68578496	43.34733254	-23.7525596

ffd4Lattice.pt[5][14][1]	-14.68578496	43.34733254	38.25405866

ffd4Lattice.pt[5][15][0]	-14.68578496	46.61083931	-23.7525596

ffd4Lattice.pt[5][15][1]	-14.68578496	46.61083931	38.25405866

ffd4Lattice.pt[5][16][0]	-14.68578496	49.87434607	-23.7525596

ffd4Lattice.pt[5][16][1]	-14.68578496	49.87434607	38.25405866

ffd4Lattice.pt[5][17][0]	-14.68578496	53.13785284	-23.7525596

ffd4Lattice.pt[5][17][1]	-14.68578496	53.13785284	38.25405866

ffd4Lattice.pt[5][18][0]	-14.68578496	56.40135961	-23.7525596

ffd4Lattice.pt[5][18][1]	-14.68578496	56.40135961	38.25405866

ffd4Lattice.pt[5][19][0]	-14.68578496	59.66486637	-23.7525596

ffd4Lattice.pt[5][19][1]	-14.68578496	59.66486637	38.25405866

ffd4Lattice.pt[6][0][0]	-11.42227765	-2.341762198	-23.7525596

ffd4Lattice.pt[6][0][1]	-11.42227765	-2.341762198	38.25405866

ffd4Lattice.pt[6][1][0]	-11.42227765	0.9217445689	-23.7525596

ffd4Lattice.pt[6][1][1]	-11.42227765	0.9217445689	38.25405866

ffd4Lattice.pt[6][2][0]	-11.42227765	4.185251336	-23.7525596

ffd4Lattice.pt[6][2][1]	-11.42227765	4.185251336	38.25405866

ffd4Lattice.pt[6][3][0]	-11.42227765	7.448758103	-23.7525596

ffd4Lattice.pt[6][3][1]	-11.42227765	7.448758103	38.25405866

ffd4Lattice.pt[6][4][0]	-11.42227765	10.71226487	-23.7525596

ffd4Lattice.pt[6][4][1]	-11.42227765	10.71226487	38.25405866

ffd4Lattice.pt[6][5][0]	-11.42227765	13.97577164	-23.7525596

ffd4Lattice.pt[6][5][1]	-11.42227765	13.97577164	38.25405866

ffd4Lattice.pt[6][6][0]	-11.42227765	17.2392784	-23.7525596

ffd4Lattice.pt[6][6][1]	-11.42227765	17.2392784	38.25405866

ffd4Lattice.pt[6][7][0]	-11.42227765	20.50278517	-23.7525596

ffd4Lattice.pt[6][7][1]	-11.42227765	20.50278517	38.25405866

ffd4Lattice.pt[6][8][0]	-11.42227765	23.76629194	-23.7525596

ffd4Lattice.pt[6][8][1]	-11.42227765	23.76629194	38.25405866

ffd4Lattice.pt[6][9][0]	-11.42227765	27.0297987	-23.7525596

ffd4Lattice.pt[6][9][1]	-11.42227765	27.0297987	38.25405866

ffd4Lattice.pt[6][10][0]	-11.42227765	30.29330547	-23.7525596

ffd4Lattice.pt[6][10][1]	-11.42227765	30.29330547	38.25405866

ffd4Lattice.pt[6][11][0]	-11.42227765	33.55681224	-23.7525596

ffd4Lattice.pt[6][11][1]	-11.42227765	33.55681224	38.25405866

ffd4Lattice.pt[6][12][0]	-11.42227765	36.820319	-23.7525596

ffd4Lattice.pt[6][12][1]	-11.42227765	36.820319	38.25405866

ffd4Lattice.pt[6][13][0]	-11.42227765	40.08382577	-23.7525596

ffd4Lattice.pt[6][13][1]	-11.42227765	40.08382577	38.25405866

ffd4Lattice.pt[6][14][0]	-11.42227765	43.34733254	-23.7525596

ffd4Lattice.pt[6][14][1]	-11.42227765	43.34733254	38.25405866

ffd4Lattice.pt[6][15][0]	-11.42227765	46.61083931	-23.7525596

ffd4Lattice.pt[6][15][1]	-11.42227765	46.61083931	38.25405866

ffd4Lattice.pt[6][16][0]	-11.42227765	49.87434607	-23.7525596

ffd4Lattice.pt[6][16][1]	-11.42227765	49.87434607	38.25405866

ffd4Lattice.pt[6][17][0]	-11.42227765	53.13785284	-23.7525596

ffd4Lattice.pt[6][17][1]	-11.42227765	53.13785284	38.25405866

ffd4Lattice.pt[6][18][0]	-11.42227765	56.40135961	-23.7525596

ffd4Lattice.pt[6][18][1]	-11.42227765	56.40135961	38.25405866

ffd4Lattice.pt[6][19][0]	-11.42227765	59.66486637	-23.7525596

ffd4Lattice.pt[6][19][1]	-11.42227765	59.66486637	38.25405866

ffd4Lattice.pt[7][0][0]	-8.158770338	-2.341762198	-23.7525596

ffd4Lattice.pt[7][0][1]	-8.158770338	-2.341762198	38.25405866

ffd4Lattice.pt[7][1][0]	-8.158770338	0.9217445689	-23.7525596

ffd4Lattice.pt[7][1][1]	-8.158770338	0.9217445689	38.25405866

ffd4Lattice.pt[7][2][0]	-8.158770338	4.185251336	-23.7525596

ffd4Lattice.pt[7][2][1]	-8.158770338	4.185251336	38.25405866

ffd4Lattice.pt[7][3][0]	-8.158770338	7.448758103	-23.7525596

ffd4Lattice.pt[7][3][1]	-8.158770338	7.448758103	38.25405866

ffd4Lattice.pt[7][4][0]	-8.158770338	10.71226487	-23.7525596

ffd4Lattice.pt[7][4][1]	-8.158770338	10.71226487	38.25405866

ffd4Lattice.pt[7][5][0]	-8.158770338	13.97577164	-23.7525596

ffd4Lattice.pt[7][5][1]	-8.158770338	13.97577164	38.25405866

ffd4Lattice.pt[7][6][0]	-8.158770338	17.2392784	-23.7525596

ffd4Lattice.pt[7][6][1]	-8.158770338	17.2392784	38.25405866

ffd4Lattice.pt[7][7][0]	-8.158770338	20.50278517	-23.7525596

ffd4Lattice.pt[7][7][1]	-8.158770338	20.50278517	38.25405866

ffd4Lattice.pt[7][8][0]	-8.158770338	23.76629194	-23.7525596

ffd4Lattice.pt[7][8][1]	-8.158770338	23.76629194	38.25405866

ffd4Lattice.pt[7][9][0]	-8.158770338	27.0297987	-23.7525596

ffd4Lattice.pt[7][9][1]	-8.158770338	27.0297987	38.25405866

ffd4Lattice.pt[7][10][0]	-8.158770338	30.29330547	-23.7525596

ffd4Lattice.pt[7][10][1]	-8.158770338	30.29330547	38.25405866

ffd4Lattice.pt[7][11][0]	-8.158770338	33.55681224	-23.7525596

ffd4Lattice.pt[7][11][1]	-8.158770338	33.55681224	38.25405866

ffd4Lattice.pt[7][12][0]	-8.158770338	36.820319	-23.7525596

ffd4Lattice.pt[7][12][1]	-8.158770338	36.820319	38.25405866

ffd4Lattice.pt[7][13][0]	-8.158770338	40.08382577	-23.7525596

ffd4Lattice.pt[7][13][1]	-8.158770338	40.08382577	38.25405866

ffd4Lattice.pt[7][14][0]	-8.158770338	43.34733254	-23.7525596

ffd4Lattice.pt[7][14][1]	-8.158770338	43.34733254	38.25405866

ffd4Lattice.pt[7][15][0]	-8.158770338	46.61083931	-23.7525596

ffd4Lattice.pt[7][15][1]	-8.158770338	46.61083931	38.25405866

ffd4Lattice.pt[7][16][0]	-8.158770338	49.87434607	-23.7525596

ffd4Lattice.pt[7][16][1]	-8.158770338	49.87434607	38.25405866

ffd4Lattice.pt[7][17][0]	-8.158770338	53.13785284	-23.7525596

ffd4Lattice.pt[7][17][1]	-8.158770338	53.13785284	38.25405866

ffd4Lattice.pt[7][18][0]	-8.158770338	56.40135961	-23.7525596

ffd4Lattice.pt[7][18][1]	-8.158770338	56.40135961	38.25405866

ffd4Lattice.pt[7][19][0]	-8.158770338	59.66486637	-23.7525596

ffd4Lattice.pt[7][19][1]	-8.158770338	59.66486637	38.25405866

ffd4Lattice.pt[8][0][0]	-4.895263028	-2.341762198	-23.7525596

ffd4Lattice.pt[8][0][1]	-4.895263028	-2.341762198	38.25405866

ffd4Lattice.pt[8][1][0]	-4.895263028	0.9217445689	-23.7525596

ffd4Lattice.pt[8][1][1]	-4.895263028	0.9217445689	38.25405866

ffd4Lattice.pt[8][2][0]	-4.895263028	4.185251336	-23.7525596

ffd4Lattice.pt[8][2][1]	-4.895263028	4.185251336	38.25405866

ffd4Lattice.pt[8][3][0]	-4.895263028	7.448758103	-23.7525596

ffd4Lattice.pt[8][3][1]	-4.895263028	7.448758103	38.25405866

ffd4Lattice.pt[8][4][0]	-4.895263028	10.71226487	-23.7525596

ffd4Lattice.pt[8][4][1]	-4.895263028	10.71226487	38.25405866

ffd4Lattice.pt[8][5][0]	-4.895263028	13.97577164	-23.7525596

ffd4Lattice.pt[8][5][1]	-4.895263028	13.97577164	38.25405866

ffd4Lattice.pt[8][6][0]	-4.895263028	17.2392784	-23.7525596

ffd4Lattice.pt[8][6][1]	-4.895263028	17.2392784	38.25405866

ffd4Lattice.pt[8][7][0]	-4.895263028	20.50278517	-23.7525596

ffd4Lattice.pt[8][7][1]	-4.895263028	20.50278517	38.25405866

ffd4Lattice.pt[8][8][0]	-4.895263028	23.76629194	-23.7525596

ffd4Lattice.pt[8][8][1]	-4.895263028	23.76629194	38.25405866

ffd4Lattice.pt[8][9][0]	-4.895263028	27.0297987	-23.7525596

ffd4Lattice.pt[8][9][1]	-4.895263028	27.0297987	38.25405866

ffd4Lattice.pt[8][10][0]	-4.895263028	30.29330547	-23.7525596

ffd4Lattice.pt[8][10][1]	-4.895263028	30.29330547	38.25405866

ffd4Lattice.pt[8][11][0]	-4.895263028	33.55681224	-23.7525596

ffd4Lattice.pt[8][11][1]	-4.895263028	33.55681224	38.25405866

ffd4Lattice.pt[8][12][0]	-4.895263028	36.820319	-23.7525596

ffd4Lattice.pt[8][12][1]	-4.895263028	36.820319	38.25405866

ffd4Lattice.pt[8][13][0]	-4.895263028	40.08382577	-23.7525596

ffd4Lattice.pt[8][13][1]	-4.895263028	40.08382577	38.25405866

ffd4Lattice.pt[8][14][0]	-4.895263028	43.34733254	-23.7525596

ffd4Lattice.pt[8][14][1]	-4.895263028	43.34733254	38.25405866

ffd4Lattice.pt[8][15][0]	-4.895263028	46.61083931	-23.7525596

ffd4Lattice.pt[8][15][1]	-4.895263028	46.61083931	38.25405866

ffd4Lattice.pt[8][16][0]	-4.895263028	49.87434607	-23.7525596

ffd4Lattice.pt[8][16][1]	-4.895263028	49.87434607	38.25405866

ffd4Lattice.pt[8][17][0]	-4.895263028	53.13785284	-23.7525596

ffd4Lattice.pt[8][17][1]	-4.895263028	53.13785284	38.25405866

ffd4Lattice.pt[8][18][0]	-4.895263028	56.40135961	-23.7525596

ffd4Lattice.pt[8][18][1]	-4.895263028	56.40135961	38.25405866

ffd4Lattice.pt[8][19][0]	-4.895263028	59.66486637	-23.7525596

ffd4Lattice.pt[8][19][1]	-4.895263028	59.66486637	38.25405866

ffd4Lattice.pt[9][0][0]	-1.631755718	-2.341762198	-23.7525596

ffd4Lattice.pt[9][0][1]	-1.631755718	-2.341762198	38.25405866

ffd4Lattice.pt[9][1][0]	-1.631755718	0.9217445689	-23.7525596

ffd4Lattice.pt[9][1][1]	-1.631755718	0.9217445689	38.25405866

ffd4Lattice.pt[9][2][0]	-1.631755718	4.185251336	-23.7525596

ffd4Lattice.pt[9][2][1]	-1.631755718	4.185251336	38.25405866

ffd4Lattice.pt[9][3][0]	-1.631755718	7.448758103	-23.7525596

ffd4Lattice.pt[9][3][1]	-1.631755718	7.448758103	38.25405866

ffd4Lattice.pt[9][4][0]	-1.631755718	10.71226487	-23.7525596

ffd4Lattice.pt[9][4][1]	-1.631755718	10.71226487	38.25405866

ffd4Lattice.pt[9][5][0]	-1.631755718	13.97577164	-23.7525596

ffd4Lattice.pt[9][5][1]	-1.631755718	13.97577164	38.25405866

ffd4Lattice.pt[9][6][0]	-1.631755718	17.2392784	-23.7525596

ffd4Lattice.pt[9][6][1]	-1.631755718	17.2392784	38.25405866

ffd4Lattice.pt[9][7][0]	-1.631755718	20.50278517	-23.7525596

ffd4Lattice.pt[9][7][1]	-1.631755718	20.50278517	38.25405866

ffd4Lattice.pt[9][8][0]	-1.631755718	23.76629194	-23.7525596

ffd4Lattice.pt[9][8][1]	-1.631755718	23.76629194	38.25405866

ffd4Lattice.pt[9][9][0]	-1.631755718	27.0297987	-23.7525596

ffd4Lattice.pt[9][9][1]	-1.631755718	27.0297987	38.25405866

ffd4Lattice.pt[9][10][0]	-1.631755718	30.29330547	-23.7525596

ffd4Lattice.pt[9][10][1]	-1.631755718	30.29330547	38.25405866

ffd4Lattice.pt[9][11][0]	-1.631755718	33.55681224	-23.7525596

ffd4Lattice.pt[9][11][1]	-1.631755718	33.55681224	38.25405866

ffd4Lattice.pt[9][12][0]	-1.631755718	36.820319	-23.7525596

ffd4Lattice.pt[9][12][1]	-1.631755718	36.820319	38.25405866

ffd4Lattice.pt[9][13][0]	-1.631755718	40.08382577	-23.7525596

ffd4Lattice.pt[9][13][1]	-1.631755718	40.08382577	38.25405866

ffd4Lattice.pt[9][14][0]	-1.631755718	43.34733254	-23.7525596

ffd4Lattice.pt[9][14][1]	-1.631755718	43.34733254	38.25405866

ffd4Lattice.pt[9][15][0]	-1.631755718	46.61083931	-23.7525596

ffd4Lattice.pt[9][15][1]	-1.631755718	46.61083931	38.25405866

ffd4Lattice.pt[9][16][0]	-1.631755718	49.87434607	-23.7525596

ffd4Lattice.pt[9][16][1]	-1.631755718	49.87434607	38.25405866

ffd4Lattice.pt[9][17][0]	-1.631755718	53.13785284	-23.7525596

ffd4Lattice.pt[9][17][1]	-1.631755718	53.13785284	38.25405866

ffd4Lattice.pt[9][18][0]	-1.631755718	56.40135961	-23.7525596

ffd4Lattice.pt[9][18][1]	-1.631755718	56.40135961	38.25405866

ffd4Lattice.pt[9][19][0]	-1.631755718	59.66486637	-23.7525596

ffd4Lattice.pt[9][19][1]	-1.631755718	59.66486637	38.25405866

ffd4Lattice.pt[10][0][0]	1.631751592	-2.341762198	-23.7525596

ffd4Lattice.pt[10][0][1]	1.631751592	-2.341762198	38.25405866

ffd4Lattice.pt[10][1][0]	1.631751592	0.9217445689	-23.7525596

ffd4Lattice.pt[10][1][1]	1.631751592	0.9217445689	38.25405866

ffd4Lattice.pt[10][2][0]	1.631751592	4.185251336	-23.7525596

ffd4Lattice.pt[10][2][1]	1.631751592	4.185251336	38.25405866

ffd4Lattice.pt[10][3][0]	1.631751592	7.448758103	-23.7525596

ffd4Lattice.pt[10][3][1]	1.631751592	7.448758103	38.25405866

ffd4Lattice.pt[10][4][0]	1.631751592	10.71226487	-23.7525596

ffd4Lattice.pt[10][4][1]	1.631751592	10.71226487	38.25405866

ffd4Lattice.pt[10][5][0]	1.631751592	13.97577164	-23.7525596

ffd4Lattice.pt[10][5][1]	1.631751592	13.97577164	38.25405866

ffd4Lattice.pt[10][6][0]	1.631751592	17.2392784	-23.7525596

ffd4Lattice.pt[10][6][1]	1.631751592	17.2392784	38.25405866

ffd4Lattice.pt[10][7][0]	1.631751592	20.50278517	-23.7525596

ffd4Lattice.pt[10][7][1]	1.631751592	20.50278517	38.25405866

ffd4Lattice.pt[10][8][0]	1.631751592	23.76629194	-23.7525596

ffd4Lattice.pt[10][8][1]	1.631751592	23.76629194	38.25405866

ffd4Lattice.pt[10][9][0]	1.631751592	27.0297987	-23.7525596

ffd4Lattice.pt[10][9][1]	1.631751592	27.0297987	38.25405866

ffd4Lattice.pt[10][10][0]	1.631751592	30.29330547	-23.7525596

ffd4Lattice.pt[10][10][1]	1.631751592	30.29330547	38.25405866

ffd4Lattice.pt[10][11][0]	1.631751592	33.55681224	-23.7525596

ffd4Lattice.pt[10][11][1]	1.631751592	33.55681224	38.25405866

ffd4Lattice.pt[10][12][0]	1.631751592	36.820319	-23.7525596

ffd4Lattice.pt[10][12][1]	1.631751592	36.820319	38.25405866

ffd4Lattice.pt[10][13][0]	1.631751592	40.08382577	-23.7525596

ffd4Lattice.pt[10][13][1]	1.631751592	40.08382577	38.25405866

ffd4Lattice.pt[10][14][0]	1.631751592	43.34733254	-23.7525596

ffd4Lattice.pt[10][14][1]	1.631751592	43.34733254	38.25405866

ffd4Lattice.pt[10][15][0]	1.631751592	46.61083931	-23.7525596

ffd4Lattice.pt[10][15][1]	1.631751592	46.61083931	38.25405866

ffd4Lattice.pt[10][16][0]	1.631751592	49.87434607	-23.7525596

ffd4Lattice.pt[10][16][1]	1.631751592	49.87434607	38.25405866

ffd4Lattice.pt[10][17][0]	1.631751592	53.13785284	-23.7525596

ffd4Lattice.pt[10][17][1]	1.631751592	53.13785284	38.25405866

ffd4Lattice.pt[10][18][0]	1.631751592	56.40135961	-23.7525596

ffd4Lattice.pt[10][18][1]	1.631751592	56.40135961	38.25405866

ffd4Lattice.pt[10][19][0]	1.631751592	59.66486637	-23.7525596

ffd4Lattice.pt[10][19][1]	1.631751592	59.66486637	38.25405866

ffd4Lattice.pt[11][0][0]	4.895258902	-2.341762198	-23.7525596

ffd4Lattice.pt[11][0][1]	4.895258902	-2.341762198	38.25405866

ffd4Lattice.pt[11][1][0]	4.895258902	0.9217445689	-23.7525596

ffd4Lattice.pt[11][1][1]	4.895258902	0.9217445689	38.25405866

ffd4Lattice.pt[11][2][0]	4.895258902	4.185251336	-23.7525596

ffd4Lattice.pt[11][2][1]	4.895258902	4.185251336	38.25405866

ffd4Lattice.pt[11][3][0]	4.895258902	7.448758103	-23.7525596

ffd4Lattice.pt[11][3][1]	4.895258902	7.448758103	38.25405866

ffd4Lattice.pt[11][4][0]	4.895258902	10.71226487	-23.7525596

ffd4Lattice.pt[11][4][1]	4.895258902	10.71226487	38.25405866

ffd4Lattice.pt[11][5][0]	4.895258902	13.97577164	-23.7525596

ffd4Lattice.pt[11][5][1]	4.895258902	13.97577164	38.25405866

ffd4Lattice.pt[11][6][0]	4.895258902	17.2392784	-23.7525596

ffd4Lattice.pt[11][6][1]	4.895258902	17.2392784	38.25405866

ffd4Lattice.pt[11][7][0]	4.895258902	20.50278517	-23.7525596

ffd4Lattice.pt[11][7][1]	4.895258902	20.50278517	38.25405866

ffd4Lattice.pt[11][8][0]	4.895258902	23.76629194	-23.7525596

ffd4Lattice.pt[11][8][1]	4.895258902	23.76629194	38.25405866

ffd4Lattice.pt[11][9][0]	4.895258902	27.0297987	-23.7525596

ffd4Lattice.pt[11][9][1]	4.895258902	27.0297987	38.25405866

ffd4Lattice.pt[11][10][0]	4.895258902	30.29330547	-23.7525596

ffd4Lattice.pt[11][10][1]	4.895258902	30.29330547	38.25405866

ffd4Lattice.pt[11][11][0]	4.895258902	33.55681224	-23.7525596

ffd4Lattice.pt[11][11][1]	4.895258902	33.55681224	38.25405866

ffd4Lattice.pt[11][12][0]	4.895258902	36.820319	-23.7525596

ffd4Lattice.pt[11][12][1]	4.895258902	36.820319	38.25405866

ffd4Lattice.pt[11][13][0]	4.895258902	40.08382577	-23.7525596

ffd4Lattice.pt[11][13][1]	4.895258902	40.08382577	38.25405866

ffd4Lattice.pt[11][14][0]	4.895258902	43.34733254	-23.7525596

ffd4Lattice.pt[11][14][1]	4.895258902	43.34733254	38.25405866

ffd4Lattice.pt[11][15][0]	4.895258902	46.61083931	-23.7525596

ffd4Lattice.pt[11][15][1]	4.895258902	46.61083931	38.25405866

ffd4Lattice.pt[11][16][0]	4.895258902	49.87434607	-23.7525596

ffd4Lattice.pt[11][16][1]	4.895258902	49.87434607	38.25405866

ffd4Lattice.pt[11][17][0]	4.895258902	53.13785284	-23.7525596

ffd4Lattice.pt[11][17][1]	4.895258902	53.13785284	38.25405866

ffd4Lattice.pt[11][18][0]	4.895258902	56.40135961	-23.7525596

ffd4Lattice.pt[11][18][1]	4.895258902	56.40135961	38.25405866

ffd4Lattice.pt[11][19][0]	4.895258902	59.66486637	-23.7525596

ffd4Lattice.pt[11][19][1]	4.895258902	59.66486637	38.25405866

ffd4Lattice.pt[12][0][0]	8.158766211	-2.341762198	-23.7525596

ffd4Lattice.pt[12][0][1]	8.158766211	-2.341762198	38.25405866

ffd4Lattice.pt[12][1][0]	8.158766211	0.9217445689	-23.7525596

ffd4Lattice.pt[12][1][1]	8.158766211	0.9217445689	38.25405866

ffd4Lattice.pt[12][2][0]	8.158766211	4.185251336	-23.7525596

ffd4Lattice.pt[12][2][1]	8.158766211	4.185251336	38.25405866

ffd4Lattice.pt[12][3][0]	8.158766211	7.448758103	-23.7525596

ffd4Lattice.pt[12][3][1]	8.158766211	7.448758103	38.25405866

ffd4Lattice.pt[12][4][0]	8.158766211	10.71226487	-23.7525596

ffd4Lattice.pt[12][4][1]	8.158766211	10.71226487	38.25405866

ffd4Lattice.pt[12][5][0]	8.158766211	13.97577164	-23.7525596

ffd4Lattice.pt[12][5][1]	8.158766211	13.97577164	38.25405866

ffd4Lattice.pt[12][6][0]	8.158766211	17.2392784	-23.7525596

ffd4Lattice.pt[12][6][1]	8.158766211	17.2392784	38.25405866

ffd4Lattice.pt[12][7][0]	8.158766211	20.50278517	-23.7525596

ffd4Lattice.pt[12][7][1]	8.158766211	20.50278517	38.25405866

ffd4Lattice.pt[12][8][0]	8.158766211	23.76629194	-23.7525596

ffd4Lattice.pt[12][8][1]	8.158766211	23.76629194	38.25405866

ffd4Lattice.pt[12][9][0]	8.158766211	27.0297987	-23.7525596

ffd4Lattice.pt[12][9][1]	8.158766211	27.0297987	38.25405866

ffd4Lattice.pt[12][10][0]	8.158766211	30.29330547	-23.7525596

ffd4Lattice.pt[12][10][1]	8.158766211	30.29330547	38.25405866

ffd4Lattice.pt[12][11][0]	8.158766211	33.55681224	-23.7525596

ffd4Lattice.pt[12][11][1]	8.158766211	33.55681224	38.25405866

ffd4Lattice.pt[12][12][0]	8.158766211	36.820319	-23.7525596

ffd4Lattice.pt[12][12][1]	8.158766211	36.820319	38.25405866

ffd4Lattice.pt[12][13][0]	8.158766211	40.08382577	-23.7525596

ffd4Lattice.pt[12][13][1]	8.158766211	40.08382577	38.25405866

ffd4Lattice.pt[12][14][0]	8.158766211	43.34733254	-23.7525596

ffd4Lattice.pt[12][14][1]	8.158766211	43.34733254	38.25405866

ffd4Lattice.pt[12][15][0]	8.158766211	46.61083931	-23.7525596

ffd4Lattice.pt[12][15][1]	8.158766211	46.61083931	38.25405866

ffd4Lattice.pt[12][16][0]	8.158766211	49.87434607	-23.7525596

ffd4Lattice.pt[12][16][1]	8.158766211	49.87434607	38.25405866

ffd4Lattice.pt[12][17][0]	8.158766211	53.13785284	-23.7525596

ffd4Lattice.pt[12][17][1]	8.158766211	53.13785284	38.25405866

ffd4Lattice.pt[12][18][0]	8.158766211	56.40135961	-23.7525596

ffd4Lattice.pt[12][18][1]	8.158766211	56.40135961	38.25405866

ffd4Lattice.pt[12][19][0]	8.158766211	59.66486637	-23.7525596

ffd4Lattice.pt[12][19][1]	8.158766211	59.66486637	38.25405866

ffd4Lattice.pt[13][0][0]	11.42227352	-2.341762198	-23.7525596

ffd4Lattice.pt[13][0][1]	11.42227352	-2.341762198	38.25405866

ffd4Lattice.pt[13][1][0]	11.42227352	0.9217445689	-23.7525596

ffd4Lattice.pt[13][1][1]	11.42227352	0.9217445689	38.25405866

ffd4Lattice.pt[13][2][0]	11.42227352	4.185251336	-23.7525596

ffd4Lattice.pt[13][2][1]	11.42227352	4.185251336	38.25405866

ffd4Lattice.pt[13][3][0]	11.42227352	7.448758103	-23.7525596

ffd4Lattice.pt[13][3][1]	11.42227352	7.448758103	38.25405866

ffd4Lattice.pt[13][4][0]	11.42227352	10.71226487	-23.7525596

ffd4Lattice.pt[13][4][1]	11.42227352	10.71226487	38.25405866

ffd4Lattice.pt[13][5][0]	11.42227352	13.97577164	-23.7525596

ffd4Lattice.pt[13][5][1]	11.42227352	13.97577164	38.25405866

ffd4Lattice.pt[13][6][0]	11.42227352	17.2392784	-23.7525596

ffd4Lattice.pt[13][6][1]	11.42227352	17.2392784	38.25405866

ffd4Lattice.pt[13][7][0]	11.42227352	20.50278517	-23.7525596

ffd4Lattice.pt[13][7][1]	11.42227352	20.50278517	38.25405866

ffd4Lattice.pt[13][8][0]	11.42227352	23.76629194	-23.7525596

ffd4Lattice.pt[13][8][1]	11.42227352	23.76629194	38.25405866

ffd4Lattice.pt[13][9][0]	11.42227352	27.0297987	-23.7525596

ffd4Lattice.pt[13][9][1]	11.42227352	27.0297987	38.25405866

ffd4Lattice.pt[13][10][0]	11.42227352	30.29330547	-23.7525596

ffd4Lattice.pt[13][10][1]	11.42227352	30.29330547	38.25405866

ffd4Lattice.pt[13][11][0]	11.42227352	33.55681224	-23.7525596

ffd4Lattice.pt[13][11][1]	11.42227352	33.55681224	38.25405866

ffd4Lattice.pt[13][12][0]	11.42227352	36.820319	-23.7525596

ffd4Lattice.pt[13][12][1]	11.42227352	36.820319	38.25405866

ffd4Lattice.pt[13][13][0]	11.42227352	40.08382577	-23.7525596

ffd4Lattice.pt[13][13][1]	11.42227352	40.08382577	38.25405866

ffd4Lattice.pt[13][14][0]	11.42227352	43.34733254	-23.7525596

ffd4Lattice.pt[13][14][1]	11.42227352	43.34733254	38.25405866

ffd4Lattice.pt[13][15][0]	11.42227352	46.61083931	-23.7525596

ffd4Lattice.pt[13][15][1]	11.42227352	46.61083931	38.25405866

ffd4Lattice.pt[13][16][0]	11.42227352	49.87434607	-23.7525596

ffd4Lattice.pt[13][16][1]	11.42227352	49.87434607	38.25405866

ffd4Lattice.pt[13][17][0]	11.42227352	53.13785284	-23.7525596

ffd4Lattice.pt[13][17][1]	11.42227352	53.13785284	38.25405866

ffd4Lattice.pt[13][18][0]	11.42227352	56.40135961	-23.7525596

ffd4Lattice.pt[13][18][1]	11.42227352	56.40135961	38.25405866

ffd4Lattice.pt[13][19][0]	11.42227352	59.66486637	-23.7525596

ffd4Lattice.pt[13][19][1]	11.42227352	59.66486637	38.25405866

ffd4Lattice.pt[14][0][0]	14.68578083	-2.341762198	-23.7525596

ffd4Lattice.pt[14][0][1]	14.68578083	-2.341762198	38.25405866

ffd4Lattice.pt[14][1][0]	14.68578083	0.9217445689	-23.7525596

ffd4Lattice.pt[14][1][1]	14.68578083	0.9217445689	38.25405866

ffd4Lattice.pt[14][2][0]	14.68578083	4.185251336	-23.7525596

ffd4Lattice.pt[14][2][1]	14.68578083	4.185251336	38.25405866

ffd4Lattice.pt[14][3][0]	14.68578083	7.448758103	-23.7525596

ffd4Lattice.pt[14][3][1]	14.68578083	7.448758103	38.25405866

ffd4Lattice.pt[14][4][0]	14.68578083	10.71226487	-23.7525596

ffd4Lattice.pt[14][4][1]	14.68578083	10.71226487	38.25405866

ffd4Lattice.pt[14][5][0]	14.68578083	13.97577164	-23.7525596

ffd4Lattice.pt[14][5][1]	14.68578083	13.97577164	38.25405866

ffd4Lattice.pt[14][6][0]	14.68578083	17.2392784	-23.7525596

ffd4Lattice.pt[14][6][1]	14.68578083	17.2392784	38.25405866

ffd4Lattice.pt[14][7][0]	14.68578083	20.50278517	-23.7525596

ffd4Lattice.pt[14][7][1]	14.68578083	20.50278517	38.25405866

ffd4Lattice.pt[14][8][0]	14.68578083	23.76629194	-23.7525596

ffd4Lattice.pt[14][8][1]	14.68578083	23.76629194	38.25405866

ffd4Lattice.pt[14][9][0]	14.68578083	27.0297987	-23.7525596

ffd4Lattice.pt[14][9][1]	14.68578083	27.0297987	38.25405866

ffd4Lattice.pt[14][10][0]	14.68578083	30.29330547	-23.7525596

ffd4Lattice.pt[14][10][1]	14.68578083	30.29330547	38.25405866

ffd4Lattice.pt[14][11][0]	14.68578083	33.55681224	-23.7525596

ffd4Lattice.pt[14][11][1]	14.68578083	33.55681224	38.25405866

ffd4Lattice.pt[14][12][0]	14.68578083	36.820319	-23.7525596

ffd4Lattice.pt[14][12][1]	14.68578083	36.820319	38.25405866

ffd4Lattice.pt[14][13][0]	14.68578083	40.08382577	-23.7525596

ffd4Lattice.pt[14][13][1]	14.68578083	40.08382577	38.25405866

ffd4Lattice.pt[14][14][0]	14.68578083	43.34733254	-23.7525596

ffd4Lattice.pt[14][14][1]	14.68578083	43.34733254	38.25405866

ffd4Lattice.pt[14][15][0]	14.68578083	46.61083931	-23.7525596

ffd4Lattice.pt[14][15][1]	14.68578083	46.61083931	38.25405866

ffd4Lattice.pt[14][16][0]	14.68578083	49.87434607	-23.7525596

ffd4Lattice.pt[14][16][1]	14.68578083	49.87434607	38.25405866

ffd4Lattice.pt[14][17][0]	14.68578083	53.13785284	-23.7525596

ffd4Lattice.pt[14][17][1]	14.68578083	53.13785284	38.25405866

ffd4Lattice.pt[14][18][0]	14.68578083	56.40135961	-23.7525596

ffd4Lattice.pt[14][18][1]	14.68578083	56.40135961	38.25405866

ffd4Lattice.pt[14][19][0]	14.68578083	59.66486637	-23.7525596

ffd4Lattice.pt[14][19][1]	14.68578083	59.66486637	38.25405866

ffd4Lattice.pt[15][0][0]	17.94928814	-2.341762198	-23.7525596

ffd4Lattice.pt[15][0][1]	17.94928814	-2.341762198	38.25405866

ffd4Lattice.pt[15][1][0]	17.94928814	0.9217445689	-23.7525596

ffd4Lattice.pt[15][1][1]	17.94928814	0.9217445689	38.25405866

ffd4Lattice.pt[15][2][0]	17.94928814	4.185251336	-23.7525596

ffd4Lattice.pt[15][2][1]	17.94928814	4.185251336	38.25405866

ffd4Lattice.pt[15][3][0]	17.94928814	7.448758103	-23.7525596

ffd4Lattice.pt[15][3][1]	17.94928814	7.448758103	38.25405866

ffd4Lattice.pt[15][4][0]	17.94928814	10.71226487	-23.7525596

ffd4Lattice.pt[15][4][1]	17.94928814	10.71226487	38.25405866

ffd4Lattice.pt[15][5][0]	17.94928814	13.97577164	-23.7525596

ffd4Lattice.pt[15][5][1]	17.94928814	13.97577164	38.25405866

ffd4Lattice.pt[15][6][0]	17.94928814	17.2392784	-23.7525596

ffd4Lattice.pt[15][6][1]	17.94928814	17.2392784	38.25405866

ffd4Lattice.pt[15][7][0]	17.94928814	20.50278517	-23.7525596

ffd4Lattice.pt[15][7][1]	17.94928814	20.50278517	38.25405866

ffd4Lattice.pt[15][8][0]	17.94928814	23.76629194	-23.7525596

ffd4Lattice.pt[15][8][1]	17.94928814	23.76629194	38.25405866

ffd4Lattice.pt[15][9][0]	17.94928814	27.0297987	-23.7525596

ffd4Lattice.pt[15][9][1]	17.94928814	27.0297987	38.25405866

ffd4Lattice.pt[15][10][0]	17.94928814	30.29330547	-23.7525596

ffd4Lattice.pt[15][10][1]	17.94928814	30.29330547	38.25405866

ffd4Lattice.pt[15][11][0]	17.94928814	33.55681224	-23.7525596

ffd4Lattice.pt[15][11][1]	17.94928814	33.55681224	38.25405866

ffd4Lattice.pt[15][12][0]	17.94928814	36.820319	-23.7525596

ffd4Lattice.pt[15][12][1]	17.94928814	36.820319	38.25405866

ffd4Lattice.pt[15][13][0]	17.94928814	40.08382577	-23.7525596

ffd4Lattice.pt[15][13][1]	17.94928814	40.08382577	38.25405866

ffd4Lattice.pt[15][14][0]	17.94928814	43.34733254	-23.7525596

ffd4Lattice.pt[15][14][1]	17.94928814	43.34733254	38.25405866

ffd4Lattice.pt[15][15][0]	17.94928814	46.61083931	-23.7525596

ffd4Lattice.pt[15][15][1]	17.94928814	46.61083931	38.25405866

ffd4Lattice.pt[15][16][0]	17.94928814	49.87434607	-23.7525596

ffd4Lattice.pt[15][16][1]	17.94928814	49.87434607	38.25405866

ffd4Lattice.pt[15][17][0]	17.94928814	53.13785284	-23.7525596

ffd4Lattice.pt[15][17][1]	17.94928814	53.13785284	38.25405866

ffd4Lattice.pt[15][18][0]	17.94928814	56.40135961	-23.7525596

ffd4Lattice.pt[15][18][1]	17.94928814	56.40135961	38.25405866

ffd4Lattice.pt[15][19][0]	17.94928814	59.66486637	-23.7525596

ffd4Lattice.pt[15][19][1]	17.94928814	59.66486637	38.25405866

ffd4Lattice.pt[16][0][0]	21.21279545	-2.341762198	-23.7525596

ffd4Lattice.pt[16][0][1]	21.21279545	-2.341762198	38.25405866

ffd4Lattice.pt[16][1][0]	21.21279545	0.9217445689	-23.7525596

ffd4Lattice.pt[16][1][1]	21.21279545	0.9217445689	38.25405866

ffd4Lattice.pt[16][2][0]	21.21279545	4.185251336	-23.7525596

ffd4Lattice.pt[16][2][1]	21.21279545	4.185251336	38.25405866

ffd4Lattice.pt[16][3][0]	21.21279545	7.448758103	-23.7525596

ffd4Lattice.pt[16][3][1]	21.21279545	7.448758103	38.25405866

ffd4Lattice.pt[16][4][0]	21.21279545	10.71226487	-23.7525596

ffd4Lattice.pt[16][4][1]	21.21279545	10.71226487	38.25405866

ffd4Lattice.pt[16][5][0]	21.21279545	13.97577164	-23.7525596

ffd4Lattice.pt[16][5][1]	21.21279545	13.97577164	38.25405866

ffd4Lattice.pt[16][6][0]	21.21279545	17.2392784	-23.7525596

ffd4Lattice.pt[16][6][1]	21.21279545	17.2392784	38.25405866

ffd4Lattice.pt[16][7][0]	21.21279545	20.50278517	-23.7525596

ffd4Lattice.pt[16][7][1]	21.21279545	20.50278517	38.25405866

ffd4Lattice.pt[16][8][0]	21.21279545	23.76629194	-23.7525596

ffd4Lattice.pt[16][8][1]	21.21279545	23.76629194	38.25405866

ffd4Lattice.pt[16][9][0]	21.21279545	27.0297987	-23.7525596

ffd4Lattice.pt[16][9][1]	21.21279545	27.0297987	38.25405866

ffd4Lattice.pt[16][10][0]	21.21279545	30.29330547	-23.7525596

ffd4Lattice.pt[16][10][1]	21.21279545	30.29330547	38.25405866

ffd4Lattice.pt[16][11][0]	21.21279545	33.55681224	-23.7525596

ffd4Lattice.pt[16][11][1]	21.21279545	33.55681224	38.25405866

ffd4Lattice.pt[16][12][0]	21.21279545	36.820319	-23.7525596

ffd4Lattice.pt[16][12][1]	21.21279545	36.820319	38.25405866

ffd4Lattice.pt[16][13][0]	21.21279545	40.08382577	-23.7525596

ffd4Lattice.pt[16][13][1]	21.21279545	40.08382577	38.25405866

ffd4Lattice.pt[16][14][0]	21.21279545	43.34733254	-23.7525596

ffd4Lattice.pt[16][14][1]	21.21279545	43.34733254	38.25405866

ffd4Lattice.pt[16][15][0]	21.21279545	46.61083931	-23.7525596

ffd4Lattice.pt[16][15][1]	21.21279545	46.61083931	38.25405866

ffd4Lattice.pt[16][16][0]	21.21279545	49.87434607	-23.7525596

ffd4Lattice.pt[16][16][1]	21.21279545	49.87434607	38.25405866

ffd4Lattice.pt[16][17][0]	21.21279545	53.13785284	-23.7525596

ffd4Lattice.pt[16][17][1]	21.21279545	53.13785284	38.25405866

ffd4Lattice.pt[16][18][0]	21.21279545	56.40135961	-23.7525596

ffd4Lattice.pt[16][18][1]	21.21279545	56.40135961	38.25405866

ffd4Lattice.pt[16][19][0]	21.21279545	59.66486637	-23.7525596

ffd4Lattice.pt[16][19][1]	21.21279545	59.66486637	38.25405866

ffd4Lattice.pt[17][0][0]	24.47630276	-2.341762198	-23.7525596

ffd4Lattice.pt[17][0][1]	24.47630276	-2.341762198	38.25405866

ffd4Lattice.pt[17][1][0]	24.47630276	0.9217445689	-23.7525596

ffd4Lattice.pt[17][1][1]	24.47630276	0.9217445689	38.25405866

ffd4Lattice.pt[17][2][0]	24.47630276	4.185251336	-23.7525596

ffd4Lattice.pt[17][2][1]	24.47630276	4.185251336	38.25405866

ffd4Lattice.pt[17][3][0]	24.47630276	7.448758103	-23.7525596

ffd4Lattice.pt[17][3][1]	24.47630276	7.448758103	38.25405866

ffd4Lattice.pt[17][4][0]	24.47630276	10.71226487	-23.7525596

ffd4Lattice.pt[17][4][1]	24.47630276	10.71226487	38.25405866

ffd4Lattice.pt[17][5][0]	24.47630276	13.97577164	-23.7525596

ffd4Lattice.pt[17][5][1]	24.47630276	13.97577164	38.25405866

ffd4Lattice.pt[17][6][0]	24.47630276	17.2392784	-23.7525596

ffd4Lattice.pt[17][6][1]	24.47630276	17.2392784	38.25405866

ffd4Lattice.pt[17][7][0]	24.47630276	20.50278517	-23.7525596

ffd4Lattice.pt[17][7][1]	24.47630276	20.50278517	38.25405866

ffd4Lattice.pt[17][8][0]	24.47630276	23.76629194	-23.7525596

ffd4Lattice.pt[17][8][1]	24.47630276	23.76629194	38.25405866

ffd4Lattice.pt[17][9][0]	24.47630276	27.0297987	-23.7525596

ffd4Lattice.pt[17][9][1]	24.47630276	27.0297987	38.25405866

ffd4Lattice.pt[17][10][0]	24.47630276	30.29330547	-23.7525596

ffd4Lattice.pt[17][10][1]	24.47630276	30.29330547	38.25405866

ffd4Lattice.pt[17][11][0]	24.47630276	33.55681224	-23.7525596

ffd4Lattice.pt[17][11][1]	24.47630276	33.55681224	38.25405866

ffd4Lattice.pt[17][12][0]	24.47630276	36.820319	-23.7525596

ffd4Lattice.pt[17][12][1]	24.47630276	36.820319	38.25405866

ffd4Lattice.pt[17][13][0]	24.47630276	40.08382577	-23.7525596

ffd4Lattice.pt[17][13][1]	24.47630276	40.08382577	38.25405866

ffd4Lattice.pt[17][14][0]	24.47630276	43.34733254	-23.7525596

ffd4Lattice.pt[17][14][1]	24.47630276	43.34733254	38.25405866

ffd4Lattice.pt[17][15][0]	24.47630276	46.61083931	-23.7525596

ffd4Lattice.pt[17][15][1]	24.47630276	46.61083931	38.25405866

ffd4Lattice.pt[17][16][0]	24.47630276	49.87434607	-23.7525596

ffd4Lattice.pt[17][16][1]	24.47630276	49.87434607	38.25405866

ffd4Lattice.pt[17][17][0]	24.47630276	53.13785284	-23.7525596

ffd4Lattice.pt[17][17][1]	24.47630276	53.13785284	38.25405866

ffd4Lattice.pt[17][18][0]	24.47630276	56.40135961	-23.7525596

ffd4Lattice.pt[17][18][1]	24.47630276	56.40135961	38.25405866

ffd4Lattice.pt[17][19][0]	24.47630276	59.66486637	-23.7525596

ffd4Lattice.pt[17][19][1]	24.47630276	59.66486637	38.25405866

ffd4Lattice.pt[18][0][0]	27.73981007	-2.341762198	-23.7525596

ffd4Lattice.pt[18][0][1]	27.73981007	-2.341762198	38.25405866

ffd4Lattice.pt[18][1][0]	27.73981007	0.9217445689	-23.7525596

ffd4Lattice.pt[18][1][1]	27.73981007	0.9217445689	38.25405866

ffd4Lattice.pt[18][2][0]	27.73981007	4.185251336	-23.7525596

ffd4Lattice.pt[18][2][1]	27.73981007	4.185251336	38.25405866

ffd4Lattice.pt[18][3][0]	27.73981007	7.448758103	-23.7525596

ffd4Lattice.pt[18][3][1]	27.73981007	7.448758103	38.25405866

ffd4Lattice.pt[18][4][0]	27.73981007	10.71226487	-23.7525596

ffd4Lattice.pt[18][4][1]	27.73981007	10.71226487	38.25405866

ffd4Lattice.pt[18][5][0]	27.73981007	13.97577164	-23.7525596

ffd4Lattice.pt[18][5][1]	27.73981007	13.97577164	38.25405866

ffd4Lattice.pt[18][6][0]	27.73981007	17.2392784	-23.7525596

ffd4Lattice.pt[18][6][1]	27.73981007	17.2392784	38.25405866

ffd4Lattice.pt[18][7][0]	27.73981007	20.50278517	-23.7525596

ffd4Lattice.pt[18][7][1]	27.73981007	20.50278517	38.25405866

ffd4Lattice.pt[18][8][0]	27.73981007	23.76629194	-23.7525596

ffd4Lattice.pt[18][8][1]	27.73981007	23.76629194	38.25405866

ffd4Lattice.pt[18][9][0]	27.73981007	27.0297987	-23.7525596

ffd4Lattice.pt[18][9][1]	27.73981007	27.0297987	38.25405866

ffd4Lattice.pt[18][10][0]	27.73981007	30.29330547	-23.7525596

ffd4Lattice.pt[18][10][1]	27.73981007	30.29330547	38.25405866

ffd4Lattice.pt[18][11][0]	27.73981007	33.55681224	-23.7525596

ffd4Lattice.pt[18][11][1]	27.73981007	33.55681224	38.25405866

ffd4Lattice.pt[18][12][0]	27.73981007	36.820319	-23.7525596

ffd4Lattice.pt[18][12][1]	27.73981007	36.820319	38.25405866

ffd4Lattice.pt[18][13][0]	27.73981007	40.08382577	-23.7525596

ffd4Lattice.pt[18][13][1]	27.73981007	40.08382577	38.25405866

ffd4Lattice.pt[18][14][0]	27.73981007	43.34733254	-23.7525596

ffd4Lattice.pt[18][14][1]	27.73981007	43.34733254	38.25405866

ffd4Lattice.pt[18][15][0]	27.73981007	46.61083931	-23.7525596

ffd4Lattice.pt[18][15][1]	27.73981007	46.61083931	38.25405866

ffd4Lattice.pt[18][16][0]	27.73981007	49.87434607	-23.7525596

ffd4Lattice.pt[18][16][1]	27.73981007	49.87434607	38.25405866

ffd4Lattice.pt[18][17][0]	27.73981007	53.13785284	-23.7525596

ffd4Lattice.pt[18][17][1]	27.73981007	53.13785284	38.25405866

ffd4Lattice.pt[18][18][0]	27.73981007	56.40135961	-23.7525596

ffd4Lattice.pt[18][18][1]	27.73981007	56.40135961	38.25405866

ffd4Lattice.pt[18][19][0]	27.73981007	59.66486637	-23.7525596

ffd4Lattice.pt[18][19][1]	27.73981007	59.66486637	38.25405866

ffd4Lattice.pt[19][0][0]	31.00331738	-2.341762198	-23.7525596

ffd4Lattice.pt[19][0][1]	31.00331738	-2.341762198	38.25405866

ffd4Lattice.pt[19][1][0]	31.00331738	0.9217445689	-23.7525596

ffd4Lattice.pt[19][1][1]	31.00331738	0.9217445689	38.25405866

ffd4Lattice.pt[19][2][0]	31.00331738	4.185251336	-23.7525596

ffd4Lattice.pt[19][2][1]	31.00331738	4.185251336	38.25405866

ffd4Lattice.pt[19][3][0]	31.00331738	7.448758103	-23.7525596

ffd4Lattice.pt[19][3][1]	31.00331738	7.448758103	38.25405866

ffd4Lattice.pt[19][4][0]	31.00331738	10.71226487	-23.7525596

ffd4Lattice.pt[19][4][1]	31.00331738	10.71226487	38.25405866

ffd4Lattice.pt[19][5][0]	31.00331738	13.97577164	-23.7525596

ffd4Lattice.pt[19][5][1]	31.00331738	13.97577164	38.25405866

ffd4Lattice.pt[19][6][0]	31.00331738	17.2392784	-23.7525596

ffd4Lattice.pt[19][6][1]	31.00331738	17.2392784	38.25405866

ffd4Lattice.pt[19][7][0]	31.00331738	20.50278517	-23.7525596

ffd4Lattice.pt[19][7][1]	31.00331738	20.50278517	38.25405866

ffd4Lattice.pt[19][8][0]	31.00331738	23.76629194	-23.7525596

ffd4Lattice.pt[19][8][1]	31.00331738	23.76629194	38.25405866

ffd4Lattice.pt[19][9][0]	31.00331738	27.0297987	-23.7525596

ffd4Lattice.pt[19][9][1]	31.00331738	27.0297987	38.25405866

ffd4Lattice.pt[19][10][0]	31.00331738	30.29330547	-23.7525596

ffd4Lattice.pt[19][10][1]	31.00331738	30.29330547	38.25405866

ffd4Lattice.pt[19][11][0]	31.00331738	33.55681224	-23.7525596

ffd4Lattice.pt[19][11][1]	31.00331738	33.55681224	38.25405866

ffd4Lattice.pt[19][12][0]	31.00331738	36.820319	-23.7525596

ffd4Lattice.pt[19][12][1]	31.00331738	36.820319	38.25405866

ffd4Lattice.pt[19][13][0]	31.00331738	40.08382577	-23.7525596

ffd4Lattice.pt[19][13][1]	31.00331738	40.08382577	38.25405866

ffd4Lattice.pt[19][14][0]	31.00331738	43.34733254	-23.7525596

ffd4Lattice.pt[19][14][1]	31.00331738	43.34733254	38.25405866

ffd4Lattice.pt[19][15][0]	31.00331738	46.61083931	-23.7525596

ffd4Lattice.pt[19][15][1]	31.00331738	46.61083931	38.25405866

ffd4Lattice.pt[19][16][0]	31.00331738	49.87434607	-23.7525596

ffd4Lattice.pt[19][16][1]	31.00331738	49.87434607	38.25405866

ffd4Lattice.pt[19][17][0]	31.00331738	53.13785284	-23.7525596

ffd4Lattice.pt[19][17][1]	31.00331738	53.13785284	38.25405866

ffd4Lattice.pt[19][18][0]	31.00331738	56.40135961	-23.7525596

ffd4Lattice.pt[19][18][1]	31.00331738	56.40135961	38.25405866

ffd4Lattice.pt[19][19][0]	31.00331738	59.66486637	-23.7525596

ffd4Lattice.pt[19][19][1]	31.00331738	59.66486637	38.25405866

