CheckerShapeTest2.vtx[0]	-0.064	32.637	30.222
CheckerShapeTest2.vtx[1]	-0.697	31.569	30.222
CheckerShapeTest2.vtx[2]	-0.861	31.551	30.222
CheckerShapeTest2.vtx[3]	-1.029	31.523	30.222
CheckerShapeTest2.vtx[4]	-1.230	30.853	30.222
CheckerShapeTest2.vtx[5]	-1.593	30.180	30.222
CheckerShapeTest2.vtx[6]	-2.016	28.027	30.222
CheckerShapeTest2.vtx[7]	-2.232	27.631	30.222
CheckerShapeTest2.vtx[8]	-2.572	25.587	30.222
CheckerShapeTest2.vtx[9]	-2.899	23.469	30.222
CheckerShapeTest2.vtx[10]	-3.087	23.269	30.222
CheckerShapeTest2.vtx[11]	-3.314	21.547	30.222
CheckerShapeTest2.vtx[12]	-3.369	19.800	30.222
CheckerShapeTest2.vtx[13]	-3.262	17.850	30.222
CheckerShapeTest2.vtx[14]	-2.631	16.065	30.222
CheckerShapeTest2.vtx[15]	-1.586	14.715	30.222
CheckerShapeTest2.vtx[16]	-0.052	14.696	30.222
CheckerShapeTest2.vtx[17]	1.417	15.516	30.222
CheckerShapeTest2.vtx[18]	1.674	15.607	30.222
CheckerShapeTest2.vtx[19]	1.973	17.415	30.222
CheckerShapeTest2.vtx[20]	2.682	19.751	30.222
CheckerShapeTest2.vtx[21]	2.808	21.763	30.222
CheckerShapeTest2.vtx[22]	2.673	24.100	30.222
CheckerShapeTest2.vtx[23]	2.722	26.264	30.222
CheckerShapeTest2.vtx[24]	2.307	28.780	30.222
CheckerShapeTest2.vtx[25]	1.347	29.985	30.222
CheckerShapeTest2.vtx[26]	0.015	31.175	30.222
CheckerShapeTest2.vtx[27]	0.087	30.842	30.222
CheckerShapeTest2.vtx[28]	-0.356	30.702	30.222
CheckerShapeTest2.vtx[29]	-0.517	30.666	30.222
CheckerShapeTest2.vtx[30]	-0.678	30.651	30.222
CheckerShapeTest2.vtx[31]	-0.839	30.643	30.222
CheckerShapeTest2.vtx[32]	-1.000	30.638	30.222
CheckerShapeTest2.vtx[33]	-0.064	32.637	31.930
CheckerShapeTest2.vtx[34]	-0.697	31.569	31.930
CheckerShapeTest2.vtx[35]	-0.861	31.551	31.930
CheckerShapeTest2.vtx[36]	-1.029	31.523	31.930
CheckerShapeTest2.vtx[37]	-1.230	30.853	31.930
CheckerShapeTest2.vtx[38]	-1.593	30.180	31.930
CheckerShapeTest2.vtx[39]	-2.016	28.027	31.930
CheckerShapeTest2.vtx[40]	-2.232	27.631	31.930
CheckerShapeTest2.vtx[41]	-2.572	25.587	31.930
CheckerShapeTest2.vtx[42]	-2.899	23.469	31.930
CheckerShapeTest2.vtx[43]	-3.087	23.269	31.930
CheckerShapeTest2.vtx[44]	-3.314	21.547	31.930
CheckerShapeTest2.vtx[45]	-3.369	19.800	31.930
CheckerShapeTest2.vtx[46]	-3.262	17.850	31.930
CheckerShapeTest2.vtx[47]	-2.631	16.065	31.930
CheckerShapeTest2.vtx[48]	-1.586	14.715	31.930
CheckerShapeTest2.vtx[49]	-0.052	14.696	31.930
CheckerShapeTest2.vtx[50]	1.417	15.516	31.930
CheckerShapeTest2.vtx[51]	1.674	15.607	31.930
CheckerShapeTest2.vtx[52]	1.973	17.415	31.930
CheckerShapeTest2.vtx[53]	2.682	19.751	31.930
CheckerShapeTest2.vtx[54]	2.808	21.763	31.930
CheckerShapeTest2.vtx[55]	2.673	24.100	31.930
CheckerShapeTest2.vtx[56]	2.722	26.264	31.930
CheckerShapeTest2.vtx[57]	2.307	28.780	31.930
CheckerShapeTest2.vtx[58]	1.347	29.985	31.930
CheckerShapeTest2.vtx[59]	0.015	31.175	31.930
CheckerShapeTest2.vtx[60]	0.087	30.842	31.930
CheckerShapeTest2.vtx[61]	-0.356	30.702	31.930
CheckerShapeTest2.vtx[62]	-0.517	30.666	31.930
CheckerShapeTest2.vtx[63]	-0.678	30.651	31.930
CheckerShapeTest2.vtx[64]	-0.839	30.643	31.930
CheckerShapeTest2.vtx[65]	-1.000	30.638	31.930
CheckerShapeTest2.vtx[66]	-0.051	32.508	31.930
CheckerShapeTest2.vtx[67]	-0.237	32.452	31.930
CheckerShapeTest2.vtx[68]	-0.855	31.413	31.930
CheckerShapeTest2.vtx[69]	-1.024	31.381	31.930
CheckerShapeTest2.vtx[70]	-1.221	30.751	31.930
CheckerShapeTest2.vtx[71]	-1.585	30.074	31.930
CheckerShapeTest2.vtx[72]	-1.967	28.213	31.930
CheckerShapeTest2.vtx[73]	-2.187	27.781	31.930
CheckerShapeTest2.vtx[74]	-2.543	25.623	31.930
CheckerShapeTest2.vtx[75]	-2.894	23.447	31.930
CheckerShapeTest2.vtx[76]	-3.236	23.145	31.930
CheckerShapeTest2.vtx[77]	-3.227	21.417	31.930
CheckerShapeTest2.vtx[78]	-3.432	19.599	31.930
CheckerShapeTest2.vtx[79]	-3.347	17.819	31.930
CheckerShapeTest2.vtx[80]	-2.739	15.660	31.930
CheckerShapeTest2.vtx[81]	-1.562	14.508	31.930
CheckerShapeTest2.vtx[82]	-0.323	13.869	31.930
CheckerShapeTest2.vtx[83]	1.127	14.056	31.930
CheckerShapeTest2.vtx[84]	1.700	14.805	31.930
CheckerShapeTest2.vtx[85]	1.921	16.402	31.930
CheckerShapeTest2.vtx[86]	2.404	18.832	31.930
CheckerShapeTest2.vtx[87]	2.490	20.911	31.930
CheckerShapeTest2.vtx[88]	2.297	23.144	31.930
CheckerShapeTest2.vtx[89]	2.313	25.326	31.930
CheckerShapeTest2.vtx[90]	2.113	27.669	31.930
CheckerShapeTest2.vtx[91]	1.087	29.060	31.930
CheckerShapeTest2.vtx[92]	0.124	30.443	31.930
CheckerShapeTest2.vtx[93]	-0.188	30.513	31.930
CheckerShapeTest2.vtx[94]	-0.356	30.483	31.930
CheckerShapeTest2.vtx[95]	-0.518	30.474	31.930
CheckerShapeTest2.vtx[96]	-0.679	30.471	31.930
CheckerShapeTest2.vtx[97]	-0.840	30.469	31.930
CheckerShapeTest2.vtx[98]	-0.927	31.000	31.930
CheckerShapeTest2.vtx[99]	-0.034	32.389	31.930
CheckerShapeTest2.vtx[100]	-0.221	32.333	31.930
CheckerShapeTest2.vtx[101]	-0.845	31.286	31.930
CheckerShapeTest2.vtx[102]	-1.014	31.252	31.930
CheckerShapeTest2.vtx[103]	-1.193	31.183	31.930
CheckerShapeTest2.vtx[104]	-1.573	30.003	31.930
CheckerShapeTest2.vtx[105]	-1.735	29.942	31.930
CheckerShapeTest2.vtx[106]	-1.969	28.590	31.930
CheckerShapeTest2.vtx[107]	-2.478	25.933	31.930
CheckerShapeTest2.vtx[108]	-2.708	25.249	31.930
CheckerShapeTest2.vtx[109]	-2.845	24.278	31.930
CheckerShapeTest2.vtx[110]	-2.873	23.096	31.930
CheckerShapeTest2.vtx[111]	-2.883	21.080	31.930
CheckerShapeTest2.vtx[112]	-2.881	19.074	31.930
CheckerShapeTest2.vtx[113]	-2.590	16.270	31.930
CheckerShapeTest2.vtx[114]	-1.440	14.436	31.930
CheckerShapeTest2.vtx[115]	-0.416	13.486	31.930
CheckerShapeTest2.vtx[116]	1.048	13.284	31.930
CheckerShapeTest2.vtx[117]	1.778	14.460	31.930
CheckerShapeTest2.vtx[118]	1.994	15.990	31.930
CheckerShapeTest2.vtx[119]	2.293	18.760	31.930
CheckerShapeTest2.vtx[120]	2.309	20.686	31.930
CheckerShapeTest2.vtx[121]	2.227	22.962	31.930
CheckerShapeTest2.vtx[122]	2.206	25.063	31.930
CheckerShapeTest2.vtx[123]	1.891	27.155	31.930
CheckerShapeTest2.vtx[124]	0.952	28.343	31.930
CheckerShapeTest2.vtx[125]	0.074	29.589	31.930
CheckerShapeTest2.vtx[126]	-0.120	30.007	31.930
CheckerShapeTest2.vtx[127]	-0.260	30.035	31.930
CheckerShapeTest2.vtx[128]	-0.413	30.042	31.930
CheckerShapeTest2.vtx[129]	-0.609	30.824	31.930
CheckerShapeTest2.vtx[130]	-0.765	30.871	31.930
CheckerShapeTest2.vtx[131]	-1.183	32.067	31.930
CheckerShapeTest2.vtx[132]	-0.011	32.284	31.930
CheckerShapeTest2.vtx[133]	-0.198	32.232	31.930
CheckerShapeTest2.vtx[134]	-0.400	32.148	31.930
CheckerShapeTest2.vtx[135]	-0.998	31.149	31.930
CheckerShapeTest2.vtx[136]	-1.181	31.063	31.930
CheckerShapeTest2.vtx[137]	-1.382	30.907	31.930
CheckerShapeTest2.vtx[138]	-1.696	30.037	31.930
CheckerShapeTest2.vtx[139]	-1.921	29.511	31.930
CheckerShapeTest2.vtx[140]	-2.186	28.032	31.930
CheckerShapeTest2.vtx[141]	-2.417	26.328	31.930
CheckerShapeTest2.vtx[142]	-2.596	24.980	31.930
CheckerShapeTest2.vtx[143]	-2.665	24.004	31.930
CheckerShapeTest2.vtx[144]	-2.507	22.128	31.930
CheckerShapeTest2.vtx[145]	-2.474	20.037	31.930
CheckerShapeTest2.vtx[146]	-2.278	17.240	31.930
CheckerShapeTest2.vtx[147]	-1.196	14.655	31.930
CheckerShapeTest2.vtx[148]	-0.223	13.667	31.930
CheckerShapeTest2.vtx[149]	0.994	13.409	31.930
CheckerShapeTest2.vtx[150]	1.842	15.280	31.930
CheckerShapeTest2.vtx[151]	2.083	17.401	31.930
CheckerShapeTest2.vtx[152]	2.229	19.914	31.930
CheckerShapeTest2.vtx[153]	2.244	21.734	31.930
CheckerShapeTest2.vtx[154]	2.176	23.675	31.930
CheckerShapeTest2.vtx[155]	2.105	25.500	31.930
CheckerShapeTest2.vtx[156]	1.592	27.232	31.930
CheckerShapeTest2.vtx[157]	0.960	28.393	31.930
CheckerShapeTest2.vtx[158]	0.164	29.388	31.930
CheckerShapeTest2.vtx[159]	-0.091	29.829	31.930
CheckerShapeTest2.vtx[160]	-0.247	29.865	31.930
CheckerShapeTest2.vtx[161]	-0.374	30.637	31.930
CheckerShapeTest2.vtx[162]	-0.532	30.710	31.930
CheckerShapeTest2.vtx[163]	-1.013	31.932	31.930
CheckerShapeTest2.vtx[164]	-1.194	32.008	31.930
CheckerShapeTest2.vtx[165]	-0.030	32.532	31.930
CheckerShapeTest2.vtx[166]	-0.205	32.506	31.930
CheckerShapeTest2.vtx[167]	-0.369	32.072	31.930
CheckerShapeTest2.vtx[168]	-0.969	31.091	31.930
CheckerShapeTest2.vtx[169]	-1.153	31.006	31.930
CheckerShapeTest2.vtx[170]	-1.377	30.769	31.930
CheckerShapeTest2.vtx[171]	-1.635	30.265	31.930
CheckerShapeTest2.vtx[172]	-1.919	29.403	31.930
CheckerShapeTest2.vtx[173]	-2.186	28.198	31.930
CheckerShapeTest2.vtx[174]	-2.339	26.537	31.930
CheckerShapeTest2.vtx[175]	-2.493	25.432	31.930
CheckerShapeTest2.vtx[176]	-2.466	24.611	31.930
CheckerShapeTest2.vtx[177]	-2.281	23.124	31.930
CheckerShapeTest2.vtx[178]	-2.054	21.270	31.930
CheckerShapeTest2.vtx[179]	-1.795	19.057	31.930
CheckerShapeTest2.vtx[180]	-0.838	16.250	31.930
CheckerShapeTest2.vtx[181]	0.060	15.266	31.930
CheckerShapeTest2.vtx[182]	1.080	14.940	31.930
CheckerShapeTest2.vtx[183]	1.837	17.295	31.930
CheckerShapeTest2.vtx[184]	2.174	19.958	31.930
CheckerShapeTest2.vtx[185]	2.216	22.114	31.930
CheckerShapeTest2.vtx[186]	2.229	23.962	31.930
CheckerShapeTest2.vtx[187]	2.097	25.379	31.930
CheckerShapeTest2.vtx[188]	1.955	26.571	31.930
CheckerShapeTest2.vtx[189]	1.426	27.770	31.930
CheckerShapeTest2.vtx[190]	0.969	28.868	31.930
CheckerShapeTest2.vtx[191]	0.473	29.813	31.930
CheckerShapeTest2.vtx[192]	0.227	29.829	31.930
CheckerShapeTest2.vtx[193]	0.105	30.817	31.930
CheckerShapeTest2.vtx[194]	-0.079	30.951	31.930
CheckerShapeTest2.vtx[195]	-0.718	31.962	31.930
CheckerShapeTest2.vtx[196]	-0.752	32.692	31.930
CheckerShapeTest2.vtx[197]	-0.929	32.728	31.930
CheckerShapeTest2.vtx[198]	-0.009	32.403	31.930
CheckerShapeTest2.vtx[199]	-0.182	32.379	31.930
CheckerShapeTest2.vtx[200]	-0.377	32.319	31.930
CheckerShapeTest2.vtx[201]	-0.559	31.910	31.930
CheckerShapeTest2.vtx[202]	-1.082	31.095	31.930
CheckerShapeTest2.vtx[203]	-1.356	30.714	31.930
CheckerShapeTest2.vtx[204]	-1.608	30.408	31.930
CheckerShapeTest2.vtx[205]	-1.929	29.346	31.930
CheckerShapeTest2.vtx[206]	-2.157	27.538	31.930
CheckerShapeTest2.vtx[207]	-2.320	26.273	31.930
CheckerShapeTest2.vtx[208]	-2.387	25.861	31.930
CheckerShapeTest2.vtx[209]	-2.147	24.776	31.930
CheckerShapeTest2.vtx[210]	-1.962	23.284	31.930
CheckerShapeTest2.vtx[211]	-1.513	21.826	31.930
CheckerShapeTest2.vtx[212]	-1.234	20.647	31.930
CheckerShapeTest2.vtx[213]	-0.397	19.122	31.930
CheckerShapeTest2.vtx[214]	0.415	18.566	31.930
CheckerShapeTest2.vtx[215]	1.169	18.685	31.930
CheckerShapeTest2.vtx[216]	1.765	20.195	31.930
CheckerShapeTest2.vtx[217]	2.299	22.048	31.930
CheckerShapeTest2.vtx[218]	2.239	23.359	31.930
CheckerShapeTest2.vtx[219]	2.309	24.654	31.930
CheckerShapeTest2.vtx[220]	2.213	25.889	31.930
CheckerShapeTest2.vtx[221]	2.020	26.940	31.930
CheckerShapeTest2.vtx[222]	1.759	28.026	31.930
CheckerShapeTest2.vtx[223]	1.161	28.837	31.930
CheckerShapeTest2.vtx[224]	0.934	29.985	31.930
CheckerShapeTest2.vtx[225]	0.633	29.933	31.930
CheckerShapeTest2.vtx[226]	0.050	30.997	31.930
CheckerShapeTest2.vtx[227]	0.021	31.546	31.930
CheckerShapeTest2.vtx[228]	-0.578	32.489	31.930
CheckerShapeTest2.vtx[229]	-0.777	32.568	31.930
CheckerShapeTest2.vtx[230]	-0.952	32.602	31.930
CheckerShapeTest2.vtx[231]	0.357	32.809	31.930
CheckerShapeTest2.vtx[232]	-0.142	32.277	31.930
CheckerShapeTest2.vtx[233]	-0.343	32.211	31.930
CheckerShapeTest2.vtx[234]	-0.587	32.061	31.930
CheckerShapeTest2.vtx[235]	-0.908	31.641	31.930
CheckerShapeTest2.vtx[236]	-1.334	30.655	31.930
CheckerShapeTest2.vtx[237]	-1.758	29.862	31.930
CheckerShapeTest2.vtx[238]	-1.932	29.137	31.930
CheckerShapeTest2.vtx[239]	-2.144	28.118	31.930
CheckerShapeTest2.vtx[240]	-2.158	26.781	31.930
CheckerShapeTest2.vtx[241]	-2.096	26.135	31.930
CheckerShapeTest2.vtx[242]	-1.880	25.257	31.930
CheckerShapeTest2.vtx[243]	-1.665	24.304	31.930
CheckerShapeTest2.vtx[244]	-1.189	23.314	31.930
CheckerShapeTest2.vtx[245]	-0.826	22.090	31.930
CheckerShapeTest2.vtx[246]	-0.028	20.989	31.930
CheckerShapeTest2.vtx[247]	0.634	20.523	31.930
CheckerShapeTest2.vtx[248]	1.388	20.923	31.930
CheckerShapeTest2.vtx[249]	1.864	22.255	31.930
CheckerShapeTest2.vtx[250]	2.296	23.250	31.930
CheckerShapeTest2.vtx[251]	2.474	24.309	31.930
CheckerShapeTest2.vtx[252]	2.452	25.287	31.930
CheckerShapeTest2.vtx[253]	2.370	26.465	31.930
CheckerShapeTest2.vtx[254]	2.212	27.295	31.930
CheckerShapeTest2.vtx[255]	1.887	28.288	31.930
CheckerShapeTest2.vtx[256]	1.628	29.087	31.930
CheckerShapeTest2.vtx[257]	1.157	29.749	31.930
CheckerShapeTest2.vtx[258]	0.570	30.541	31.930
CheckerShapeTest2.vtx[259]	-0.066	31.709	31.930
CheckerShapeTest2.vtx[260]	-0.364	32.190	31.930
CheckerShapeTest2.vtx[261]	-0.612	32.388	31.930
CheckerShapeTest2.vtx[262]	-0.820	32.476	31.930
CheckerShapeTest2.vtx[263]	-0.985	32.493	31.930
CheckerShapeTest2.vtx[264]	0.388	32.703	31.930
CheckerShapeTest2.vtx[265]	-0.075	32.214	31.930
CheckerShapeTest2.vtx[266]	-0.260	32.177	31.930
CheckerShapeTest2.vtx[267]	-0.565	31.967	31.930
CheckerShapeTest2.vtx[268]	-1.074	31.225	31.930
CheckerShapeTest2.vtx[269]	-1.372	30.809	31.930
CheckerShapeTest2.vtx[270]	-1.788	29.988	31.930
CheckerShapeTest2.vtx[271]	-2.066	28.987	31.930
CheckerShapeTest2.vtx[272]	-2.104	28.302	31.930
CheckerShapeTest2.vtx[273]	-2.019	27.010	31.930
CheckerShapeTest2.vtx[274]	-1.917	26.569	31.930
CheckerShapeTest2.vtx[275]	-1.739	25.945	31.930
CheckerShapeTest2.vtx[276]	-1.460	25.206	31.930
CheckerShapeTest2.vtx[277]	-1.070	24.362	31.930
CheckerShapeTest2.vtx[278]	-0.625	23.345	31.930
CheckerShapeTest2.vtx[279]	0.146	22.526	31.930
CheckerShapeTest2.vtx[280]	0.833	22.130	31.930
CheckerShapeTest2.vtx[281]	1.538	22.546	31.930
CheckerShapeTest2.vtx[282]	1.878	23.598	31.930
CheckerShapeTest2.vtx[283]	2.393	24.438	31.930
CheckerShapeTest2.vtx[284]	2.715	25.426	31.930
CheckerShapeTest2.vtx[285]	2.629	26.150	31.930
CheckerShapeTest2.vtx[286]	2.527	27.195	31.930
CheckerShapeTest2.vtx[287]	2.368	27.849	31.930
CheckerShapeTest2.vtx[288]	1.994	28.585	31.930
CheckerShapeTest2.vtx[289]	1.800	29.331	31.930
CheckerShapeTest2.vtx[290]	1.398	29.514	31.930
CheckerShapeTest2.vtx[291]	0.554	30.906	31.930
CheckerShapeTest2.vtx[292]	0.201	31.329	31.930
CheckerShapeTest2.vtx[293]	-0.369	32.130	31.930
CheckerShapeTest2.vtx[294]	-0.699	32.374	31.930
CheckerShapeTest2.vtx[295]	-0.897	32.429	31.930
CheckerShapeTest2.vtx[296]	-1.465	32.817	31.930
CheckerShapeTest2.vtx[297]	0.268	32.502	31.930
CheckerShapeTest2.vtx[298]	0.158	32.533	31.930
CheckerShapeTest2.vtx[299]	-0.047	32.312	31.930
CheckerShapeTest2.vtx[300]	-0.523	31.912	31.930
CheckerShapeTest2.vtx[301]	-0.995	31.544	31.930
CheckerShapeTest2.vtx[302]	-1.572	30.697	31.930
CheckerShapeTest2.vtx[303]	-2.010	29.829	31.930
CheckerShapeTest2.vtx[304]	-2.069	28.746	31.930
CheckerShapeTest2.vtx[305]	-2.120	28.473	31.930
CheckerShapeTest2.vtx[306]	-1.811	27.605	31.930
CheckerShapeTest2.vtx[307]	-1.733	26.884	31.930
CheckerShapeTest2.vtx[308]	-1.575	26.470	31.930
CheckerShapeTest2.vtx[309]	-1.211	25.748	31.930
CheckerShapeTest2.vtx[310]	-0.900	25.050	31.930
CheckerShapeTest2.vtx[311]	-0.408	24.146	31.930
CheckerShapeTest2.vtx[312]	0.312	23.404	31.930
CheckerShapeTest2.vtx[313]	1.047	23.068	31.930
CheckerShapeTest2.vtx[314]	1.620	23.520	31.930
CheckerShapeTest2.vtx[315]	2.244	24.799	31.930
CheckerShapeTest2.vtx[316]	2.417	25.247	31.930
CheckerShapeTest2.vtx[317]	2.742	26.391	31.930
CheckerShapeTest2.vtx[318]	2.715	26.882	31.930
CheckerShapeTest2.vtx[319]	2.559	27.674	31.930
CheckerShapeTest2.vtx[320]	2.437	28.223	31.930
CheckerShapeTest2.vtx[321]	2.142	28.769	31.930
CheckerShapeTest2.vtx[322]	1.911	29.321	31.930
CheckerShapeTest2.vtx[323]	1.762	29.683	31.930
CheckerShapeTest2.vtx[324]	1.102	30.412	31.930
CheckerShapeTest2.vtx[325]	0.527	31.291	31.930
CheckerShapeTest2.vtx[326]	-0.371	32.098	31.930
CheckerShapeTest2.vtx[327]	-0.938	32.535	31.930
CheckerShapeTest2.vtx[328]	-1.201	32.755	31.930
CheckerShapeTest2.vtx[329]	-1.316	32.717	31.930
CheckerShapeTest2.vtx[330]	0.284	32.377	31.930
CheckerShapeTest2.vtx[331]	0.187	32.426	31.930
CheckerShapeTest2.vtx[332]	0.223	32.569	31.930
CheckerShapeTest2.vtx[333]	-0.379	32.099	31.930
CheckerShapeTest2.vtx[334]	-1.299	31.146	31.930
CheckerShapeTest2.vtx[335]	-1.726	30.522	31.930
CheckerShapeTest2.vtx[336]	-2.085	29.719	31.930
CheckerShapeTest2.vtx[337]	-2.101	29.169	31.930
CheckerShapeTest2.vtx[338]	-2.026	28.532	31.930
CheckerShapeTest2.vtx[339]	-1.647	27.954	31.930
CheckerShapeTest2.vtx[340]	-1.474	27.454	31.930
CheckerShapeTest2.vtx[341]	-1.256	27.118	31.930
CheckerShapeTest2.vtx[342]	-0.902	26.444	31.930
CheckerShapeTest2.vtx[343]	-0.567	25.870	31.930
CheckerShapeTest2.vtx[344]	-0.100	25.034	31.930
CheckerShapeTest2.vtx[345]	0.622	24.335	31.930
CheckerShapeTest2.vtx[346]	1.347	24.115	31.930
CheckerShapeTest2.vtx[347]	1.775	24.703	31.930
CheckerShapeTest2.vtx[348]	2.231	25.565	31.930
CheckerShapeTest2.vtx[349]	2.462	26.392	31.930
CheckerShapeTest2.vtx[350]	2.725	27.109	31.930
CheckerShapeTest2.vtx[351]	2.722	27.761	31.930
CheckerShapeTest2.vtx[352]	2.588	28.339	31.930
CheckerShapeTest2.vtx[353]	2.461	28.755	31.930
CheckerShapeTest2.vtx[354]	2.324	29.110	31.930
CheckerShapeTest2.vtx[355]	2.135	29.438	31.930
CheckerShapeTest2.vtx[356]	1.809	29.727	31.930
CheckerShapeTest2.vtx[357]	1.284	30.284	31.930
CheckerShapeTest2.vtx[358]	0.650	31.271	31.930
CheckerShapeTest2.vtx[359]	-0.227	32.052	31.930
CheckerShapeTest2.vtx[360]	-1.244	32.775	31.930
CheckerShapeTest2.vtx[361]	-1.246	32.638	31.930
CheckerShapeTest2.vtx[362]	-1.344	32.584	31.930
CheckerShapeTest2.vtx[363]	0.632	32.725	31.930
CheckerShapeTest2.vtx[364]	0.458	32.706	31.930
CheckerShapeTest2.vtx[365]	0.018	32.320	31.930
CheckerShapeTest2.vtx[366]	-0.332	32.059	31.930
CheckerShapeTest2.vtx[367]	-1.144	31.307	31.930
CheckerShapeTest2.vtx[368]	-1.637	30.679	31.930
CheckerShapeTest2.vtx[369]	-1.986	29.858	31.930
CheckerShapeTest2.vtx[370]	-2.008	29.489	31.930
CheckerShapeTest2.vtx[371]	-1.729	28.718	31.930
CheckerShapeTest2.vtx[372]	-1.565	28.344	31.930
CheckerShapeTest2.vtx[373]	-1.322	28.006	31.930
CheckerShapeTest2.vtx[374]	-0.897	27.714	31.930
CheckerShapeTest2.vtx[375]	-0.806	27.151	31.930
CheckerShapeTest2.vtx[376]	-0.323	26.336	31.930
CheckerShapeTest2.vtx[377]	0.037	25.719	31.930
CheckerShapeTest2.vtx[378]	0.842	25.188	31.930
CheckerShapeTest2.vtx[379]	1.621	25.161	31.930
CheckerShapeTest2.vtx[380]	1.973	25.852	31.930
CheckerShapeTest2.vtx[381]	2.403	26.617	31.930
CheckerShapeTest2.vtx[382]	2.657	27.649	31.930
CheckerShapeTest2.vtx[383]	2.739	28.183	31.930
CheckerShapeTest2.vtx[384]	2.693	28.335	31.930
CheckerShapeTest2.vtx[385]	2.697	28.850	31.930
CheckerShapeTest2.vtx[386]	2.517	29.323	31.930
CheckerShapeTest2.vtx[387]	2.391	29.518	31.930
CheckerShapeTest2.vtx[388]	2.345	29.890	31.930
CheckerShapeTest2.vtx[389]	1.945	30.054	31.930
CheckerShapeTest2.vtx[390]	1.366	30.595	31.930
CheckerShapeTest2.vtx[391]	0.768	31.270	31.930
CheckerShapeTest2.vtx[392]	-0.125	31.867	31.930
CheckerShapeTest2.vtx[393]	-1.077	32.544	31.930
CheckerShapeTest2.vtx[394]	-1.612	32.863	31.930
CheckerShapeTest2.vtx[395]	-1.791	32.891	31.930
CheckerShapeTest2.vtx[396]	0.631	32.591	31.930
CheckerShapeTest2.vtx[397]	0.442	32.586	31.930
CheckerShapeTest2.vtx[398]	0.087	32.472	31.930
CheckerShapeTest2.vtx[399]	-0.432	31.979	31.930
CheckerShapeTest2.vtx[400]	-1.316	31.165	31.930
CheckerShapeTest2.vtx[401]	-1.650	30.497	31.930
CheckerShapeTest2.vtx[402]	-1.944	29.818	31.930
CheckerShapeTest2.vtx[403]	-1.721	29.419	31.930
CheckerShapeTest2.vtx[404]	-1.648	29.044	31.930
CheckerShapeTest2.vtx[405]	-1.465	28.670	31.930
CheckerShapeTest2.vtx[406]	-1.208	28.356	31.930
CheckerShapeTest2.vtx[407]	-0.855	28.040	31.930
CheckerShapeTest2.vtx[408]	-0.577	27.613	31.930
CheckerShapeTest2.vtx[409]	-0.174	26.963	31.930
CheckerShapeTest2.vtx[410]	0.265	26.290	31.930
CheckerShapeTest2.vtx[411]	0.894	25.870	31.930
CheckerShapeTest2.vtx[412]	1.649	25.727	31.930
CheckerShapeTest2.vtx[413]	2.261	26.186	31.930
CheckerShapeTest2.vtx[414]	2.564	26.968	31.930
CheckerShapeTest2.vtx[415]	2.688	27.978	31.930
CheckerShapeTest2.vtx[416]	2.678	28.616	31.930
CheckerShapeTest2.vtx[417]	2.617	28.816	31.930
CheckerShapeTest2.vtx[418]	2.526	29.166	31.930
CheckerShapeTest2.vtx[419]	2.519	29.501	31.930
CheckerShapeTest2.vtx[420]	2.423	29.879	31.930
CheckerShapeTest2.vtx[421]	2.317	29.903	31.930
CheckerShapeTest2.vtx[422]	1.972	30.328	31.930
CheckerShapeTest2.vtx[423]	1.427	30.717	31.930
CheckerShapeTest2.vtx[424]	0.676	31.303	31.930
CheckerShapeTest2.vtx[425]	-0.531	32.111	31.930
CheckerShapeTest2.vtx[426]	-1.254	32.532	31.930
CheckerShapeTest2.vtx[427]	-1.625	32.730	31.930
CheckerShapeTest2.vtx[428]	-1.806	32.756	31.930
CheckerShapeTest2.vtx[429]	0.642	32.458	31.930
CheckerShapeTest2.vtx[430]	0.466	32.465	31.930
CheckerShapeTest2.vtx[431]	0.025	32.233	31.930
CheckerShapeTest2.vtx[432]	-0.607	31.723	31.930
CheckerShapeTest2.vtx[433]	-1.022	31.416	31.930
CheckerShapeTest2.vtx[434]	-1.481	30.666	31.930
CheckerShapeTest2.vtx[435]	-1.766	30.210	31.930
CheckerShapeTest2.vtx[436]	-1.666	29.257	31.930
CheckerShapeTest2.vtx[437]	-1.478	29.159	31.930
CheckerShapeTest2.vtx[438]	-1.340	29.094	31.930
CheckerShapeTest2.vtx[439]	-1.020	28.835	31.930
CheckerShapeTest2.vtx[440]	-0.748	28.488	31.930
CheckerShapeTest2.vtx[441]	-0.619	28.107	31.930
CheckerShapeTest2.vtx[442]	-0.223	27.353	31.930
CheckerShapeTest2.vtx[443]	0.284	26.649	31.930
CheckerShapeTest2.vtx[444]	0.903	26.319	31.930
CheckerShapeTest2.vtx[445]	1.731	26.161	31.930
CheckerShapeTest2.vtx[446]	2.435	26.595	31.930
CheckerShapeTest2.vtx[447]	2.746	27.325	31.930
CheckerShapeTest2.vtx[448]	2.673	28.430	31.930
CheckerShapeTest2.vtx[449]	2.732	29.032	31.930
CheckerShapeTest2.vtx[450]	2.609	29.397	31.930
CheckerShapeTest2.vtx[451]	2.548	29.712	31.930
CheckerShapeTest2.vtx[452]	2.468	29.992	31.930
CheckerShapeTest2.vtx[453]	2.314	30.240	31.930
CheckerShapeTest2.vtx[454]	2.103	30.317	31.930
CheckerShapeTest2.vtx[455]	1.941	30.266	31.930
CheckerShapeTest2.vtx[456]	1.237	31.079	31.930
CheckerShapeTest2.vtx[457]	0.688	31.370	31.930
CheckerShapeTest2.vtx[458]	-0.239	31.967	31.930
CheckerShapeTest2.vtx[459]	-1.191	32.389	31.930
CheckerShapeTest2.vtx[460]	-1.663	32.626	31.930
CheckerShapeTest2.vtx[461]	-1.829	32.631	31.930
CheckerShapeTest2.vtx[462]	0.978	32.593	31.930
CheckerShapeTest2.vtx[463]	0.767	32.567	31.930
CheckerShapeTest2.vtx[464]	0.245	32.307	31.930
CheckerShapeTest2.vtx[465]	-0.103	32.125	31.930
CheckerShapeTest2.vtx[466]	-0.763	31.573	31.930
CheckerShapeTest2.vtx[467]	-1.199	31.170	31.930
CheckerShapeTest2.vtx[468]	-1.471	30.718	31.930
CheckerShapeTest2.vtx[469]	-1.332	30.079	31.930
CheckerShapeTest2.vtx[470]	-1.326	29.475	31.930
CheckerShapeTest2.vtx[471]	-1.246	29.427	31.930
CheckerShapeTest2.vtx[472]	-0.868	29.234	31.930
CheckerShapeTest2.vtx[473]	-0.661	28.826	31.930
CheckerShapeTest2.vtx[474]	-0.593	28.344	31.930
CheckerShapeTest2.vtx[475]	-0.247	27.388	31.930
CheckerShapeTest2.vtx[476]	0.317	26.773	31.930
CheckerShapeTest2.vtx[477]	1.041	26.351	31.930
CheckerShapeTest2.vtx[478]	1.848	26.239	31.930
CheckerShapeTest2.vtx[479]	2.549	26.599	31.930
CheckerShapeTest2.vtx[480]	2.977	27.440	31.930
CheckerShapeTest2.vtx[481]	2.802	28.702	31.930
CheckerShapeTest2.vtx[482]	2.846	29.584	31.930
CheckerShapeTest2.vtx[483]	2.597	29.921	31.930
CheckerShapeTest2.vtx[484]	2.465	30.201	31.930
CheckerShapeTest2.vtx[485]	2.261	30.666	31.930
CheckerShapeTest2.vtx[486]	2.081	30.617	31.930
CheckerShapeTest2.vtx[487]	1.940	30.677	31.930
CheckerShapeTest2.vtx[488]	1.520	31.291	31.930
CheckerShapeTest2.vtx[489]	1.047	31.511	31.930
CheckerShapeTest2.vtx[490]	0.478	31.847	31.930
CheckerShapeTest2.vtx[491]	-0.388	32.111	31.930
CheckerShapeTest2.vtx[492]	-1.371	32.579	31.930
CheckerShapeTest2.vtx[493]	-1.999	32.730	31.930
CheckerShapeTest2.vtx[494]	-2.217	32.743	31.930
CheckerShapeTest2.vtx[495]	1.056	32.481	31.930
CheckerShapeTest2.vtx[496]	0.867	32.470	31.930
CheckerShapeTest2.vtx[497]	0.516	32.351	31.930
CheckerShapeTest2.vtx[498]	0.185	32.139	31.930
CheckerShapeTest2.vtx[499]	-0.540	31.682	31.930
CheckerShapeTest2.vtx[500]	-0.818	31.429	31.930
CheckerShapeTest2.vtx[501]	-1.233	31.054	31.930
CheckerShapeTest2.vtx[502]	-1.124	30.532	31.930
CheckerShapeTest2.vtx[503]	-1.146	30.117	31.930
CheckerShapeTest2.vtx[504]	-1.092	29.958	31.930
CheckerShapeTest2.vtx[505]	-0.703	29.777	31.930
CheckerShapeTest2.vtx[506]	-0.478	29.332	31.930
CheckerShapeTest2.vtx[507]	-0.417	28.716	31.930
CheckerShapeTest2.vtx[508]	-0.212	27.508	31.930
CheckerShapeTest2.vtx[509]	0.346	26.889	31.930
CheckerShapeTest2.vtx[510]	1.274	26.328	31.930
CheckerShapeTest2.vtx[511]	2.103	26.250	31.930
CheckerShapeTest2.vtx[512]	2.769	26.524	31.930
CheckerShapeTest2.vtx[513]	3.218	27.704	31.930
CheckerShapeTest2.vtx[514]	3.041	29.139	31.930
CheckerShapeTest2.vtx[515]	2.798	30.075	31.930
CheckerShapeTest2.vtx[516]	2.487	30.687	31.930
CheckerShapeTest2.vtx[517]	2.261	30.933	31.930
CheckerShapeTest2.vtx[518]	2.058	31.122	31.930
CheckerShapeTest2.vtx[519]	1.724	31.259	31.930
CheckerShapeTest2.vtx[520]	1.617	31.229	31.930
CheckerShapeTest2.vtx[521]	1.263	31.597	31.930
CheckerShapeTest2.vtx[522]	0.774	31.857	31.930
CheckerShapeTest2.vtx[523]	0.237	32.058	31.930
CheckerShapeTest2.vtx[524]	-0.721	32.407	31.930
CheckerShapeTest2.vtx[525]	-1.676	32.616	31.930
CheckerShapeTest2.vtx[526]	-2.100	32.643	31.930
CheckerShapeTest2.vtx[527]	-2.300	32.637	31.930
CheckerShapeTest2.vtx[528]	1.680	32.562	31.930
CheckerShapeTest2.vtx[529]	1.129	32.483	31.930
CheckerShapeTest2.vtx[530]	0.972	32.484	31.930
CheckerShapeTest2.vtx[531]	0.745	32.458	31.930
CheckerShapeTest2.vtx[532]	-0.114	31.931	31.930
CheckerShapeTest2.vtx[533]	-0.638	31.466	31.930
CheckerShapeTest2.vtx[534]	-0.748	31.262	31.930
CheckerShapeTest2.vtx[535]	-0.384	31.333	31.930
CheckerShapeTest2.vtx[536]	-0.736	30.646	31.930
CheckerShapeTest2.vtx[537]	-0.683	30.550	31.930
CheckerShapeTest2.vtx[538]	-0.472	30.251	31.930
CheckerShapeTest2.vtx[539]	-0.188	29.786	31.930
CheckerShapeTest2.vtx[540]	-0.231	29.300	31.930
CheckerShapeTest2.vtx[541]	-0.258	28.074	31.930
CheckerShapeTest2.vtx[542]	0.276	27.198	31.930
CheckerShapeTest2.vtx[543]	1.328	26.810	31.930
CheckerShapeTest2.vtx[544]	2.179	26.747	31.930
CheckerShapeTest2.vtx[545]	3.129	26.971	31.930
CheckerShapeTest2.vtx[546]	3.208	28.789	31.930
CheckerShapeTest2.vtx[547]	2.974	29.975	31.930
CheckerShapeTest2.vtx[548]	2.670	30.641	31.930
CheckerShapeTest2.vtx[549]	2.205	31.225	31.930
CheckerShapeTest2.vtx[550]	2.039	31.436	31.930
CheckerShapeTest2.vtx[551]	1.778	31.526	31.930
CheckerShapeTest2.vtx[552]	1.421	31.645	31.930
CheckerShapeTest2.vtx[553]	1.068	31.756	31.930
CheckerShapeTest2.vtx[554]	0.804	31.853	31.930
CheckerShapeTest2.vtx[555]	0.026	32.262	31.930
CheckerShapeTest2.vtx[556]	-0.130	32.198	31.930
CheckerShapeTest2.vtx[557]	-1.151	32.472	31.930
CheckerShapeTest2.vtx[558]	-1.874	32.534	31.930
CheckerShapeTest2.vtx[559]	-2.617	32.789	31.930
CheckerShapeTest2.vtx[560]	-2.819	32.815	31.930
CheckerShapeTest2.vtx[561]	1.790	32.441	31.930
CheckerShapeTest2.vtx[562]	1.632	32.473	31.930
CheckerShapeTest2.vtx[563]	1.433	32.570	31.930
CheckerShapeTest2.vtx[564]	0.830	32.349	31.930
CheckerShapeTest2.vtx[565]	0.324	32.165	31.930
CheckerShapeTest2.vtx[566]	-0.170	31.894	31.930
CheckerShapeTest2.vtx[567]	-0.386	31.836	31.930
CheckerShapeTest2.vtx[568]	-0.347	31.327	31.930
CheckerShapeTest2.vtx[569]	-0.256	31.142	31.930
CheckerShapeTest2.vtx[570]	-0.318	31.165	31.930
CheckerShapeTest2.vtx[571]	-0.234	30.912	31.930
CheckerShapeTest2.vtx[572]	-0.107	30.672	31.930
CheckerShapeTest2.vtx[573]	-0.057	30.237	31.930
CheckerShapeTest2.vtx[574]	0.027	29.480	31.930
CheckerShapeTest2.vtx[575]	0.493	28.420	31.930
CheckerShapeTest2.vtx[576]	1.396	28.197	31.930
CheckerShapeTest2.vtx[577]	2.318	28.182	31.930
CheckerShapeTest2.vtx[578]	2.866	28.738	31.930
CheckerShapeTest2.vtx[579]	3.009	30.000	31.930
CheckerShapeTest2.vtx[580]	2.741	31.031	31.930
CheckerShapeTest2.vtx[581]	2.390	31.338	31.930
CheckerShapeTest2.vtx[582]	1.976	31.520	31.930
CheckerShapeTest2.vtx[583]	1.498	31.918	31.930
CheckerShapeTest2.vtx[584]	1.430	31.984	31.930
CheckerShapeTest2.vtx[585]	0.948	31.910	31.930
CheckerShapeTest2.vtx[586]	0.733	32.049	31.930
CheckerShapeTest2.vtx[587]	0.189	32.155	31.930
CheckerShapeTest2.vtx[588]	-0.116	32.196	31.930
CheckerShapeTest2.vtx[589]	-0.710	32.457	31.930
CheckerShapeTest2.vtx[590]	-1.401	32.437	31.930
CheckerShapeTest2.vtx[591]	-2.594	32.685	31.930
CheckerShapeTest2.vtx[592]	-2.804	32.707	31.930
CheckerShapeTest2.vtx[593]	-2.920	32.702	31.930
CheckerShapeTest2.vtx[594]	1.900	32.306	31.930
CheckerShapeTest2.vtx[595]	1.781	32.338	31.930
CheckerShapeTest2.vtx[596]	1.626	32.386	31.930
CheckerShapeTest2.vtx[597]	1.080	32.318	31.930
CheckerShapeTest2.vtx[598]	0.755	32.239	31.930
CheckerShapeTest2.vtx[599]	0.320	32.072	31.930
CheckerShapeTest2.vtx[600]	0.082	31.918	31.930
CheckerShapeTest2.vtx[601]	-0.058	31.560	31.930
CheckerShapeTest2.vtx[602]	0.075	31.511	31.930
CheckerShapeTest2.vtx[603]	-0.014	31.486	31.930
CheckerShapeTest2.vtx[604]	0.022	31.348	31.930
CheckerShapeTest2.vtx[605]	0.111	31.128	31.930
CheckerShapeTest2.vtx[606]	0.212	30.772	31.930
CheckerShapeTest2.vtx[607]	0.365	30.415	31.930
CheckerShapeTest2.vtx[608]	0.683	29.715	31.930
CheckerShapeTest2.vtx[609]	1.329	29.537	31.930
CheckerShapeTest2.vtx[610]	2.220	29.450	31.930
CheckerShapeTest2.vtx[611]	2.665	29.889	31.930
CheckerShapeTest2.vtx[612]	2.749	30.705	31.930
CheckerShapeTest2.vtx[613]	2.560	31.375	31.930
CheckerShapeTest2.vtx[614]	2.169	31.551	31.930
CheckerShapeTest2.vtx[615]	1.739	31.579	31.930
CheckerShapeTest2.vtx[616]	1.380	32.067	31.930
CheckerShapeTest2.vtx[617]	0.976	32.222	31.930
CheckerShapeTest2.vtx[618]	0.567	32.199	31.930
CheckerShapeTest2.vtx[619]	0.265	32.163	31.930
CheckerShapeTest2.vtx[620]	-0.355	32.337	31.930
CheckerShapeTest2.vtx[621]	-0.540	32.317	31.930
CheckerShapeTest2.vtx[622]	-1.102	32.402	31.930
CheckerShapeTest2.vtx[623]	-2.134	32.588	31.930
CheckerShapeTest2.vtx[624]	-2.646	32.631	31.930
CheckerShapeTest2.vtx[625]	-2.900	32.605	31.930
CheckerShapeTest2.vtx[626]	-3.001	32.586	31.930
CheckerShapeTest2.vtx[627]	2.707	32.311	31.930
CheckerShapeTest2.vtx[628]	2.379	32.296	31.930
CheckerShapeTest2.vtx[629]	2.066	32.284	31.930
CheckerShapeTest2.vtx[630]	1.738	32.295	31.930
CheckerShapeTest2.vtx[631]	1.197	32.210	31.930
CheckerShapeTest2.vtx[632]	0.784	32.153	31.930
CheckerShapeTest2.vtx[633]	0.481	32.056	31.930
CheckerShapeTest2.vtx[634]	0.545	31.959	31.930
CheckerShapeTest2.vtx[635]	0.354	31.746	31.930
CheckerShapeTest2.vtx[636]	0.220	31.665	31.930
CheckerShapeTest2.vtx[637]	0.249	31.536	31.930
CheckerShapeTest2.vtx[638]	0.304	31.431	31.930
CheckerShapeTest2.vtx[639]	0.427	31.139	31.930
CheckerShapeTest2.vtx[640]	0.538	30.987	31.930
CheckerShapeTest2.vtx[641]	0.829	30.603	31.930
CheckerShapeTest2.vtx[642]	1.324	30.412	31.930
CheckerShapeTest2.vtx[643]	2.163	30.309	31.930
CheckerShapeTest2.vtx[644]	2.475	30.554	31.930
CheckerShapeTest2.vtx[645]	2.556	31.044	31.930
CheckerShapeTest2.vtx[646]	2.412	31.463	31.930
CheckerShapeTest2.vtx[647]	2.040	31.711	31.930
CheckerShapeTest2.vtx[648]	1.566	31.669	31.930
CheckerShapeTest2.vtx[649]	1.238	32.029	31.930
CheckerShapeTest2.vtx[650]	0.685	32.125	31.930
CheckerShapeTest2.vtx[651]	0.203	32.238	31.930
CheckerShapeTest2.vtx[652]	-0.224	32.257	31.930
CheckerShapeTest2.vtx[653]	-0.687	32.364	31.930
CheckerShapeTest2.vtx[654]	-1.201	32.369	31.930
CheckerShapeTest2.vtx[655]	-1.428	32.258	31.930
CheckerShapeTest2.vtx[656]	-2.129	32.429	31.930
CheckerShapeTest2.vtx[657]	-2.940	32.592	31.930
CheckerShapeTest2.vtx[658]	-3.283	32.493	31.930
CheckerShapeTest2.vtx[659]	-3.450	32.442	31.930
CheckerShapeTest2.vtx[660]	3.134	32.165	31.930
CheckerShapeTest2.vtx[661]	2.667	32.182	31.930
CheckerShapeTest2.vtx[662]	2.439	32.129	31.930
CheckerShapeTest2.vtx[663]	1.914	32.176	31.930
CheckerShapeTest2.vtx[664]	1.424	32.171	31.930
CheckerShapeTest2.vtx[665]	1.120	32.140	31.930
CheckerShapeTest2.vtx[666]	0.809	32.047	31.930
CheckerShapeTest2.vtx[667]	0.826	32.046	31.930
CheckerShapeTest2.vtx[668]	0.745	31.999	31.930
CheckerShapeTest2.vtx[669]	0.556	31.943	31.930
CheckerShapeTest2.vtx[670]	0.578	31.765	31.930
CheckerShapeTest2.vtx[671]	0.558	31.824	31.930
CheckerShapeTest2.vtx[672]	0.654	31.668	31.930
CheckerShapeTest2.vtx[673]	0.694	31.594	31.930
CheckerShapeTest2.vtx[674]	1.009	31.449	31.930
CheckerShapeTest2.vtx[675]	1.430	31.365	31.930
CheckerShapeTest2.vtx[676]	2.204	31.321	31.930
CheckerShapeTest2.vtx[677]	2.329	31.456	31.930
CheckerShapeTest2.vtx[678]	2.388	31.563	31.930
CheckerShapeTest2.vtx[679]	2.192	31.672	31.930
CheckerShapeTest2.vtx[680]	1.868	31.930	31.930
CheckerShapeTest2.vtx[681]	1.384	31.968	31.930
CheckerShapeTest2.vtx[682]	0.880	32.043	31.930
CheckerShapeTest2.vtx[683]	0.494	31.969	31.930
CheckerShapeTest2.vtx[684]	-0.111	32.187	31.930
CheckerShapeTest2.vtx[685]	-0.434	32.143	31.930
CheckerShapeTest2.vtx[686]	-0.969	32.317	31.930
CheckerShapeTest2.vtx[687]	-1.367	32.262	31.930
CheckerShapeTest2.vtx[688]	-1.817	32.118	31.930
CheckerShapeTest2.vtx[689]	-2.436	32.276	31.930
CheckerShapeTest2.vtx[690]	-3.105	32.445	31.930
CheckerShapeTest2.vtx[691]	-3.334	32.317	31.930
CheckerShapeTest2.vtx[692]	-3.486	32.261	31.930
CheckerShapeTest2.vtx[693]	3.365	32.070	31.930
CheckerShapeTest2.vtx[694]	2.954	32.076	31.930
CheckerShapeTest2.vtx[695]	2.501	32.053	31.930
CheckerShapeTest2.vtx[696]	2.181	32.113	31.930
CheckerShapeTest2.vtx[697]	1.642	32.117	31.930
CheckerShapeTest2.vtx[698]	1.676	32.174	31.930
CheckerShapeTest2.vtx[699]	1.263	32.049	31.930
CheckerShapeTest2.vtx[700]	1.162	32.041	31.930
CheckerShapeTest2.vtx[701]	1.110	32.048	31.930
CheckerShapeTest2.vtx[702]	0.886	32.058	31.930
CheckerShapeTest2.vtx[703]	0.885	31.992	31.930
CheckerShapeTest2.vtx[704]	0.813	31.960	31.930
CheckerShapeTest2.vtx[705]	0.777	31.946	31.930
CheckerShapeTest2.vtx[706]	0.897	31.969	31.930
CheckerShapeTest2.vtx[707]	1.182	31.889	31.930
CheckerShapeTest2.vtx[708]	1.517	31.913	31.930
CheckerShapeTest2.vtx[709]	2.367	31.865	31.930
CheckerShapeTest2.vtx[710]	2.330	31.976	31.930
CheckerShapeTest2.vtx[711]	2.447	31.988	31.930
CheckerShapeTest2.vtx[712]	2.082	31.690	31.930
CheckerShapeTest2.vtx[713]	1.634	31.791	31.930
CheckerShapeTest2.vtx[714]	1.118	31.982	31.930
CheckerShapeTest2.vtx[715]	0.629	32.000	31.930
CheckerShapeTest2.vtx[716]	0.293	31.989	31.930
CheckerShapeTest2.vtx[717]	-0.402	32.190	31.930
CheckerShapeTest2.vtx[718]	-0.706	32.050	31.930
CheckerShapeTest2.vtx[719]	-1.040	32.137	31.930
CheckerShapeTest2.vtx[720]	-1.231	32.139	31.930
CheckerShapeTest2.vtx[721]	-1.825	31.964	31.930
CheckerShapeTest2.vtx[722]	-2.487	31.836	31.930
CheckerShapeTest2.vtx[723]	-3.138	32.003	31.930
CheckerShapeTest2.vtx[724]	-3.302	32.009	31.930
CheckerShapeTest2.vtx[725]	-3.530	32.031	31.930
CheckerShapeTest2.vtx[726]	3.459	31.902	31.930
CheckerShapeTest2.vtx[727]	2.936	31.886	31.930
CheckerShapeTest2.vtx[728]	2.434	32.002	31.930
CheckerShapeTest2.vtx[729]	2.086	32.021	31.930
CheckerShapeTest2.vtx[730]	1.789	32.021	31.930
CheckerShapeTest2.vtx[731]	1.626	32.018	31.930
CheckerShapeTest2.vtx[732]	1.667	32.002	31.930
CheckerShapeTest2.vtx[733]	1.552	32.028	31.930
CheckerShapeTest2.vtx[734]	1.451	32.059	31.930
CheckerShapeTest2.vtx[735]	1.310	32.124	31.930
CheckerShapeTest2.vtx[736]	1.185	32.127	31.930
CheckerShapeTest2.vtx[737]	1.109	32.117	31.930
CheckerShapeTest2.vtx[738]	1.002	32.176	31.930
CheckerShapeTest2.vtx[739]	0.952	32.351	31.930
CheckerShapeTest2.vtx[740]	1.142	32.386	31.930
CheckerShapeTest2.vtx[741]	1.595	32.434	31.930
CheckerShapeTest2.vtx[742]	2.274	32.460	31.930
CheckerShapeTest2.vtx[743]	2.219	32.231	31.930
CheckerShapeTest2.vtx[744]	2.161	32.150	31.930
CheckerShapeTest2.vtx[745]	1.941	31.989	31.930
CheckerShapeTest2.vtx[746]	2.465	31.868	31.930
CheckerShapeTest2.vtx[747]	1.505	31.884	31.930
CheckerShapeTest2.vtx[748]	0.495	31.905	31.930
CheckerShapeTest2.vtx[749]	0.238	31.780	31.930
CheckerShapeTest2.vtx[750]	-0.299	31.816	31.930
CheckerShapeTest2.vtx[751]	-0.595	31.795	31.930
CheckerShapeTest2.vtx[752]	-1.073	31.889	31.930
CheckerShapeTest2.vtx[753]	-1.473	31.863	31.930
CheckerShapeTest2.vtx[754]	-1.975	31.748	31.930
CheckerShapeTest2.vtx[755]	-2.571	31.658	31.930
CheckerShapeTest2.vtx[756]	-3.337	31.589	31.930
CheckerShapeTest2.vtx[757]	-3.415	31.766	31.930
CheckerShapeTest2.vtx[758]	-3.525	31.829	31.930
CheckerShapeTest2.vtx[759]	3.388	31.832	31.930
CheckerShapeTest2.vtx[760]	2.946	31.853	31.930
CheckerShapeTest2.vtx[761]	2.346	31.890	31.930
CheckerShapeTest2.vtx[762]	1.956	31.994	31.930
CheckerShapeTest2.vtx[763]	1.760	31.961	31.930
CheckerShapeTest2.vtx[764]	1.626	31.974	31.930
CheckerShapeTest2.vtx[765]	1.666	32.020	31.930
CheckerShapeTest2.vtx[766]	1.635	32.057	31.930
CheckerShapeTest2.vtx[767]	1.667	32.120	31.930
CheckerShapeTest2.vtx[768]	1.569	32.138	31.930
CheckerShapeTest2.vtx[769]	1.501	32.193	31.930
CheckerShapeTest2.vtx[770]	1.402	32.179	31.930
CheckerShapeTest2.vtx[771]	1.277	32.304	31.930
CheckerShapeTest2.vtx[772]	1.142	32.578	31.930
CheckerShapeTest2.vtx[773]	1.212	32.849	31.930
CheckerShapeTest2.vtx[774]	1.621	32.986	31.930
CheckerShapeTest2.vtx[775]	2.203	32.976	31.930
CheckerShapeTest2.vtx[776]	2.298	32.659	31.930
CheckerShapeTest2.vtx[777]	1.959	32.375	31.930
CheckerShapeTest2.vtx[778]	1.570	32.210	31.930
CheckerShapeTest2.vtx[779]	1.846	31.920	31.930
CheckerShapeTest2.vtx[780]	1.089	31.850	31.930
CheckerShapeTest2.vtx[781]	0.510	31.710	31.930
CheckerShapeTest2.vtx[782]	0.151	31.533	31.930
CheckerShapeTest2.vtx[783]	-0.419	31.758	31.930
CheckerShapeTest2.vtx[784]	-0.708	31.729	31.930
CheckerShapeTest2.vtx[785]	-0.959	31.617	31.930
CheckerShapeTest2.vtx[786]	-1.387	31.600	31.930
CheckerShapeTest2.vtx[787]	-1.830	31.612	31.930
CheckerShapeTest2.vtx[788]	-2.504	31.549	31.930
CheckerShapeTest2.vtx[789]	-3.103	31.476	31.930
CheckerShapeTest2.vtx[790]	-3.366	31.603	31.930
CheckerShapeTest2.vtx[791]	-3.501	31.651	31.930
CheckerShapeTest2.vtx[792]	3.230	31.725	31.930
CheckerShapeTest2.vtx[793]	2.789	31.766	31.930
CheckerShapeTest2.vtx[794]	2.212	31.809	31.930
CheckerShapeTest2.vtx[795]	1.829	31.928	31.930
CheckerShapeTest2.vtx[796]	1.662	31.955	31.930
CheckerShapeTest2.vtx[797]	1.594	31.994	31.930
CheckerShapeTest2.vtx[798]	1.638	32.014	31.930
CheckerShapeTest2.vtx[799]	1.745	31.981	31.930
CheckerShapeTest2.vtx[800]	1.780	32.019	31.930
CheckerShapeTest2.vtx[801]	1.677	32.045	31.930
CheckerShapeTest2.vtx[802]	1.638	32.117	31.930
CheckerShapeTest2.vtx[803]	1.539	32.159	31.930
CheckerShapeTest2.vtx[804]	1.364	32.345	31.930
CheckerShapeTest2.vtx[805]	1.195	32.698	31.930
CheckerShapeTest2.vtx[806]	1.186	33.172	31.930
CheckerShapeTest2.vtx[807]	1.597	33.366	31.930
CheckerShapeTest2.vtx[808]	2.200	33.298	31.930
CheckerShapeTest2.vtx[809]	2.358	32.730	31.930
CheckerShapeTest2.vtx[810]	1.852	32.337	31.930
CheckerShapeTest2.vtx[811]	1.462	32.001	31.930
CheckerShapeTest2.vtx[812]	1.325	31.853	31.930
CheckerShapeTest2.vtx[813]	0.782	31.720	31.930
CheckerShapeTest2.vtx[814]	0.380	31.428	31.930
CheckerShapeTest2.vtx[815]	0.081	31.354	31.930
CheckerShapeTest2.vtx[816]	-0.409	31.554	31.930
CheckerShapeTest2.vtx[817]	-0.687	31.527	31.930
CheckerShapeTest2.vtx[818]	-0.946	31.569	31.930
CheckerShapeTest2.vtx[819]	-1.267	31.603	31.930
CheckerShapeTest2.vtx[820]	-1.759	31.605	31.930
CheckerShapeTest2.vtx[821]	-2.275	31.529	31.930
CheckerShapeTest2.vtx[822]	-2.877	31.457	31.930
CheckerShapeTest2.vtx[823]	-3.140	31.404	31.930
CheckerShapeTest2.vtx[824]	-3.293	31.392	31.930
CheckerShapeTest2.vtx[825]	2.984	31.576	31.930
CheckerShapeTest2.vtx[826]	2.485	31.633	31.930
CheckerShapeTest2.vtx[827]	1.966	31.802	31.930
CheckerShapeTest2.vtx[828]	1.634	31.874	31.930
CheckerShapeTest2.vtx[829]	1.422	31.983	31.930
CheckerShapeTest2.vtx[830]	1.402	32.077	31.930
CheckerShapeTest2.vtx[831]	1.544	32.063	31.930
CheckerShapeTest2.vtx[832]	1.752	31.903	31.930
CheckerShapeTest2.vtx[833]	1.839	31.891	31.930
CheckerShapeTest2.vtx[834]	1.719	31.928	31.930
CheckerShapeTest2.vtx[835]	1.677	32.019	31.930
CheckerShapeTest2.vtx[836]	1.579	32.146	31.930
CheckerShapeTest2.vtx[837]	1.336	32.389	31.930
CheckerShapeTest2.vtx[838]	1.142	32.859	31.930
CheckerShapeTest2.vtx[839]	1.106	33.584	31.930
CheckerShapeTest2.vtx[840]	1.539	33.924	31.930
CheckerShapeTest2.vtx[841]	2.171	33.801	31.930
CheckerShapeTest2.vtx[842]	2.304	32.934	31.930
CheckerShapeTest2.vtx[843]	1.862	32.259	31.930
CheckerShapeTest2.vtx[844]	1.507	31.942	31.930
CheckerShapeTest2.vtx[845]	1.197	31.804	31.930
CheckerShapeTest2.vtx[846]	0.928	31.728	31.930
CheckerShapeTest2.vtx[847]	0.426	31.521	31.930
CheckerShapeTest2.vtx[848]	0.029	31.321	31.930
CheckerShapeTest2.vtx[849]	-0.266	31.313	31.930
CheckerShapeTest2.vtx[850]	-0.524	31.237	31.930
CheckerShapeTest2.vtx[851]	-0.932	31.570	31.930
CheckerShapeTest2.vtx[852]	-1.258	31.572	31.930
CheckerShapeTest2.vtx[853]	-1.641	31.512	31.930
CheckerShapeTest2.vtx[854]	-2.082	31.476	31.930
CheckerShapeTest2.vtx[855]	-2.759	31.359	31.930
CheckerShapeTest2.vtx[856]	-3.060	31.273	31.930
CheckerShapeTest2.vtx[857]	-3.235	31.250	31.930
CheckerShapeTest2.vtx[858]	2.850	31.419	31.930
CheckerShapeTest2.vtx[859]	2.253	31.568	31.930
CheckerShapeTest2.vtx[860]	1.646	31.855	31.930
CheckerShapeTest2.vtx[861]	1.308	31.853	31.930
CheckerShapeTest2.vtx[862]	1.117	31.901	31.930
CheckerShapeTest2.vtx[863]	1.093	32.007	31.930
CheckerShapeTest2.vtx[864]	1.400	32.134	31.930
CheckerShapeTest2.vtx[865]	1.493	32.066	31.930
CheckerShapeTest2.vtx[866]	1.711	31.989	31.930
CheckerShapeTest2.vtx[867]	1.618	31.905	31.930
CheckerShapeTest2.vtx[868]	1.626	32.032	31.930
CheckerShapeTest2.vtx[869]	1.495	32.157	31.930
CheckerShapeTest2.vtx[870]	1.222	32.424	31.930
CheckerShapeTest2.vtx[871]	1.032	33.013	31.930
CheckerShapeTest2.vtx[872]	1.080	34.126	31.930
CheckerShapeTest2.vtx[873]	1.519	34.678	31.930
CheckerShapeTest2.vtx[874]	2.132	34.432	31.930
CheckerShapeTest2.vtx[875]	2.148	33.471	31.930
CheckerShapeTest2.vtx[876]	2.038	32.501	31.930
CheckerShapeTest2.vtx[877]	1.431	32.173	31.930
CheckerShapeTest2.vtx[878]	1.139	31.957	31.930
CheckerShapeTest2.vtx[879]	0.907	31.863	31.930
CheckerShapeTest2.vtx[880]	0.753	31.564	31.930
CheckerShapeTest2.vtx[881]	0.006	31.415	31.930
CheckerShapeTest2.vtx[882]	-0.122	31.322	31.930
CheckerShapeTest2.vtx[883]	-0.430	31.210	31.930
CheckerShapeTest2.vtx[884]	-0.756	31.415	31.930
CheckerShapeTest2.vtx[885]	-0.921	31.534	31.930
CheckerShapeTest2.vtx[886]	-1.354	31.434	31.930
CheckerShapeTest2.vtx[887]	-1.828	31.341	31.930
CheckerShapeTest2.vtx[888]	-2.448	31.241	31.930
CheckerShapeTest2.vtx[889]	-2.679	31.279	31.930
CheckerShapeTest2.vtx[890]	-2.790	31.314	31.930
CheckerShapeTest2.vtx[891]	2.417	31.327	31.930
CheckerShapeTest2.vtx[892]	1.905	31.505	31.930
CheckerShapeTest2.vtx[893]	1.378	31.741	31.930
CheckerShapeTest2.vtx[894]	0.865	31.909	31.930
CheckerShapeTest2.vtx[895]	0.624	32.163	31.930
CheckerShapeTest2.vtx[896]	0.655	32.183	31.930
CheckerShapeTest2.vtx[897]	1.013	32.230	31.930
CheckerShapeTest2.vtx[898]	1.167	32.130	31.930
CheckerShapeTest2.vtx[899]	1.437	32.065	31.930
CheckerShapeTest2.vtx[900]	1.360	32.005	31.930
CheckerShapeTest2.vtx[901]	1.396	32.160	31.930
CheckerShapeTest2.vtx[902]	1.346	32.160	31.930
CheckerShapeTest2.vtx[903]	1.243	32.508	31.930
CheckerShapeTest2.vtx[904]	0.919	33.399	31.930
CheckerShapeTest2.vtx[905]	0.871	34.591	31.930
CheckerShapeTest2.vtx[906]	1.400	35.156	31.930
CheckerShapeTest2.vtx[907]	2.023	35.011	31.930
CheckerShapeTest2.vtx[908]	2.248	33.885	31.930
CheckerShapeTest2.vtx[909]	1.999	32.914	31.930
CheckerShapeTest2.vtx[910]	1.720	32.228	31.930
CheckerShapeTest2.vtx[911]	1.413	31.974	31.930
CheckerShapeTest2.vtx[912]	1.112	31.645	31.930
CheckerShapeTest2.vtx[913]	0.836	31.659	31.930
CheckerShapeTest2.vtx[914]	0.319	31.398	31.930
CheckerShapeTest2.vtx[915]	0.098	31.445	31.930
CheckerShapeTest2.vtx[916]	-0.108	31.247	31.930
CheckerShapeTest2.vtx[917]	-0.462	31.491	31.930
CheckerShapeTest2.vtx[918]	-0.822	31.422	31.930
CheckerShapeTest2.vtx[919]	-1.133	31.399	31.930
CheckerShapeTest2.vtx[920]	-1.799	31.194	31.930
CheckerShapeTest2.vtx[921]	-2.454	31.013	31.930
CheckerShapeTest2.vtx[922]	-2.592	31.135	31.930
CheckerShapeTest2.vtx[923]	-2.728	31.179	31.930
CheckerShapeTest2.vtx[924]	2.160	31.157	31.930
CheckerShapeTest2.vtx[925]	1.628	31.391	31.930
CheckerShapeTest2.vtx[926]	0.857	31.773	31.930
CheckerShapeTest2.vtx[927]	0.502	32.122	31.930
CheckerShapeTest2.vtx[928]	0.167	32.453	31.930
CheckerShapeTest2.vtx[929]	0.228	32.559	31.930
CheckerShapeTest2.vtx[930]	0.453	32.641	31.930
CheckerShapeTest2.vtx[931]	0.616	32.538	31.930
CheckerShapeTest2.vtx[932]	0.876	32.423	31.930
CheckerShapeTest2.vtx[933]	0.916	32.411	31.930
CheckerShapeTest2.vtx[934]	1.019	32.607	31.930
CheckerShapeTest2.vtx[935]	0.952	32.721	31.930
CheckerShapeTest2.vtx[936]	0.903	33.214	31.930
CheckerShapeTest2.vtx[937]	0.641	34.270	31.930
CheckerShapeTest2.vtx[938]	0.694	35.559	31.930
CheckerShapeTest2.vtx[939]	1.278	36.161	31.930
CheckerShapeTest2.vtx[940]	1.959	36.102	31.930
CheckerShapeTest2.vtx[941]	2.230	35.373	31.930
CheckerShapeTest2.vtx[942]	2.080	33.813	31.930
CheckerShapeTest2.vtx[943]	1.880	32.601	31.930
CheckerShapeTest2.vtx[944]	1.679	32.246	31.930
CheckerShapeTest2.vtx[945]	1.253	32.107	31.930
CheckerShapeTest2.vtx[946]	1.029	31.897	31.930
CheckerShapeTest2.vtx[947]	0.690	31.649	31.930
CheckerShapeTest2.vtx[948]	0.521	31.701	31.930
CheckerShapeTest2.vtx[949]	0.321	31.539	31.930
CheckerShapeTest2.vtx[950]	-0.056	31.581	31.930
CheckerShapeTest2.vtx[951]	-0.534	31.440	31.930
CheckerShapeTest2.vtx[952]	-0.575	31.743	31.930
CheckerShapeTest2.vtx[953]	-1.478	31.271	31.930
CheckerShapeTest2.vtx[954]	-1.983	31.192	31.930
CheckerShapeTest2.vtx[955]	-2.085	31.240	31.930
CheckerShapeTest2.vtx[956]	-2.297	31.338	31.930
CheckerShapeTest2.vtx[957]	1.937	31.201	31.930
CheckerShapeTest2.vtx[958]	1.257	31.468	31.930
CheckerShapeTest2.vtx[959]	0.323	32.056	31.930
CheckerShapeTest2.vtx[960]	0.018	32.407	31.930
CheckerShapeTest2.vtx[961]	-0.400	32.779	31.930
CheckerShapeTest2.vtx[962]	-0.299	32.958	31.930
CheckerShapeTest2.vtx[963]	-0.258	33.101	31.930
CheckerShapeTest2.vtx[964]	-0.002	33.050	31.930
CheckerShapeTest2.vtx[965]	0.358	32.891	31.930
CheckerShapeTest2.vtx[966]	0.378	33.036	31.930
CheckerShapeTest2.vtx[967]	0.396	33.403	31.930
CheckerShapeTest2.vtx[968]	0.318	33.943	31.930
CheckerShapeTest2.vtx[969]	0.262	34.621	31.930
CheckerShapeTest2.vtx[970]	0.328	35.598	31.930
CheckerShapeTest2.vtx[971]	0.502	36.589	31.930
CheckerShapeTest2.vtx[972]	1.169	37.151	31.930
CheckerShapeTest2.vtx[973]	1.886	37.151	31.930
CheckerShapeTest2.vtx[974]	2.260	36.693	31.930
CheckerShapeTest2.vtx[975]	2.437	35.207	31.930
CheckerShapeTest2.vtx[976]	2.238	34.076	31.930
CheckerShapeTest2.vtx[977]	2.221	33.548	31.930
CheckerShapeTest2.vtx[978]	1.538	32.648	31.930
CheckerShapeTest2.vtx[979]	1.248	32.236	31.930
CheckerShapeTest2.vtx[980]	1.033	32.006	31.930
CheckerShapeTest2.vtx[981]	0.876	32.041	31.930
CheckerShapeTest2.vtx[982]	0.741	32.002	31.930
CheckerShapeTest2.vtx[983]	0.335	31.979	31.930
CheckerShapeTest2.vtx[984]	0.304	32.239	31.930
CheckerShapeTest2.vtx[985]	-0.175	31.974	31.930
CheckerShapeTest2.vtx[986]	-0.868	31.628	31.930
CheckerShapeTest2.vtx[987]	-1.707	31.257	31.930
CheckerShapeTest2.vtx[988]	-2.052	31.252	31.930
CheckerShapeTest2.vtx[989]	-2.227	31.248	31.930
CheckerShapeTest2.vtx[990]	1.523	31.533	31.930
CheckerShapeTest2.vtx[991]	0.733	31.803	31.930
CheckerShapeTest2.vtx[992]	-0.029	32.237	31.930
CheckerShapeTest2.vtx[993]	-0.811	32.881	31.930
CheckerShapeTest2.vtx[994]	-1.299	33.395	31.930
CheckerShapeTest2.vtx[995]	-1.290	33.732	31.930
CheckerShapeTest2.vtx[996]	-1.380	34.066	31.930
CheckerShapeTest2.vtx[997]	-1.201	34.274	31.930
CheckerShapeTest2.vtx[998]	-0.766	34.252	31.930
CheckerShapeTest2.vtx[999]	-0.797	34.818	31.930
CheckerShapeTest2.vtx[1000]	-0.862	35.592	31.930
CheckerShapeTest2.vtx[1001]	-0.874	36.366	31.930
CheckerShapeTest2.vtx[1002]	-0.812	37.296	31.930
CheckerShapeTest2.vtx[1003]	-0.303	38.087	31.930
CheckerShapeTest2.vtx[1004]	0.163	38.459	31.930
CheckerShapeTest2.vtx[1005]	0.975	38.778	31.930
CheckerShapeTest2.vtx[1006]	1.782	38.721	31.930
CheckerShapeTest2.vtx[1007]	2.331	38.469	31.930
CheckerShapeTest2.vtx[1008]	2.901	37.625	31.930
CheckerShapeTest2.vtx[1009]	2.973	36.610	31.930
CheckerShapeTest2.vtx[1010]	2.812	35.139	31.930
CheckerShapeTest2.vtx[1011]	2.391	34.248	31.930
CheckerShapeTest2.vtx[1012]	1.953	33.507	31.930
CheckerShapeTest2.vtx[1013]	1.758	33.095	31.930
CheckerShapeTest2.vtx[1014]	1.560	33.025	31.930
CheckerShapeTest2.vtx[1015]	1.410	32.983	31.930
CheckerShapeTest2.vtx[1016]	1.037	32.844	31.930
CheckerShapeTest2.vtx[1017]	0.637	32.565	31.930
CheckerShapeTest2.vtx[1018]	0.037	32.047	31.930
CheckerShapeTest2.vtx[1019]	-0.659	31.677	31.930
CheckerShapeTest2.vtx[1020]	-1.557	31.313	31.930
CheckerShapeTest2.vtx[1021]	-1.660	31.374	31.930
CheckerShapeTest2.vtx[1022]	-2.167	31.153	31.930
CheckerShapeTest2.vtx[1023]	1.323	31.627	31.930
CheckerShapeTest2.vtx[1024]	0.362	32.008	31.930
CheckerShapeTest2.vtx[1025]	-0.445	32.603	31.930
CheckerShapeTest2.vtx[1026]	-1.270	33.197	31.930
CheckerShapeTest2.vtx[1027]	-1.979	34.025	31.930
CheckerShapeTest2.vtx[1028]	-2.415	34.793	31.930
CheckerShapeTest2.vtx[1029]	-2.563	35.644	31.930
CheckerShapeTest2.vtx[1030]	-2.779	36.452	31.930
CheckerShapeTest2.vtx[1031]	-2.961	37.173	31.930
CheckerShapeTest2.vtx[1032]	-2.799	37.774	31.930
CheckerShapeTest2.vtx[1033]	-2.483	38.506	31.930
CheckerShapeTest2.vtx[1034]	-2.041	39.095	31.930
CheckerShapeTest2.vtx[1035]	-1.348	39.673	31.930
CheckerShapeTest2.vtx[1036]	-0.679	40.184	31.930
CheckerShapeTest2.vtx[1037]	0.082	40.375	31.930
CheckerShapeTest2.vtx[1038]	0.944	40.641	31.930
CheckerShapeTest2.vtx[1039]	1.806	40.409	31.930
CheckerShapeTest2.vtx[1040]	2.523	40.061	31.930
CheckerShapeTest2.vtx[1041]	3.164	39.611	31.930
CheckerShapeTest2.vtx[1042]	3.620	38.853	31.930
CheckerShapeTest2.vtx[1043]	3.757	38.238	31.930
CheckerShapeTest2.vtx[1044]	3.880	37.138	31.930
CheckerShapeTest2.vtx[1045]	3.753	36.643	31.930
CheckerShapeTest2.vtx[1046]	3.189	35.201	31.930
CheckerShapeTest2.vtx[1047]	2.866	34.970	31.930
CheckerShapeTest2.vtx[1048]	2.282	34.272	31.930
CheckerShapeTest2.vtx[1049]	2.037	33.643	31.930
CheckerShapeTest2.vtx[1050]	1.239	33.161	31.930
CheckerShapeTest2.vtx[1051]	0.612	32.711	31.930
CheckerShapeTest2.vtx[1052]	-0.455	32.038	31.930
CheckerShapeTest2.vtx[1053]	-1.429	31.475	31.930
CheckerShapeTest2.vtx[1054]	-1.544	31.444	31.930
CheckerShapeTest2.vtx[1055]	-1.688	31.445	31.930
CheckerShapeTest2.vtx[1056]	1.068	31.740	31.930
CheckerShapeTest2.vtx[1057]	0.182	31.983	31.930
CheckerShapeTest2.vtx[1058]	-0.814	32.746	31.930
CheckerShapeTest2.vtx[1059]	-1.696	33.476	31.930
CheckerShapeTest2.vtx[1060]	-2.555	34.449	31.930
CheckerShapeTest2.vtx[1061]	-2.982	35.391	31.930
CheckerShapeTest2.vtx[1062]	-3.349	36.451	31.930
CheckerShapeTest2.vtx[1063]	-3.484	37.444	31.930
CheckerShapeTest2.vtx[1064]	-3.532	38.285	31.930
CheckerShapeTest2.vtx[1065]	-3.356	39.020	31.930
CheckerShapeTest2.vtx[1066]	-3.013	39.809	31.930
CheckerShapeTest2.vtx[1067]	-2.504	40.391	31.930
CheckerShapeTest2.vtx[1068]	-1.779	41.054	31.930
CheckerShapeTest2.vtx[1069]	-1.069	41.476	31.930
CheckerShapeTest2.vtx[1070]	-0.309	41.988	31.930
CheckerShapeTest2.vtx[1071]	0.696	42.236	31.930
CheckerShapeTest2.vtx[1072]	1.579	42.215	31.930
CheckerShapeTest2.vtx[1073]	2.437	41.316	31.930
CheckerShapeTest2.vtx[1074]	3.100	41.024	31.930
CheckerShapeTest2.vtx[1075]	3.602	40.139	31.930
CheckerShapeTest2.vtx[1076]	3.917	39.620	31.930
CheckerShapeTest2.vtx[1077]	4.044	38.647	31.930
CheckerShapeTest2.vtx[1078]	4.034	38.272	31.930
CheckerShapeTest2.vtx[1079]	3.762	36.954	31.930
CheckerShapeTest2.vtx[1080]	3.654	36.422	31.930
CheckerShapeTest2.vtx[1081]	2.948	35.380	31.930
CheckerShapeTest2.vtx[1082]	2.560	34.779	31.930
CheckerShapeTest2.vtx[1083]	1.727	33.879	31.930
CheckerShapeTest2.vtx[1084]	1.062	33.187	31.930
CheckerShapeTest2.vtx[1085]	0.248	32.535	31.930
CheckerShapeTest2.vtx[1086]	-1.280	31.385	31.930
CheckerShapeTest2.vtx[1087]	-1.496	31.328	31.930
CheckerShapeTest2.vtx[1088]	-1.663	31.311	31.930
CheckerShapeTest2.vtx[1089]	0.573	32.004	31.930
CheckerShapeTest2.vtx[1090]	-0.115	32.273	31.930
CheckerShapeTest2.vtx[1091]	-1.149	32.909	31.930
CheckerShapeTest2.vtx[1092]	-1.995	33.715	31.930
CheckerShapeTest2.vtx[1093]	-2.821	34.711	31.930
CheckerShapeTest2.vtx[1094]	-3.305	35.699	31.930
CheckerShapeTest2.vtx[1095]	-3.716	36.859	31.930
CheckerShapeTest2.vtx[1096]	-3.887	37.954	31.930
CheckerShapeTest2.vtx[1097]	-3.882	38.908	31.930
CheckerShapeTest2.vtx[1098]	-3.683	39.875	31.930
CheckerShapeTest2.vtx[1099]	-3.338	40.692	31.930
CheckerShapeTest2.vtx[1100]	-2.750	41.387	31.930
CheckerShapeTest2.vtx[1101]	-2.090	42.142	31.930
CheckerShapeTest2.vtx[1102]	-1.339	42.662	31.930
CheckerShapeTest2.vtx[1103]	-0.562	43.125	31.930
CheckerShapeTest2.vtx[1104]	0.473	43.306	31.930
CheckerShapeTest2.vtx[1105]	1.351	43.343	31.930
CheckerShapeTest2.vtx[1106]	2.003	42.599	31.930
CheckerShapeTest2.vtx[1107]	3.065	41.764	31.930
CheckerShapeTest2.vtx[1108]	3.303	41.772	31.930
CheckerShapeTest2.vtx[1109]	3.887	40.309	31.930
CheckerShapeTest2.vtx[1110]	3.920	40.395	31.930
CheckerShapeTest2.vtx[1111]	4.060	38.680	31.930
CheckerShapeTest2.vtx[1112]	3.838	37.068	31.930
CheckerShapeTest2.vtx[1113]	3.719	36.945	31.930
CheckerShapeTest2.vtx[1114]	3.069	35.442	31.930
CheckerShapeTest2.vtx[1115]	2.683	35.186	31.930
CheckerShapeTest2.vtx[1116]	2.236	34.949	31.930
CheckerShapeTest2.vtx[1117]	1.127	33.418	31.930
CheckerShapeTest2.vtx[1118]	0.683	33.245	31.930
CheckerShapeTest2.vtx[1119]	-0.512	31.945	31.930
CheckerShapeTest2.vtx[1120]	-1.466	31.188	31.930
CheckerShapeTest2.vtx[1121]	-1.643	31.169	31.930
CheckerShapeTest2.vtx[1122]	0.117	32.089	31.930
CheckerShapeTest2.vtx[1123]	-0.520	32.437	31.930
CheckerShapeTest2.vtx[1124]	-1.422	33.052	31.930
CheckerShapeTest2.vtx[1125]	-2.241	34.008	31.930
CheckerShapeTest2.vtx[1126]	-3.064	35.013	31.930
CheckerShapeTest2.vtx[1127]	-3.600	36.249	31.930
CheckerShapeTest2.vtx[1128]	-3.934	37.326	31.930
CheckerShapeTest2.vtx[1129]	-4.070	38.429	31.930
CheckerShapeTest2.vtx[1130]	-4.048	39.482	31.930
CheckerShapeTest2.vtx[1131]	-3.887	40.491	31.930
CheckerShapeTest2.vtx[1132]	-3.532	41.367	31.930
CheckerShapeTest2.vtx[1133]	-2.966	42.184	31.930
CheckerShapeTest2.vtx[1134]	-2.283	42.888	31.930
CheckerShapeTest2.vtx[1135]	-1.551	43.519	31.930
CheckerShapeTest2.vtx[1136]	-0.668	43.860	31.930
CheckerShapeTest2.vtx[1137]	0.287	44.034	31.930
CheckerShapeTest2.vtx[1138]	1.192	44.117	31.930
CheckerShapeTest2.vtx[1139]	1.687	44.408	31.930
CheckerShapeTest2.vtx[1140]	2.533	43.617	31.930
CheckerShapeTest2.vtx[1141]	3.129	43.170	31.930
CheckerShapeTest2.vtx[1142]	3.565	42.513	31.930
CheckerShapeTest2.vtx[1143]	3.921	41.488	31.930
CheckerShapeTest2.vtx[1144]	4.063	40.697	31.930
CheckerShapeTest2.vtx[1145]	4.101	39.673	31.930
CheckerShapeTest2.vtx[1146]	4.003	38.823	31.930
CheckerShapeTest2.vtx[1147]	3.636	37.752	31.930
CheckerShapeTest2.vtx[1148]	3.122	36.854	31.930
CheckerShapeTest2.vtx[1149]	2.419	35.651	31.930
CheckerShapeTest2.vtx[1150]	1.682	34.707	31.930
CheckerShapeTest2.vtx[1151]	0.874	33.513	31.930
CheckerShapeTest2.vtx[1152]	0.277	33.019	31.930
CheckerShapeTest2.vtx[1153]	-0.503	32.365	31.930
CheckerShapeTest2.vtx[1154]	-1.630	31.019	31.930
CheckerShapeTest2.vtx[1155]	-0.429	32.245	31.930
CheckerShapeTest2.vtx[1156]	-1.108	32.721	31.930
CheckerShapeTest2.vtx[1157]	-1.872	33.424	31.930
CheckerShapeTest2.vtx[1158]	-2.640	34.497	31.930
CheckerShapeTest2.vtx[1159]	-3.460	35.503	31.930
CheckerShapeTest2.vtx[1160]	-3.805	36.840	31.930
CheckerShapeTest2.vtx[1161]	-4.213	38.068	31.930
CheckerShapeTest2.vtx[1162]	-4.269	39.206	31.930
CheckerShapeTest2.vtx[1163]	-4.265	40.367	31.930
CheckerShapeTest2.vtx[1164]	-4.141	41.360	31.930
CheckerShapeTest2.vtx[1165]	-3.752	42.356	31.930
CheckerShapeTest2.vtx[1166]	-3.258	43.273	31.930
CheckerShapeTest2.vtx[1167]	-2.537	43.940	31.930
CheckerShapeTest2.vtx[1168]	-1.814	44.629	31.930
CheckerShapeTest2.vtx[1169]	-0.788	44.956	31.930
CheckerShapeTest2.vtx[1170]	0.059	45.136	31.930
CheckerShapeTest2.vtx[1171]	0.979	45.183	31.930
CheckerShapeTest2.vtx[1172]	1.590	45.168	31.930
CheckerShapeTest2.vtx[1173]	2.454	44.697	31.930
CheckerShapeTest2.vtx[1174]	3.245	44.012	31.930
CheckerShapeTest2.vtx[1175]	3.536	43.304	31.930
CheckerShapeTest2.vtx[1176]	3.812	42.581	31.930
CheckerShapeTest2.vtx[1177]	4.149	41.177	31.930
CheckerShapeTest2.vtx[1178]	4.092	40.570	31.930
CheckerShapeTest2.vtx[1179]	4.026	39.371	31.930
CheckerShapeTest2.vtx[1180]	3.626	38.672	31.930
CheckerShapeTest2.vtx[1181]	3.136	37.254	31.930
CheckerShapeTest2.vtx[1182]	2.440	36.337	31.930
CheckerShapeTest2.vtx[1183]	1.674	34.907	31.930
CheckerShapeTest2.vtx[1184]	1.273	34.495	31.930
CheckerShapeTest2.vtx[1185]	1.076	34.449	31.930
CheckerShapeTest2.vtx[1186]	0.157	33.729	31.930
CheckerShapeTest2.vtx[1187]	-0.093	33.598	31.930
CheckerShapeTest2.vtx[1188]	-0.577	32.439	31.930
CheckerShapeTest2.vtx[1189]	-1.242	33.378	31.930
CheckerShapeTest2.vtx[1190]	-2.246	33.964	31.930
CheckerShapeTest2.vtx[1191]	-3.026	34.735	31.930
CheckerShapeTest2.vtx[1192]	-3.796	35.661	31.930
CheckerShapeTest2.vtx[1193]	-4.070	37.410	31.930
CheckerShapeTest2.vtx[1194]	-4.517	38.532	31.930
CheckerShapeTest2.vtx[1195]	-4.506	39.873	31.930
CheckerShapeTest2.vtx[1196]	-4.584	41.011	31.930
CheckerShapeTest2.vtx[1197]	-4.421	42.089	31.930
CheckerShapeTest2.vtx[1198]	-3.912	43.307	31.930
CheckerShapeTest2.vtx[1199]	-3.319	44.212	31.930
CheckerShapeTest2.vtx[1200]	-2.758	44.990	31.930
CheckerShapeTest2.vtx[1201]	-1.952	45.800	31.930
CheckerShapeTest2.vtx[1202]	-0.887	46.168	31.930
CheckerShapeTest2.vtx[1203]	-0.011	46.382	31.930
CheckerShapeTest2.vtx[1204]	0.953	46.210	31.930
CheckerShapeTest2.vtx[1205]	1.208	46.569	31.930
CheckerShapeTest2.vtx[1206]	2.043	45.557	31.930
CheckerShapeTest2.vtx[1207]	2.696	45.299	31.930
CheckerShapeTest2.vtx[1208]	3.352	44.031	31.930
CheckerShapeTest2.vtx[1209]	3.676	43.602	31.930
CheckerShapeTest2.vtx[1210]	3.957	42.401	31.930
CheckerShapeTest2.vtx[1211]	4.002	41.592	31.930
CheckerShapeTest2.vtx[1212]	3.960	40.162	31.930
CheckerShapeTest2.vtx[1213]	3.562	39.502	31.930
CheckerShapeTest2.vtx[1214]	3.090	38.272	31.930
CheckerShapeTest2.vtx[1215]	2.409	36.932	31.930
CheckerShapeTest2.vtx[1216]	1.679	35.649	31.930
CheckerShapeTest2.vtx[1217]	1.513	35.622	31.930
CheckerShapeTest2.vtx[1218]	1.078	34.450	31.930
CheckerShapeTest2.vtx[1219]	0.276	33.805	31.930
CheckerShapeTest2.vtx[1220]	0.012	33.634	31.930
CheckerShapeTest2.vtx[1221]	-0.644	32.387	31.930
CheckerShapeTest2.vtx[1222]	-1.319	32.940	31.930
CheckerShapeTest2.vtx[1223]	-2.400	33.482	31.930
CheckerShapeTest2.vtx[1224]	-3.214	34.520	31.930
CheckerShapeTest2.vtx[1225]	-3.717	35.844	31.930
CheckerShapeTest2.vtx[1226]	-4.136	37.536	31.930
CheckerShapeTest2.vtx[1227]	-4.520	39.051	31.930
CheckerShapeTest2.vtx[1228]	-4.643	40.168	31.930
CheckerShapeTest2.vtx[1229]	-4.499	41.547	31.930
CheckerShapeTest2.vtx[1230]	-4.554	42.795	31.930
CheckerShapeTest2.vtx[1231]	-4.228	43.918	31.930
CheckerShapeTest2.vtx[1232]	-3.756	44.965	31.930
CheckerShapeTest2.vtx[1233]	-3.023	45.798	31.930
CheckerShapeTest2.vtx[1234]	-2.194	46.456	31.930
CheckerShapeTest2.vtx[1235]	-1.473	46.714	31.930
CheckerShapeTest2.vtx[1236]	-0.385	47.025	31.930
CheckerShapeTest2.vtx[1237]	0.702	46.922	31.930
CheckerShapeTest2.vtx[1238]	1.285	46.516	31.930
CheckerShapeTest2.vtx[1239]	2.032	46.218	31.930
CheckerShapeTest2.vtx[1240]	2.725	45.352	31.930
CheckerShapeTest2.vtx[1241]	3.373	44.887	31.930
CheckerShapeTest2.vtx[1242]	3.692	43.645	31.930
CheckerShapeTest2.vtx[1243]	3.991	42.751	31.930
CheckerShapeTest2.vtx[1244]	3.982	41.663	31.930
CheckerShapeTest2.vtx[1245]	3.886	41.015	31.930
CheckerShapeTest2.vtx[1246]	3.502	39.518	31.930
CheckerShapeTest2.vtx[1247]	2.935	38.300	31.930
CheckerShapeTest2.vtx[1248]	2.309	36.831	31.930
CheckerShapeTest2.vtx[1249]	1.483	35.541	31.930
CheckerShapeTest2.vtx[1250]	1.483	35.626	31.930
CheckerShapeTest2.vtx[1251]	1.384	35.659	31.930
CheckerShapeTest2.vtx[1252]	0.907	34.289	31.930
CheckerShapeTest2.vtx[1253]	0.082	33.615	31.930
CheckerShapeTest2.vtx[1254]	-0.711	31.787	31.930
CheckerShapeTest2.vtx[1255]	-1.370	32.284	31.930
CheckerShapeTest2.vtx[1256]	-2.439	33.059	31.930
CheckerShapeTest2.vtx[1257]	-3.147	34.667	31.930
CheckerShapeTest2.vtx[1258]	-3.666	36.014	31.930
CheckerShapeTest2.vtx[1259]	-4.286	37.534	31.930
CheckerShapeTest2.vtx[1260]	-4.663	39.151	31.930
CheckerShapeTest2.vtx[1261]	-4.839	40.614	31.930
CheckerShapeTest2.vtx[1262]	-4.766	41.939	31.930
CheckerShapeTest2.vtx[1263]	-4.695	43.262	31.930
CheckerShapeTest2.vtx[1264]	-4.472	44.310	31.930
CheckerShapeTest2.vtx[1265]	-3.994	45.484	31.930
CheckerShapeTest2.vtx[1266]	-3.251	46.411	31.930
CheckerShapeTest2.vtx[1267]	-2.418	47.183	31.930
CheckerShapeTest2.vtx[1268]	-1.703	47.398	31.930
CheckerShapeTest2.vtx[1269]	-0.765	47.671	31.930
CheckerShapeTest2.vtx[1270]	0.465	47.604	31.930
CheckerShapeTest2.vtx[1271]	1.130	47.023	31.930
CheckerShapeTest2.vtx[1272]	1.482	46.645	31.930
CheckerShapeTest2.vtx[1273]	2.723	45.235	31.930
CheckerShapeTest2.vtx[1274]	3.304	44.662	31.930
CheckerShapeTest2.vtx[1275]	3.700	43.502	31.930
CheckerShapeTest2.vtx[1276]	3.890	42.728	31.930
CheckerShapeTest2.vtx[1277]	3.980	41.527	31.930
CheckerShapeTest2.vtx[1278]	3.720	40.714	31.930
CheckerShapeTest2.vtx[1279]	3.488	39.357	31.930
CheckerShapeTest2.vtx[1280]	2.787	38.099	31.930
CheckerShapeTest2.vtx[1281]	2.275	36.635	31.930
CheckerShapeTest2.vtx[1282]	1.632	35.624	31.930
CheckerShapeTest2.vtx[1283]	1.508	35.583	31.930
CheckerShapeTest2.vtx[1284]	1.396	35.588	31.930
CheckerShapeTest2.vtx[1285]	1.261	35.597	31.930
CheckerShapeTest2.vtx[1286]	1.116	35.612	31.930
CheckerShapeTest2.vtx[1287]	-0.680	31.041	31.930
CheckerShapeTest2.vtx[1288]	-1.367	31.756	31.930
CheckerShapeTest2.vtx[1289]	-2.426	32.801	31.930
CheckerShapeTest2.vtx[1290]	-3.161	34.876	31.930
CheckerShapeTest2.vtx[1291]	-3.727	36.167	31.930
CheckerShapeTest2.vtx[1292]	-4.496	37.639	31.930
CheckerShapeTest2.vtx[1293]	-4.736	39.364	31.930
CheckerShapeTest2.vtx[1294]	-5.075	41.345	31.930
CheckerShapeTest2.vtx[1295]	-5.008	42.738	31.930
CheckerShapeTest2.vtx[1296]	-4.846	43.973	31.930
CheckerShapeTest2.vtx[1297]	-4.608	44.960	31.930
CheckerShapeTest2.vtx[1298]	-4.078	46.164	31.930
CheckerShapeTest2.vtx[1299]	-3.384	47.018	31.930
CheckerShapeTest2.vtx[1300]	-2.682	47.809	31.930
CheckerShapeTest2.vtx[1301]	-1.880	48.078	31.930
CheckerShapeTest2.vtx[1302]	-0.936	48.197	31.930
CheckerShapeTest2.vtx[1303]	0.373	48.109	31.930
CheckerShapeTest2.vtx[1304]	0.544	47.862	31.930
CheckerShapeTest2.vtx[1305]	1.083	47.311	31.930
CheckerShapeTest2.vtx[1306]	2.192	45.883	31.930
CheckerShapeTest2.vtx[1307]	3.242	44.443	31.930
CheckerShapeTest2.vtx[1308]	3.295	44.088	31.930
CheckerShapeTest2.vtx[1309]	3.834	42.607	31.930
CheckerShapeTest2.vtx[1310]	3.750	42.266	31.930
CheckerShapeTest2.vtx[1311]	3.656	40.472	31.930
CheckerShapeTest2.vtx[1312]	3.426	40.026	31.930
CheckerShapeTest2.vtx[1313]	2.746	37.931	31.930
CheckerShapeTest2.vtx[1314]	2.393	37.396	31.930
CheckerShapeTest2.vtx[1315]	1.758	35.671	31.930
CheckerShapeTest2.vtx[1316]	1.568	35.544	31.930
CheckerShapeTest2.vtx[1317]	1.420	35.506	31.930
CheckerShapeTest2.vtx[1318]	1.274	35.494	31.930
CheckerShapeTest2.vtx[1319]	1.125	35.493	31.930
CheckerShapeTest2.vtx[1320]	-0.509	30.093	31.930
CheckerShapeTest2.vtx[1321]	-1.269	30.976	31.930
CheckerShapeTest2.vtx[1322]	-2.311	32.374	31.930
CheckerShapeTest2.vtx[1323]	-3.202	34.952	31.930
CheckerShapeTest2.vtx[1324]	-3.918	36.310	31.930
CheckerShapeTest2.vtx[1325]	-4.712	37.906	31.930
CheckerShapeTest2.vtx[1326]	-4.880	39.736	31.930
CheckerShapeTest2.vtx[1327]	-5.389	42.570	31.930
CheckerShapeTest2.vtx[1328]	-5.352	44.213	31.930
CheckerShapeTest2.vtx[1329]	-5.161	45.408	31.930
CheckerShapeTest2.vtx[1330]	-4.694	46.235	31.930
CheckerShapeTest2.vtx[1331]	-4.132	47.206	31.930
CheckerShapeTest2.vtx[1332]	-3.398	47.955	31.930
CheckerShapeTest2.vtx[1333]	-2.925	48.618	31.930
CheckerShapeTest2.vtx[1334]	-2.128	48.923	31.930
CheckerShapeTest2.vtx[1335]	-0.979	48.882	31.930
CheckerShapeTest2.vtx[1336]	0.396	48.742	31.930
CheckerShapeTest2.vtx[1337]	0.488	48.494	31.930
CheckerShapeTest2.vtx[1338]	0.877	47.909	31.930
CheckerShapeTest2.vtx[1339]	2.005	46.192	31.930
CheckerShapeTest2.vtx[1340]	3.219	44.258	31.930
CheckerShapeTest2.vtx[1341]	3.218	44.016	31.930
CheckerShapeTest2.vtx[1342]	3.813	42.457	31.930
CheckerShapeTest2.vtx[1343]	3.714	42.213	31.930
CheckerShapeTest2.vtx[1344]	3.631	40.274	31.930
CheckerShapeTest2.vtx[1345]	3.430	39.971	31.930
CheckerShapeTest2.vtx[1346]	2.728	37.762	31.930
CheckerShapeTest2.vtx[1347]	2.440	37.392	31.930
CheckerShapeTest2.vtx[1348]	1.806	35.583	31.930
CheckerShapeTest2.vtx[1349]	1.612	35.467	31.930
CheckerShapeTest2.vtx[1350]	1.445	35.410	31.930
CheckerShapeTest2.vtx[1351]	1.289	35.383	31.930
CheckerShapeTest2.vtx[1352]	1.134	35.371	31.930
CheckerShapeTest2.vtx[1353]	-0.333	29.543	31.930
CheckerShapeTest2.vtx[1354]	-1.232	30.370	31.930
CheckerShapeTest2.vtx[1355]	-2.372	32.241	31.930
CheckerShapeTest2.vtx[1356]	-3.194	34.879	31.930
CheckerShapeTest2.vtx[1357]	-4.387	36.351	31.930
CheckerShapeTest2.vtx[1358]	-4.865	38.025	31.930
CheckerShapeTest2.vtx[1359]	-5.090	40.157	31.930
CheckerShapeTest2.vtx[1360]	-5.657	43.336	31.930
CheckerShapeTest2.vtx[1361]	-5.769	45.248	31.930
CheckerShapeTest2.vtx[1362]	-5.480	46.372	31.930
CheckerShapeTest2.vtx[1363]	-4.593	46.918	31.930
CheckerShapeTest2.vtx[1364]	-3.971	47.603	31.930
CheckerShapeTest2.vtx[1365]	-3.283	48.121	31.930
CheckerShapeTest2.vtx[1366]	-2.787	48.669	31.930
CheckerShapeTest2.vtx[1367]	-2.026	48.931	31.930
CheckerShapeTest2.vtx[1368]	-0.802	48.835	31.930
CheckerShapeTest2.vtx[1369]	0.531	48.879	31.930
CheckerShapeTest2.vtx[1370]	0.137	48.756	31.930
CheckerShapeTest2.vtx[1371]	0.330	48.346	31.930
CheckerShapeTest2.vtx[1372]	0.733	47.731	31.930
CheckerShapeTest2.vtx[1373]	3.210	44.085	31.930
CheckerShapeTest2.vtx[1374]	3.165	43.916	31.930
CheckerShapeTest2.vtx[1375]	3.805	42.299	31.930
CheckerShapeTest2.vtx[1376]	3.690	42.125	31.930
CheckerShapeTest2.vtx[1377]	3.620	40.094	31.930
CheckerShapeTest2.vtx[1378]	3.433	39.884	31.930
CheckerShapeTest2.vtx[1379]	2.720	37.597	31.930
CheckerShapeTest2.vtx[1380]	2.472	37.338	31.930
CheckerShapeTest2.vtx[1381]	2.239	37.136	31.930
CheckerShapeTest2.vtx[1382]	1.638	35.353	31.930
CheckerShapeTest2.vtx[1383]	1.466	35.296	31.930
CheckerShapeTest2.vtx[1384]	1.303	35.262	31.930
CheckerShapeTest2.vtx[1385]	1.144	35.243	31.930
CheckerShapeTest2.vtx[1386]	-0.333	29.543	30.222
CheckerShapeTest2.vtx[1387]	-1.232	30.370	30.222
CheckerShapeTest2.vtx[1388]	-2.372	32.241	30.222
CheckerShapeTest2.vtx[1389]	-3.194	34.879	30.222
CheckerShapeTest2.vtx[1390]	-4.387	36.351	30.222
CheckerShapeTest2.vtx[1391]	-4.865	38.025	30.222
CheckerShapeTest2.vtx[1392]	-5.090	40.157	30.222
CheckerShapeTest2.vtx[1393]	-5.657	43.336	30.222
CheckerShapeTest2.vtx[1394]	-5.769	45.248	30.222
CheckerShapeTest2.vtx[1395]	-5.480	46.372	30.222
CheckerShapeTest2.vtx[1396]	-4.593	46.918	30.222
CheckerShapeTest2.vtx[1397]	-3.971	47.603	30.222
CheckerShapeTest2.vtx[1398]	-3.283	48.121	30.222
CheckerShapeTest2.vtx[1399]	-2.787	48.669	30.222
CheckerShapeTest2.vtx[1400]	-2.026	48.931	30.222
CheckerShapeTest2.vtx[1401]	-0.802	48.835	30.222
CheckerShapeTest2.vtx[1402]	0.531	48.879	30.222
CheckerShapeTest2.vtx[1403]	0.137	48.756	30.222
CheckerShapeTest2.vtx[1404]	0.330	48.346	30.222
CheckerShapeTest2.vtx[1405]	0.733	47.731	30.222
CheckerShapeTest2.vtx[1406]	3.210	44.085	30.222
CheckerShapeTest2.vtx[1407]	3.165	43.916	30.222
CheckerShapeTest2.vtx[1408]	3.805	42.299	30.222
CheckerShapeTest2.vtx[1409]	3.690	42.125	30.222
CheckerShapeTest2.vtx[1410]	3.620	40.094	30.222
CheckerShapeTest2.vtx[1411]	3.433	39.884	30.222
CheckerShapeTest2.vtx[1412]	2.720	37.597	30.222
CheckerShapeTest2.vtx[1413]	2.472	37.338	30.222
CheckerShapeTest2.vtx[1414]	2.239	37.136	30.222
CheckerShapeTest2.vtx[1415]	1.638	35.353	30.222
CheckerShapeTest2.vtx[1416]	1.466	35.296	30.222
CheckerShapeTest2.vtx[1417]	1.303	35.262	30.222
CheckerShapeTest2.vtx[1418]	1.144	35.243	30.222
