HEAD.vtx[1632]	-3.918333095e-005	9.007829666	29.59631348
HEAD.vtx[1633]	1.15570879	9.032840729	29.51960945
HEAD.vtx[1634]	8.176265717	10.08669853	26.16245079
HEAD.vtx[1636]	7.864941597	10.87261677	26.90302467
HEAD.vtx[1637]	4.234056178e-006	5.940390587	29.93520164
HEAD.vtx[1638]	1.690577745	6.15725565	29.81254005
HEAD.vtx[1639]	1.417804241	16.8278389	30.7831459
HEAD.vtx[1640]	9.954827309	9.074790001	25.56177521
HEAD.vtx[1641]	8.927471161	12.47492504	26.96035576
HEAD.vtx[1642]	4.731209755	6.022677898	27.830513
HEAD.vtx[1643]	3.958972216	9.149920464	28.93782806
HEAD.vtx[1644]	3.632191658	10.23917294	28.55052376
HEAD.vtx[1645]	3.887525082	11.5086422	28.97326469
HEAD.vtx[1646]	3.929582596	18.14915085	30.50405693
HEAD.vtx[1647]	6.989069939	13.95465279	27.51811981
HEAD.vtx[1648]	6.210301399	10.94489098	27.66055107
HEAD.vtx[1649]	6.160881996	10.19817448	26.97085953
HEAD.vtx[1650]	6.564581871	9.513401031	27.32051849
HEAD.vtx[1651]	7.637881756	7.023996353	26.2341423
HEAD.vtx[1652]	1.133883595	23.4546051	31.78212166
HEAD.vtx[1653]	1.264385939	25.66071892	31.03574371
HEAD.vtx[1654]	3.22596693	20.5435791	30.65982819
HEAD.vtx[1655]	6.722340107	21.21677017	29.95287704
HEAD.vtx[1656]	12.0038929	13.31454277	26.10646629
HEAD.vtx[1657]	15.32766533	13.85381413	24.12566376
HEAD.vtx[1658]	13.23808289	7.876189232	22.53725243
HEAD.vtx[1660]	2.675087929	2.671561718	30.24401855
HEAD.vtx[1662]	3.71877104e-006	2.759902954	30.68787384
HEAD.vtx[1664]	6.871799946	3.021756411	26.24082375
HEAD.vtx[1666]	11.24428272	5.177877903	22.97097206
HEAD.vtx[1668]	13.42993832	16.24332619	27.1350441
HEAD.vtx[1669]	9.87103653	15.43601894	28.26262856
HEAD.vtx[1670]	0.9783390164	27.80677414	30.55937195
HEAD.vtx[1671]	2.437796116	24.46329308	30.60204887
HEAD.vtx[1672]	1.736144543	31.85604095	29.31255341
HEAD.vtx[1673]	3.673269272	34.85401917	29.01501274
HEAD.vtx[1674]	9.204835892	37.35011673	29.92755318
HEAD.vtx[1675]	2.713245869	22.25499916	31.12506485
HEAD.vtx[1676]	7.061027527	29.26605988	21.8944397
HEAD.vtx[1677]	5.89997673	29.82642365	20.79074669
HEAD.vtx[1678]	5.72932148	29.95663261	20.68433189
HEAD.vtx[1679]	5.731479168	31.22109604	21.71122169
HEAD.vtx[1680]	9.227333069	34.37275696	23.02231407
HEAD.vtx[1681]	11.36177254	34.51960754	22.67539597
HEAD.vtx[1682]	13.57162762	33.20516586	21.96879005
HEAD.vtx[1683]	14.16229343	32.4291687	21.34711647
HEAD.vtx[1684]	14.59212208	31.81751442	20.58640862
HEAD.vtx[1685]	13.35466957	29.50206947	21.35027695
HEAD.vtx[1686]	11.83777905	28.93981361	22.25268173
HEAD.vtx[1687]	8.910165787	28.84855652	22.49217224
HEAD.vtx[1688]	4.982842922	26.37617302	28.60970688
HEAD.vtx[1689]	13.65504456	36.87026215	27.19287491
HEAD.vtx[1690]	17.20066071	36.47657776	22.43031502
HEAD.vtx[1691]	19.28285217	36.79827118	18.55138588
HEAD.vtx[1692]	20.47199631	33.92021942	16.2679615
HEAD.vtx[1693]	18.98461914	26.21538734	18.8279953
HEAD.vtx[1694]	16.17387962	24.02285767	22.5922966
HEAD.vtx[1695]	10.15738392	23.2222538	28.39455605
HEAD.vtx[1710]	17.8545475	17.48488045	24.48977089
HEAD.vtx[1711]	18.8417778	14.69410515	21.35630608
HEAD.vtx[1716]	12.21183491	50.63184357	26.49397469
HEAD.vtx[1717]	17.64027214	47.57577896	22.65107155
HEAD.vtx[1718]	21.43481255	44.73794174	18.24742126
HEAD.vtx[1719]	22.78924561	41.10639572	14.94155693
HEAD.vtx[1720]	23.35134888	35.27853012	13.4271059
HEAD.vtx[1721]	21.60515976	23.91219521	16.8222847
HEAD.vtx[1722]	20.2806778	19.26516151	20.9610405
HEAD.vtx[1732]	20.84277344	17.22483063	18.30322456
HEAD.vtx[1738]	24.44177055	35.48646545	11.27903271
HEAD.vtx[1740]	22.71870995	21.96050453	14.65743351
HEAD.vtx[1813]	6.1414814	10.23065281	26.96224785
HEAD.vtx[1814]	3.394013405	10.28924942	28.58770943
HEAD.vtx[1815]	0.7133542299	10.3213253	29.44244576
HEAD.vtx[1816]	-0.0007327041822	10.30728149	29.48557472
HEAD.vtx[1818]	8.139190674	10.76106358	25.87357712
HEAD.vtx[1819]	10.06836891	10.93409348	26.04545975
HEAD.vtx[1820]	13.18584251	10.68960476	23.85090256
HEAD.vtx[1821]	16.47316551	10.69663239	21.22753143
HEAD.vtx[1830]	-0.0006197439507	9.832195282	29.96712875
HEAD.vtx[1831]	1.015594721	9.837118149	29.91017151
HEAD.vtx[1832]	3.595632553	9.83087635	29.13043976
HEAD.vtx[1833]	6.267231941	9.842475891	27.46380424
HEAD.vtx[1834]	7.763571739	10.40304565	26.55336761
HEAD.vtx[1835]	8.153051376	10.54561234	26.12776756
HEAD.vtx[1836]	7.643102169	10.3902998	26.46071434
HEAD.vtx[1837]	6.108922005	10.13735199	27.37872314
HEAD.vtx[1838]	3.730335236	10.73448467	28.97797394
HEAD.vtx[1839]	1.929324935e-005	7.659352303	29.6635685
HEAD.vtx[1840]	1.458199978	7.941543579	29.5283699
HEAD.vtx[1841]	4.338540077	7.827602863	28.3812027
HEAD.vtx[1842]	7.139607906	8.436757088	27.13561249
HEAD.vtx[1843]	9.030981064	9.658013344	26.14522171
HEAD.vtx[1844]	9.212142944	10.73962307	26.24670219
HEAD.vtx[1845]	8.253131866	11.50326443	26.09039688
HEAD.vtx[1846]	6.617026329	12.41302681	27.94516754
HEAD.vtx[1847]	3.973857403	13.86207199	29.19573212
HEAD.vtx[1848]	1.060473084	14.71938801	30.48047829
HEAD.vtx[1857]	-3.355283843e-005	10.47121906	27.75036049
HEAD.vtx[1916]	1.155148745	22.14564896	34.04553223
HEAD.vtx[1917]	1.204723358	21.16285324	34.58405304
HEAD.vtx[1918]	1.230301142	19.65563202	34.77243805
HEAD.vtx[1919]	4.128814697	19.14915848	30.42105675
HEAD.vtx[1920]	7.770664215	14.93711758	27.78413963
HEAD.vtx[1921]	9.989873886	13.12621403	26.86260605
HEAD.vtx[1922]	11.1913166	10.85293674	25.28751564
HEAD.vtx[1923]	10.97676468	8.4331007	24.51997566
HEAD.vtx[1924]	8.772866249	5.891681671	25.05668831
HEAD.vtx[1925]	5.552016735	4.555706501	26.99933052
HEAD.vtx[1926]	2.196047068	4.500671387	30.25725555
HEAD.vtx[1927]	3.779307008e-006	4.40950489	30.54175568
HEAD.vtx[1928]	3.492159605	20.67867088	31.53106689
HEAD.vtx[1929]	4.14044857	19.33118439	31.64728928
HEAD.vtx[1930]	3.766457081	18.73677063	31.70469093
HEAD.vtx[1931]	3.668934345	20.81478119	32.17580414
HEAD.vtx[1932]	4.130028725	19.68553543	32.59497452
HEAD.vtx[1933]	3.659266472	19.36126328	32.97751617
HEAD.vtx[1934]	2.039233923	22.00739288	33.75237274
HEAD.vtx[1935]	2.061502934	20.91043854	34.42260742
HEAD.vtx[1936]	1.891309619	19.65922165	34.58731842
HEAD.vtx[1937]	1.781671882	23.29470825	31.61864853
HEAD.vtx[1938]	1.81172204	25.40876579	30.75782776
HEAD.vtx[1939]	1.800442815	27.54462051	29.95432281
HEAD.vtx[1940]	1.431260228	29.50070572	29.54813576
HEAD.vtx[1941]	2.596961975	34.4226532	29.80615807
HEAD.vtx[1942]	5.563643456	40.92573547	31.04027367
HEAD.vtx[1943]	8.299869537	52.18753052	28.2851696
HEAD.vtx[1962]	13.65320873	33.78551865	21.44510651
HEAD.vtx[1963]	11.36669445	35.21310043	22.24296951
HEAD.vtx[1964]	9.263440132	35.18778992	23.5466156
HEAD.vtx[1965]	5.869585991	32.03340149	22.45965385
HEAD.vtx[1966]	4.959041595	30.30850792	21.37023735
HEAD.vtx[1967]	5.358935833	29.01061249	21.6021843
HEAD.vtx[1968]	6.974719048	28.47599602	22.52708244
HEAD.vtx[1969]	9.203345299	27.90852547	22.93175697
HEAD.vtx[1970]	12.01726818	28.29752159	22.18658829
HEAD.vtx[1971]	13.8555584	29.30066109	21.4999733
HEAD.vtx[1972]	14.91022491	31.85089684	20.90490723
HEAD.vtx[1973]	14.31223011	32.64641571	21.18670273
HEAD.vtx[1974]	5.708741665	27.21543884	27.1362381
HEAD.vtx[1975]	9.927009583	25.71933174	25.79987526
HEAD.vtx[1976]	14.39245892	25.56992149	22.3476429
HEAD.vtx[1977]	17.67156982	27.12379456	19.80470467
HEAD.vtx[1978]	18.92802238	32.92511749	17.92301559
HEAD.vtx[1979]	17.49851418	34.99685287	20.46775627
HEAD.vtx[1980]	16.06790733	35.54711533	22.72684288
HEAD.vtx[1981]	12.53497219	36.25444794	26.50782394
HEAD.vtx[1982]	9.191773415	36.78951263	28.79427147
HEAD.vtx[1983]	4.213946819	34.57091141	27.75186157
HEAD.vtx[1984]	6.863697052	27.84694672	20.2178936
HEAD.vtx[1985]	5.201444626	28.94298363	19.59592247
HEAD.vtx[1986]	4.451378345	30.34191322	20.24283791
HEAD.vtx[1987]	5.149289608	32.57739258	21.41701889
HEAD.vtx[1988]	7.446830273	35.48029327	21.40602875
HEAD.vtx[1989]	10.76283646	35.95550919	20.91891098
HEAD.vtx[1990]	13.0757761	34.84557343	20.08067894
HEAD.vtx[1991]	14.11364651	33.70090103	19.66002464
HEAD.vtx[1992]	15.20575523	32.2412529	18.93788147
HEAD.vtx[1993]	14.08817768	28.76685333	19.21951294
HEAD.vtx[1994]	12.35265923	27.63453293	20.29102135
HEAD.vtx[1995]	9.015039444	27.32708931	20.81433105
HEAD.vtx[1996]	6.149300575	27.26766968	18.848526
HEAD.vtx[1997]	4.536419868	28.35417366	18.708498
HEAD.vtx[1998]	3.118566036	30.17118835	18.66322899
HEAD.vtx[1999]	2.414127827	32.82748413	18.78212547
HEAD.vtx[2000]	5.710832119	37.07369232	18.89332962
HEAD.vtx[2001]	9.128631592	38.37405396	18.77076721
HEAD.vtx[2002]	12.84358788	35.9984169	18.41715813
HEAD.vtx[2003]	13.72278976	35.38022995	17.359869
HEAD.vtx[2004]	15.18796062	32.83672333	18.18168068
HEAD.vtx[2005]	14.50894928	28.17954636	18.20815849
HEAD.vtx[2006]	12.81704426	26.50553322	18.56256104
HEAD.vtx[2007]	8.618975639	26.46813393	18.82631683
HEAD.vtx[2008]	9.370201111	26.05903053	14.56923771
HEAD.vtx[2009]	4.660418034	28.27117729	14.57626343
HEAD.vtx[2010]	2.395158291	30.94275093	15.08244705
HEAD.vtx[2011]	5.881207466	37.11515045	14.61589718
HEAD.vtx[2012]	9.021838188	38.76464462	14.40764427
HEAD.vtx[2013]	13.81747532	36.33164597	13.9192028
HEAD.vtx[2014]	14.78437328	35.41711426	13.79887009
HEAD.vtx[2015]	15.04536057	28.53734207	13.86106873
HEAD.vtx[2016]	9.40623188	30.40850449	12.44237423
HEAD.vtx[2017]	8.306548119	32.57135773	12.51499367
HEAD.vtx[2018]	9.8490448	34.01695633	12.34274578
HEAD.vtx[2019]	11.71323967	33.46856308	12.0940361
HEAD.vtx[2020]	11.74599743	30.99080276	12.11187935
HEAD.vtx[2021]	1.829875588	17.21025085	30.93021774
HEAD.vtx[2022]	3.580449581	18.18749809	30.75165176
HEAD.vtx[2023]	1.332653999	18.16562271	33.31407166
HEAD.vtx[2024]	3.357528687	18.65558434	31.89122963
HEAD.vtx[2025]	3.246481895	19.19859886	32.91908264
HEAD.vtx[2026]	1.712476373	18.51403046	33.81440735
HEAD.vtx[2027]	0.6232770681	21.2600193	31.59741402
HEAD.vtx[2028]	1.766924977	21.06224251	31.25733948
HEAD.vtx[2029]	0.4443928599	21.02309608	32.9536705
HEAD.vtx[2030]	1.997174859	20.96515465	31.80652809
HEAD.vtx[2031]	1.955186725	21.02768517	32.45603943
HEAD.vtx[2032]	0.9399222136	17.96949005	33.32608032
HEAD.vtx[2044]	23.73339844	26.96017075	10.45795059
HEAD.vtx[2045]	23.2011261	27.83969879	12.42221165
HEAD.vtx[2046]	21.54692078	28.6287899	14.77059364
HEAD.vtx[2047]	19.27139664	29.55080605	17.43028831
HEAD.vtx[2048]	18.11279106	29.16648674	18.89241982
HEAD.vtx[2049]	14.67362309	30.54953957	20.68352127
HEAD.vtx[2050]	14.40167809	30.79415703	20.49704552
HEAD.vtx[2051]	14.97739029	30.40233231	19.08827591
HEAD.vtx[2052]	14.98998547	30.30703545	18.2247715
HEAD.vtx[2053]	15.39403534	31.6903019	13.83989143
HEAD.vtx[2095]	23.64152336	37.62254715	13.37169456
HEAD.vtx[2096]	20.3945961	35.39754486	16.52197838
HEAD.vtx[2097]	18.4316349	34.00762177	18.74510765
HEAD.vtx[2098]	14.81317234	32.06309891	20.90961456
HEAD.vtx[2099]	14.61470604	31.99199295	20.52301979
HEAD.vtx[2100]	14.68677521	33.08451843	19.22899055
HEAD.vtx[2101]	14.62355042	34.46379471	17.28184319
HEAD.vtx[2109]	24.5157032	31.87811279	9.629620552
HEAD.vtx[2110]	23.8338356	32.00848389	11.62521076
HEAD.vtx[2111]	22.3889389	32.2442627	13.82975006
HEAD.vtx[2112]	20.01921654	31.97835922	16.45827103
HEAD.vtx[2113]	18.68874168	30.97289276	18.10281563
HEAD.vtx[2114]	15.0340004	31.39162445	20.75346565
HEAD.vtx[2115]	14.6227541	31.44530869	20.35656357
HEAD.vtx[2116]	15.18980694	31.45600128	18.95430946
HEAD.vtx[2117]	15.27351761	31.72937965	18.27118492
HEAD.vtx[2118]	0.8489001393	21.02464104	33.26768875
HEAD.vtx[2132]	1.215487599	10.28173637	29.51808357
HEAD.vtx[2133]	1.027120352	10.90490532	30.16053581
HEAD.vtx[2134]	0.9205782413	11.89439487	30.10823059
HEAD.vtx[2135]	0.7585656047	16.76838303	30.90594673
HEAD.vtx[2136]	0.6276106834	17.92486954	33.3980484
HEAD.vtx[2137]	0.6076354384	19.66716766	34.9016037
HEAD.vtx[2138]	0.5649836063	21.33032227	34.71944809
HEAD.vtx[2139]	0.545302093	22.20870209	34.14710999
HEAD.vtx[2140]	0.5925421715	23.47588539	31.96673393
HEAD.vtx[2141]	0.6850274801	25.72000504	31.22363091
HEAD.vtx[2142]	0.7475675344	29.73800659	30.1598568
HEAD.vtx[2143]	0.878426373	31.93888474	29.81531525
HEAD.vtx[2144]	1.548363566	34.35335541	30.20005417
HEAD.vtx[2145]	2.134545326	40.89425659	31.43927574
HEAD.vtx[2146]	3.985431194	53.33886719	29.18765831
HEAD.vtx[2217]	3.347249508	33.85378265	15.02796745
HEAD.vtx[2218]	3.839139938	34.72223663	18.02645493
HEAD.vtx[2219]	6.089675903	33.98862839	21.62130356
HEAD.vtx[2220]	7.328502178	33.30077744	23.09449005
HEAD.vtx[2221]	7.122551918	34.07930374	23.04712677
HEAD.vtx[2222]	5.988657475	35.87598419	28.49740601
HEAD.vtx[2223]	5.379263401	36.19127274	29.7837944
HEAD.vtx[2224]	3.106894016	35.6772728	30.7850914
HEAD.vtx[2225]	1.484810829	35.74907684	31.01133156
HEAD.vtx[2226]	4.001340866	29.12865257	25.871912
HEAD.vtx[2227]	5.988676071	27.86409378	25.61076355
HEAD.vtx[2228]	9.741693497	26.83723831	24.47385597
HEAD.vtx[2229]	13.2605381	26.56907845	22.27796364
HEAD.vtx[2230]	16.8654995	27.96274567	20.13126755
HEAD.vtx[2231]	17.61471558	30.1534214	19.27674484
HEAD.vtx[2232]	17.84803009	31.70496368	18.87036705
HEAD.vtx[2233]	17.91720772	32.80576324	18.93582916
HEAD.vtx[2234]	17.36347198	33.45933533	19.66360092
HEAD.vtx[2235]	16.50660515	34.43130493	20.99279976
HEAD.vtx[2236]	15.2433815	34.90485382	22.65550423
HEAD.vtx[2237]	12.63082886	35.80852509	25.10401726
HEAD.vtx[2238]	9.156111717	36.21419525	27.34487152
HEAD.vtx[2239]	6.353564739	35.70579529	27.18937111
HEAD.vtx[2240]	2.681765318	31.13776016	27.40938568
HEAD.vtx[2241]	2.124890804	29.05269051	28.96870041
HEAD.vtx[2242]	2.161559105	27.33948517	29.73983955
HEAD.vtx[2243]	2.182246685	24.8625679	30.6586895
HEAD.vtx[2244]	2.215459585	22.80884933	31.36101913
HEAD.vtx[2245]	3.070322037	21.32214737	32.9732132
HEAD.vtx[2246]	3.128257751	20.30644989	33.56129456
HEAD.vtx[2247]	2.906166792	19.60324669	33.66985321
HEAD.vtx[2248]	2.798264265	19.30957603	33.42388916
HEAD.vtx[2249]	1.50614059	21.11314201	33.11130142
HEAD.vtx[2250]	3.228401661	30.77228928	26.04409027
HEAD.vtx[2251]	4.651901245	34.05961609	26.36972618
HEAD.vtx[2252]	3.218769312	29.02104187	27.50276375
HEAD.vtx[2253]	2.287166595	31.59266281	28.50783348
HEAD.vtx[2254]	1.530792952	37.11951828	31.3611908
HEAD.vtx[2255]	4.053122044	36.73894882	31.14548492
HEAD.vtx[2256]	7.055838585	36.80545044	30.32043266
HEAD.vtx[2257]	7.41037035	36.35432053	28.70745468
HEAD.vtx[2258]	7.377699852	36.08067703	27.65258217
HEAD.vtx[2259]	8.110164642	34.81158447	23.10561562
HEAD.vtx[2260]	8.104038239	33.89183807	23.10531807
HEAD.vtx[2261]	6.823301315	34.93835068	21.54525566
HEAD.vtx[2262]	4.801655293	35.85585022	18.02521515
HEAD.vtx[2284]	15.1164465	48.96758652	25.01385689
HEAD.vtx[2285]	11.10063171	37.24488831	29.13965416
HEAD.vtx[2286]	11.10090446	36.52766418	27.50526428
HEAD.vtx[2287]	10.944067	36.05928421	26.45435524
HEAD.vtx[2288]	10.13072586	35.21893311	23.07253265
HEAD.vtx[2289]	10.16573238	34.60014725	23.09515762
HEAD.vtx[2290]	8.730877876	36.09299469	21.15045738
HEAD.vtx[2291]	7.236542702	38.12525558	18.86054993
HEAD.vtx[2305]	19.77820778	46.48633957	20.44375992
HEAD.vtx[2306]	15.79265404	36.88076782	24.99961662
HEAD.vtx[2307]	14.32992744	35.91333008	24.6976738
HEAD.vtx[2308]	14.23271751	35.3701973	24.07839012
HEAD.vtx[2309]	12.45344353	34.98524857	21.88254356
HEAD.vtx[2310]	12.39457417	34.19421005	22.38523865
HEAD.vtx[2311]	11.99658203	35.68483734	20.33471489
HEAD.vtx[2312]	11.0340023	37.51227188	18.58232307
HEAD.vtx[2313]	1.454652548	35.0359993	30.68386269
HEAD.vtx[2314]	2.753571749	35.06274033	30.26747322
HEAD.vtx[2315]	4.351962566	35.54567719	29.43013382
HEAD.vtx[2316]	5.017852783	35.2320137	28.18620491
HEAD.vtx[2317]	5.431112766	35.06464386	26.7783165
HEAD.vtx[2318]	6.32729578	33.00479889	22.82723808
HEAD.vtx[2319]	6.451973915	32.19527435	22.74204636
HEAD.vtx[2320]	5.590397835	33.16620255	21.5328083
HEAD.vtx[2321]	2.971864939	33.64517593	18.82090187
HEAD.vtx[2322]	1.253580451	33.45828629	30.11779404
HEAD.vtx[2323]	2.145506382	33.49341202	29.55201149
HEAD.vtx[2324]	2.970083714	33.75600815	28.57960701
HEAD.vtx[2325]	3.441741228	33.3640976	27.33220291
HEAD.vtx[2326]	3.906416178	32.56523514	26.10527802
HEAD.vtx[2327]	5.370122433	31.15181541	21.61287689
HEAD.vtx[2328]	5.594126225	30.37425804	21.02269745
HEAD.vtx[2329]	4.824073792	31.42743301	21.10599518
HEAD.vtx[2330]	2.476661921	31.53049088	18.70825386
HEAD.vtx[2331]	5.205882072	33.61984634	24.92113495
HEAD.vtx[2332]	4.417913914	32.16347504	24.52020454
HEAD.vtx[2333]	4.219838142	30.59721947	24.04040909
HEAD.vtx[2334]	4.707445145	29.1585598	23.6935482
HEAD.vtx[2335]	6.451403618	28.15199661	23.56993103
HEAD.vtx[2336]	9.503167152	27.54937172	23.3295536
HEAD.vtx[2337]	12.65775967	27.27457047	22.24619675
HEAD.vtx[2338]	15.54978943	28.64204979	20.5450325
HEAD.vtx[2339]	16.42048454	30.29884338	19.84425163
HEAD.vtx[2340]	16.68990135	31.37871933	19.566679
HEAD.vtx[2341]	16.91980553	32.15701675	19.42912102
HEAD.vtx[2342]	16.47275352	32.78036499	19.81883049
HEAD.vtx[2343]	15.66168213	33.53880692	20.98431778
HEAD.vtx[2344]	14.41660595	34.63696289	22.27441788
HEAD.vtx[2345]	13.37099075	35.39123917	23.23384094
HEAD.vtx[2346]	12.08922863	35.6892128	24.03335381
HEAD.vtx[2347]	10.63260841	36.05862808	24.94523048
HEAD.vtx[2348]	9.377634048	36.13452148	25.64700317
HEAD.vtx[2349]	7.854649544	36.04240417	25.92543602
HEAD.vtx[2350]	6.553538799	35.55503845	25.72060776
HEAD.vtx[2351]	5.845752716	34.73884583	25.27738571
HEAD.vtx[2355]	4.90658474	10.19886398	27.74350166
HEAD.vtx[2356]	4.988186359	10.37402821	28.25642967
HEAD.vtx[2357]	5.080127716	11.2996521	28.31996727
HEAD.vtx[2358]	5.27639389	13.35932159	28.57014275
HEAD.vtx[2359]	5.583768368	16.18405533	28.19384766
HEAD.vtx[2360]	6.063474178	17.3337326	28.66554642
HEAD.vtx[2361]	6.989289284	18.28125954	29.39791489
HEAD.vtx[2362]	10.14026928	19.41131592	29.45860291
HEAD.vtx[2363]	15.07835484	20.95925331	27.02766228
HEAD.vtx[2364]	18.52914429	21.66361427	22.85942459
HEAD.vtx[2365]	20.31444168	25.10091972	17.91421127
HEAD.vtx[2366]	20.30153847	29.10764503	16.18743706
HEAD.vtx[2367]	21.0490284	32.11940765	15.24796104
HEAD.vtx[2368]	21.81341553	34.64999008	14.95477867
HEAD.vtx[2369]	22.05363464	36.65921783	14.9975853
HEAD.vtx[2370]	21.53141594	39.59822083	16.61697578
HEAD.vtx[2371]	19.49542618	40.33551407	20.56850433
HEAD.vtx[2372]	17.64666748	40.70281219	23.45831871
HEAD.vtx[2373]	15.43551159	41.38886261	25.84165955
HEAD.vtx[2374]	13.14582443	42.14099121	27.78055382
HEAD.vtx[2375]	10.57779217	41.81765747	29.14636421
HEAD.vtx[2376]	7.000614643	46.45783615	30.19232941
HEAD.vtx[2377]	3.67403698	49.37261963	30.73831367
HEAD.vtx[2379]	1.071876764	21.26846504	31.25024796
HEAD.vtx[2380]	2.58800602	17.52228928	30.73375702
HEAD.vtx[2381]	2.566602468	17.24531174	30.67755699
HEAD.vtx[2382]	2.269650698	14.1511488	29.90744209
HEAD.vtx[2383]	1.898727179	11.85839081	29.74751091
HEAD.vtx[2384]	2.014070511	10.91150761	29.80372238
HEAD.vtx[2385]	2.162723541	10.30790329	29.17502975
HEAD.vtx[2416]	4.790626526	2.527191877	28.36098671
HEAD.vtx[2417]	3.845185995	4.521531105	29.0475235
HEAD.vtx[2418]	3.170437813	6.156906605	29.06291199
HEAD.vtx[2419]	2.697974682	7.773589134	29.05843544
HEAD.vtx[2420]	2.529356003	9.12471199	29.26445198
HEAD.vtx[2421]	2.128723621	9.848415375	29.671175
HEAD.vtx[2422]	2.046949387	10.33515549	29.16265869
HEAD.vtx[2435]	9.409888268	4.014365673	24.28257561
HEAD.vtx[2436]	7.258929729	5.087859154	25.81341553
HEAD.vtx[2437]	6.267305851	6.391314507	26.89249229
HEAD.vtx[2438]	5.85721302	8.04083252	27.72398186
HEAD.vtx[2439]	5.420269489	9.210208893	28.17573738
HEAD.vtx[2440]	5.153394699	9.788991928	28.41139603
HEAD.vtx[2441]	4.893656731	10.23352909	27.68651199
HEAD.vtx[2444]	6.575037479	32.34438324	21.95316887
HEAD.vtx[2445]	7.312443256	33.23219681	22.37619591
HEAD.vtx[2446]	8.260744095	33.86267471	22.39341164
HEAD.vtx[2447]	9.190043449	34.3370285	22.11599541
HEAD.vtx[2448]	10.08585644	34.58142853	21.93714714
HEAD.vtx[2449]	11.19571304	34.52643585	21.70343399
HEAD.vtx[2450]	12.16337872	34.14641571	21.42944145
HEAD.vtx[2451]	13.40851212	33.31665802	21.41662598
HEAD.vtx[2452]	14.11973667	32.82358551	20.63702393
HEAD.vtx[2453]	14.57087612	32.03232956	20.43137169
HEAD.vtx[2454]	14.60328865	31.90241241	19.84764481
HEAD.vtx[2455]	14.67738152	31.45509148	19.88359642
HEAD.vtx[2456]	14.48127842	30.6143055	20.00934219
HEAD.vtx[2457]	13.57207108	29.29593468	20.63114357
HEAD.vtx[2458]	11.95589733	28.09401131	20.74560738
HEAD.vtx[2459]	9.193582535	27.92652512	21.55066681
HEAD.vtx[2460]	7.215820789	28.38230515	20.90620232
HEAD.vtx[2461]	5.656912327	29.01812363	20.05134583
HEAD.vtx[2462]	5.539009094	30.05666924	20.50892448
HEAD.vtx[2463]	5.70660162	30.32736015	20.81537819
HEAD.vtx[2464]	5.853739738	31.1956749	21.34959602
HEAD.vtx[2465]	7.320147514	33.34300613	23.040802
HEAD.vtx[2466]	6.368880272	32.52299881	22.78884888
HEAD.vtx[2467]	5.739584923	31.27139854	21.72716522
HEAD.vtx[2468]	5.567557812	30.47017288	20.98867798
HEAD.vtx[2469]	5.0932827	30.20637131	21.23518753
HEAD.vtx[2470]	5.689894676	29.66650772	21.21627808
HEAD.vtx[2471]	6.9702034	29.13831902	22.31543732
HEAD.vtx[2472]	8.928719521	28.76167679	23.12945938
HEAD.vtx[2473]	12.08067989	28.90588379	22.72577858
HEAD.vtx[2474]	13.49234676	29.46059036	21.31306839
HEAD.vtx[2475]	14.54883862	30.76167679	20.50338364
HEAD.vtx[2476]	14.7045536	31.41750717	20.48999786
HEAD.vtx[2477]	14.65069962	31.76783943	20.76148605
HEAD.vtx[2478]	14.61298752	31.89206314	20.90617943
HEAD.vtx[2479]	14.19519711	32.42355728	21.22771835
HEAD.vtx[2480]	13.65300369	33.4345932	21.7774086
HEAD.vtx[2481]	12.45480347	34.33593369	22.26667595
HEAD.vtx[2482]	11.4109869	34.5565567	22.67003822
HEAD.vtx[2483]	10.20983124	34.6534729	23.11024284
HEAD.vtx[2484]	9.240241051	34.42798615	23.00033188
HEAD.vtx[2485]	8.101206779	34.14230347	23.03528023
HEAD.vtx[2486]	5.719833374	29.91866112	20.69176865
HEAD.vtx[2487]	5.746209145	29.93482208	20.67452621
HEAD.vtx[2488]	14.15776062	32.42420197	21.38769341
HEAD.vtx[2489]	11.36126328	34.48461151	22.67270088
HEAD.vtx[2490]	6.458131313	32.16712952	22.7354393
HEAD.vtx[2491]	5.650911331	30.42138672	20.9746685
HEAD.vtx[2492]	8.101071358	33.8447113	23.10359764
HEAD.vtx[2493]	12.39475632	34.1588974	22.38264656
HEAD.vtx[2494]	13.57131577	33.17046738	21.96502113
HEAD.vtx[2495]	5.707503796	30.14550972	20.81859779
HEAD.vtx[2496]	5.760942936	31.20488739	21.70745659
HEAD.vtx[2497]	7.329108238	33.26527023	23.09224701
HEAD.vtx[2498]	9.222081184	34.31895065	23.0182724
HEAD.vtx[2499]	10.16394138	34.5581398	23.07394028
HEAD.vtx[2500]	14.39849186	32.18353271	21.08312988
HEAD.vtx[2501]	14.60819912	31.94812012	20.92466736
HEAD.vtx[2502]	7.222490311	33.99879456	24.25852776
HEAD.vtx[2503]	7.323335648	33.26689148	23.11491394
HEAD.vtx[2504]	8.101333618	33.84412003	23.1266098
HEAD.vtx[2505]	8.064195633	34.58757401	24.4033165
HEAD.vtx[2506]	11.3644104	34.477314	22.69680977
HEAD.vtx[2507]	11.27722073	35.14096832	23.75956917
HEAD.vtx[2508]	12.39875984	34.15764618	22.40712738
HEAD.vtx[2509]	12.49533367	34.69206619	23.21121216
HEAD.vtx[2510]	5.398162842	31.0853653	22.55160141
HEAD.vtx[2511]	5.648296356	30.41456223	20.99370003
HEAD.vtx[2512]	5.752584934	31.19684792	21.74296188
HEAD.vtx[2513]	5.664265156	31.84715652	23.36608696
HEAD.vtx[2514]	5.464380264	30.45462418	21.42963219
HEAD.vtx[2515]	5.70942688	30.14229965	20.82954216
HEAD.vtx[2516]	9.226156235	34.31841278	23.04031944
HEAD.vtx[2517]	9.020003319	34.98570633	24.29384613
HEAD.vtx[2518]	13.57287407	33.16428757	21.99025726
HEAD.vtx[2519]	13.64646721	34.00337219	22.52955437
HEAD.vtx[2520]	14.16263199	32.41929245	21.40712738
HEAD.vtx[2521]	14.30023289	33.10542679	21.85956192
HEAD.vtx[2522]	5.718779087	29.94108963	20.71730995
HEAD.vtx[2523]	5.737613678	29.92137337	20.68344116
HEAD.vtx[2524]	6.449449539	32.15664291	22.78440094
HEAD.vtx[2525]	6.275486469	32.93523788	23.86879158
HEAD.vtx[2526]	10.16975975	34.55540848	23.09111214
HEAD.vtx[2527]	9.965309143	35.14076996	24.12317657
HEAD.vtx[2528]	14.39432716	32.17783737	21.09877396
HEAD.vtx[2529]	14.51943111	32.27971649	21.27363586
HEAD.vtx[2530]	14.59755898	31.89422226	20.9889183
HEAD.vtx[2531]	2.435723218e-006	10.92321014	30.27851105
HEAD.vtx[2532]	-0.0002232617699	10.21222496	29.70057106
HEAD.vtx[2533]	4.154630005e-006	14.4245882	29.84425163
HEAD.vtx[2534]	-4.459430784e-006	11.64279079	29.94056511
HEAD.vtx[2535]	0.01102029812	25.81607056	31.41520882
HEAD.vtx[2536]	0.02899793163	23.54942131	32.16938019
HEAD.vtx[2537]	-0.00250265724	28.09399605	30.89501953
HEAD.vtx[2538]	-0.01129088923	30.00945663	30.37902832
HEAD.vtx[2539]	-0.00800240133	34.4834671	30.79366302
HEAD.vtx[2540]	-0.01646297611	33.5603447	30.29671097
HEAD.vtx[2541]	-0.002427366329	35.25413895	31.07740593
HEAD.vtx[2542]	3.54086751e-006	36.12870789	31.32376862
HEAD.vtx[2543]	-0.01618279144	32.11536026	30.09575272
HEAD.vtx[2546]	3.721099347e-006	49.9591217	30.9405899
HEAD.vtx[2547]	3.88695571e-006	41.11394882	31.69203568
HEAD.vtx[2551]	3.781111445e-006	53.3589592	29.44058609
HEAD.vtx[2568]	-0.0007094388711	16.78635406	31.00510597
HEAD.vtx[2585]	0.005464534275	22.21381569	34.17684174
HEAD.vtx[2586]	4.516541958e-005	21.38019753	34.80687714
HEAD.vtx[2587]	4.401849583e-005	19.63630295	35.00937271
HEAD.vtx[2588]	-0.002555056009	17.93793488	33.42879486
HEAD.vtx[2589]	3.994457074e-006	37.39677429	31.614151
HEAD.vtx[2590]	4.334403515	37.0427475	31.29729271
HEAD.vtx[2591]	17.35845375	36.29096985	22.60787773
HEAD.vtx[2592]	4.360884666	38.01213837	31.42072296
HEAD.vtx[2593]	17.66950226	37.32647324	22.53068161
HEAD.vtx[2594]	11.15533161	39.71465683	29.4559288
HEAD.vtx[2595]	10.81737804	37.51023102	29.61192513
HEAD.vtx[2596]	7.094605923	37.28579712	30.72173119
HEAD.vtx[2597]	7.241364479	39.1521492	30.87962341
HEAD.vtx[2598]	14.08875942	39.37233734	27.53606987
HEAD.vtx[2599]	13.6893816	37.28316498	27.5811348
HEAD.vtx[2600]	15.81044769	36.93308258	25.4517231
HEAD.vtx[2601]	16.26959038	38.62005615	25.16521072
HEAD.vtx[2602]	4.046292305	36.88936996	30.99024963
HEAD.vtx[2603]	6.9834342	36.99456024	30.30145264
HEAD.vtx[2604]	4.010637283	38.14154053	30.7986412
HEAD.vtx[2605]	7.286405563	39.46372223	30.07574844
HEAD.vtx[2606]	17.28035164	36.00278854	22.14174843
HEAD.vtx[2607]	17.57842064	37.40295029	21.75016022
HEAD.vtx[2608]	11.13843727	39.96212006	28.63064766
HEAD.vtx[2609]	14.06920242	39.69050217	26.71511841
HEAD.vtx[2610]	10.75617695	37.12601089	29.04253578
HEAD.vtx[2611]	13.62994862	36.95090103	27.02227783
HEAD.vtx[2612]	16.29416656	38.88383865	24.29229927
HEAD.vtx[2613]	15.82095623	36.64056015	24.88672256
HEAD.vtx[2689]	-1.015719414	9.836503983	29.90896416
HEAD.vtx[2690]	-0.7136493921	10.31975174	29.44042015
HEAD.vtx[2691]	-1.215214252	10.27408791	29.51903534
HEAD.vtx[2692]	-1.026988983	10.90242195	30.16217995
HEAD.vtx[2693]	-2.128267288	9.848104477	29.6708889
HEAD.vtx[2694]	-2.047069073	10.33446312	29.16268349
HEAD.vtx[2695]	-7.647143364	10.37737846	26.46388054
HEAD.vtx[2699]	-1.155664444	9.032688141	29.51925278
HEAD.vtx[2700]	-1.458217382	7.94154644	29.52914619
HEAD.vtx[2701]	-0.9204460382	11.89544773	30.10891151
HEAD.vtx[2702]	-1.06045866	14.71823311	30.4818306
HEAD.vtx[2703]	-2.529175282	9.124862671	29.26525116
HEAD.vtx[2704]	-2.697975636	7.773650169	29.05922508
HEAD.vtx[2705]	-7.870434284	10.86037827	26.9174614
HEAD.vtx[2706]	-8.130413055	10.75748158	26.22968674
HEAD.vtx[2707]	-9.21213913	10.73979855	26.24592781
HEAD.vtx[2708]	-8.253084183	11.50337696	26.66723442
HEAD.vtx[2709]	-8.170959473	10.09006691	26.16470146
HEAD.vtx[2710]	-6.564163208	9.512597084	27.32131195
HEAD.vtx[2711]	-7.139686584	8.436569214	27.13660431
HEAD.vtx[2712]	-9.030979156	9.658011436	26.14523125
HEAD.vtx[2714]	-6.263093948	9.840764046	27.46495056
HEAD.vtx[2715]	-7.749005318	10.41106606	26.56111336
HEAD.vtx[2717]	-6.106801987	10.13245583	27.38032341
HEAD.vtx[2718]	-6.164877892	10.20289993	26.96170044
HEAD.vtx[2719]	-6.617197514	12.41285133	27.94181633
HEAD.vtx[2720]	-6.223642826	10.9474411	27.65667343
HEAD.vtx[2721]	-3.973852873	13.86200809	29.19607544
HEAD.vtx[2722]	-3.886877298	11.51082706	28.97481537
HEAD.vtx[2723]	-5.089500427	11.3143816	28.3174839
HEAD.vtx[2724]	-5.276362419	13.35934639	28.5710125
HEAD.vtx[2725]	-3.725224495	10.73689556	28.97850609
HEAD.vtx[2726]	-3.631906748	10.24277306	28.54971313
HEAD.vtx[2727]	-4.909075737	10.20769215	27.73394775
HEAD.vtx[2728]	-4.980772495	10.38367653	28.25727844
HEAD.vtx[2729]	-3.394212723	10.28916836	28.58865547
HEAD.vtx[2730]	-3.595047235	9.830507278	29.13055229
HEAD.vtx[2731]	-5.153137207	9.788798332	28.41222572
HEAD.vtx[2732]	-4.893424034	10.2330761	27.6871891
HEAD.vtx[2733]	-5.857221603	8.040833473	27.72399712
HEAD.vtx[2734]	-5.420602798	9.210338593	28.17595863
HEAD.vtx[2735]	-3.959058285	9.149970055	28.93863106
HEAD.vtx[2736]	-4.338502884	7.827647209	28.38186264
HEAD.vtx[2737]	-0.5189271569	23.47560883	31.96706772
HEAD.vtx[2738]	-0.6517110467	25.72000313	31.22492981
HEAD.vtx[2739]	-2.443851948	24.46592522	30.59973526
HEAD.vtx[2740]	-2.736492157	22.25489235	31.12658501
HEAD.vtx[2741]	-3.253687143	20.54285049	30.66108322
HEAD.vtx[2742]	-6.722349644	21.21804619	29.95205879
HEAD.vtx[2743]	-13.43099308	16.24347878	27.41142082
HEAD.vtx[2744]	-9.866412163	15.43381214	27.98509407
HEAD.vtx[2745]	-12.00357628	13.31433392	26.13435745
HEAD.vtx[2746]	-15.32743931	13.85378265	24.13159752
HEAD.vtx[2747]	-13.18587589	10.6896162	23.85019302
HEAD.vtx[2748]	-16.47317505	10.69663715	21.22628975
HEAD.vtx[2750]	-13.23811436	7.876194477	22.53680801
HEAD.vtx[2751]	-11.24427509	5.177880764	22.97097206
HEAD.vtx[2757]	-6.989394188	18.28107834	29.39691162
HEAD.vtx[2758]	-10.12879181	19.40402603	29.44536781
HEAD.vtx[2759]	-2.196074486	4.500682354	30.25803947
HEAD.vtx[2760]	-2.675100327	2.671563625	30.24507332
HEAD.vtx[2761]	-4.790626049	2.52718997	28.36136436
HEAD.vtx[2762]	-3.845194578	4.521532536	29.04805565
HEAD.vtx[2763]	-6.871784687	3.021755934	26.24140358
HEAD.vtx[2764]	-9.409925461	4.014382839	24.28160477
HEAD.vtx[2765]	-7.258921146	5.087864876	25.81341553
HEAD.vtx[2766]	-5.552008629	4.555705547	27.00008392
HEAD.vtx[2767]	-10.97675705	8.433103561	24.51997566
HEAD.vtx[2768]	-8.772859573	5.891681194	25.05668831
HEAD.vtx[2769]	-9.989505768	13.12695694	26.71801567
HEAD.vtx[2770]	-11.19130898	10.85294056	25.28751564
HEAD.vtx[2771]	-7.770700932	14.9379015	27.84039307
HEAD.vtx[2772]	-4.128846645	19.14926147	30.42232704
HEAD.vtx[2773]	-6.071490288	17.33490562	28.90820694
HEAD.vtx[2774]	-0.9822007418	27.81219864	30.5460453
HEAD.vtx[2775]	-0.7680110335	29.73560333	30.14636612
HEAD.vtx[2776]	-1.277059913	33.44462204	30.09591293
HEAD.vtx[2777]	-1.551614761	34.3467598	30.17786407
HEAD.vtx[2778]	-1.460042119	35.02984619	30.67089462
HEAD.vtx[2779]	-1.487178564	35.74539566	31.00800133
HEAD.vtx[2780]	-1.789671898	25.41083527	30.75581169
HEAD.vtx[2781]	-1.801270843	27.55001831	29.92712021
HEAD.vtx[2782]	-1.230208874	25.66072273	31.03679848
HEAD.vtx[2783]	-1.729424119	23.29439735	31.61898232
HEAD.vtx[2784]	-1.055722833	23.45416069	31.78281593
HEAD.vtx[2785]	-6.98298645	29.17518425	21.99468803
HEAD.vtx[2786]	-5.68270874	30.10166359	21.38530922
HEAD.vtx[2787]	-5.332967758	29.72579384	21.76797676
HEAD.vtx[2788]	-6.877064705	29.02721596	22.32035637
HEAD.vtx[2789]	-5.628147125	30.81396866	21.67258263
HEAD.vtx[2790]	-5.273461342	30.41055107	21.68444443
HEAD.vtx[2791]	-5.675529957	31.09405708	21.79403877
HEAD.vtx[2792]	-5.833380222	31.82978249	22.1485157
HEAD.vtx[2793]	-5.743299484	32.00639725	22.37408447
HEAD.vtx[2794]	-5.611187935	31.24057388	21.92639923
HEAD.vtx[2795]	-6.222275734	32.78186035	22.63100433
HEAD.vtx[2796]	-6.968666077	33.5809021	23.04823494
HEAD.vtx[2797]	-7.050425529	33.91481018	23.05244637
HEAD.vtx[2798]	-6.335814476	33.17865753	22.85051537
HEAD.vtx[2799]	-9.728621483	34.5718956	23.39498138
HEAD.vtx[2800]	-10.80736446	34.56546402	22.97492218
HEAD.vtx[2801]	-10.86658478	35.0181427	22.51464462
HEAD.vtx[2802]	-9.778377533	34.84200668	22.78650093
HEAD.vtx[2803]	-11.97994232	34.70715714	22.11375618
HEAD.vtx[2804]	-11.91273403	34.31153488	22.54230118
HEAD.vtx[2805]	-13.29736042	33.51477432	21.56538963
HEAD.vtx[2806]	-13.29342747	34.13027191	21.41267776
HEAD.vtx[2807]	-13.99720764	32.72949982	20.91107368
HEAD.vtx[2808]	-14.07070065	33.47359467	20.76806641
HEAD.vtx[2809]	-14.29683208	32.20857239	20.21107864
HEAD.vtx[2810]	-14.39600945	31.93703842	20.02530861
HEAD.vtx[2811]	-14.51135254	32.00413132	20.46651459
HEAD.vtx[2812]	-14.43481636	32.43073273	20.53982925
HEAD.vtx[2813]	-14.07290268	30.77937317	20.35371971
HEAD.vtx[2814]	-13.30468464	29.8392601	21.13562965
HEAD.vtx[2815]	-13.53081131	29.8346405	21.32573891
HEAD.vtx[2816]	-14.27910233	30.88576126	20.87634277
HEAD.vtx[2817]	-11.52489662	29.14843941	22.15146065
HEAD.vtx[2818]	-11.55110741	28.94763947	22.41381645
HEAD.vtx[2819]	-8.956938744	28.61208344	22.35198784
HEAD.vtx[2820]	-8.97755909	28.42506981	22.67729759
HEAD.vtx[2821]	-0.9077307582	31.92772675	29.79929352
HEAD.vtx[2845]	-15.08214569	20.96367264	27.04447365
HEAD.vtx[2846]	-10.11276054	23.24820137	28.37580681
HEAD.vtx[2848]	-18.84177399	14.69410229	21.35485649
HEAD.vtx[2850]	-17.85453987	17.48488045	24.48880005
HEAD.vtx[2851]	-4.951806545	26.40338898	28.53931618
HEAD.vtx[2854]	-11.00812149	37.26142502	28.43273926
HEAD.vtx[2855]	-13.41564083	37.03138733	26.3578949
HEAD.vtx[2856]	-15.48223877	41.68486786	25.32957077
HEAD.vtx[2857]	-12.97281742	41.80205154	27.74339867
HEAD.vtx[2858]	-15.62908554	36.94919968	24.44953728
HEAD.vtx[2859]	-17.13585091	36.81480026	22.00318336
HEAD.vtx[2860]	-19.51001358	40.43286133	20.5537014
HEAD.vtx[2861]	-17.86720085	41.01625824	23.21943092
HEAD.vtx[2862]	-19.21526337	36.87837601	18.54320908
HEAD.vtx[2863]	-21.60259628	39.73205566	16.60152626
HEAD.vtx[2864]	-20.35130119	35.48296738	16.51095009
HEAD.vtx[2865]	-20.41104698	33.99199677	16.25798035
HEAD.vtx[2866]	-21.86441422	34.74296188	14.92387676
HEAD.vtx[2867]	-22.13876152	36.77578735	14.96208763
HEAD.vtx[2868]	-19.13002968	29.60391235	17.42698288
HEAD.vtx[2869]	-18.9156208	26.25726891	18.82785988
HEAD.vtx[2870]	-20.36354828	25.10219193	17.90960312
HEAD.vtx[2871]	-20.24964333	29.16013145	16.17585182
HEAD.vtx[2872]	-16.10226631	24.05508614	22.6033783
HEAD.vtx[2873]	-18.54935265	21.65101051	22.87532616
HEAD.vtx[2874]	-2.134562731	40.89487839	31.44071198
HEAD.vtx[2875]	-3.674030542	49.45738602	30.73884964
HEAD.vtx[2907]	-24.46801758	35.49904633	11.26171875
HEAD.vtx[2911]	-20.84276581	17.22483444	18.30158043
HEAD.vtx[2913]	-20.28067017	19.26516151	20.959692
HEAD.vtx[2914]	-3.985422134	53.338871	29.18908119
HEAD.vtx[2915]	-8.299861908	52.23257446	28.2851696
HEAD.vtx[2916]	-15.11644459	48.96390915	25.01311111
HEAD.vtx[2917]	-17.6406002	47.56326294	22.65037346
HEAD.vtx[2918]	-19.78215027	46.54800797	20.44415283
HEAD.vtx[2919]	-21.44189453	44.75547409	18.24584198
HEAD.vtx[2920]	-22.8224144	41.16518021	14.9278574
HEAD.vtx[2921]	-23.69609833	37.67239761	13.34505558
HEAD.vtx[2922]	-23.43022346	35.33715057	13.39049625
HEAD.vtx[2926]	-23.74427605	26.95433998	10.44866562
HEAD.vtx[2927]	-23.24960709	27.84066391	12.39604759
HEAD.vtx[2928]	-22.72221184	21.95697784	14.6544857
HEAD.vtx[2929]	-21.60914993	28.66173744	14.73588181
HEAD.vtx[2930]	-21.65989494	23.89832306	16.81220627
HEAD.vtx[3047]	-1.690630913	6.157272339	29.81384659
HEAD.vtx[3048]	-3.170439243	6.156919003	29.06347656
HEAD.vtx[3049]	-6.26729393	6.391318321	26.89356232
HEAD.vtx[3050]	-4.731185913	6.022697449	27.83135033
HEAD.vtx[3051]	-7.637874126	7.023998737	26.2341423
HEAD.vtx[3052]	-9.954818726	9.074789047	25.56177521
HEAD.vtx[3053]	-10.06834602	10.93410683	26.04507828
HEAD.vtx[3054]	-8.927843094	12.47483921	26.86246872
HEAD.vtx[3055]	-6.990661621	13.95205116	28.03706741
HEAD.vtx[3056]	-3.929630995	18.14925385	30.50511169
HEAD.vtx[3057]	-5.583754063	16.18405533	28.78768158
HEAD.vtx[3058]	-2.269661903	14.15101624	29.90801048
HEAD.vtx[3059]	-2.567005157	17.24656105	30.6788578
HEAD.vtx[3060]	-0.7598598599	16.77060699	30.90717888
HEAD.vtx[3063]	-2.161833763	10.30833817	29.17564774
HEAD.vtx[3142]	-0.5292285085	22.20918846	34.14830017
HEAD.vtx[3143]	-0.5648701191	21.33042717	34.72063828
HEAD.vtx[3144]	-0.6075259447	19.66725159	34.90299988
HEAD.vtx[3145]	-0.6326056123	17.9289875	33.39901352
HEAD.vtx[3146]	-3.525248051	20.67705154	31.53260803
HEAD.vtx[3147]	-4.140482426	19.33133316	31.64784431
HEAD.vtx[3148]	-3.766490936	18.73691368	31.70516014
HEAD.vtx[3149]	-3.699455738	20.81188011	32.17672348
HEAD.vtx[3150]	-4.130082607	19.68577194	32.5956955
HEAD.vtx[3151]	-3.659259796	19.36168098	32.97817993
HEAD.vtx[3152]	-3.08831358	21.32087517	32.97471619
HEAD.vtx[3153]	-3.128180265	20.30704117	33.56222534
HEAD.vtx[3154]	-2.905870199	19.60464668	33.67099762
HEAD.vtx[3155]	-2.171717644	24.86348534	30.65830612
HEAD.vtx[3156]	-2.198187828	22.80873299	31.36186981
HEAD.vtx[3157]	-2.160924911	27.34646034	29.7051487
HEAD.vtx[3158]	-5.622982025	27.23804665	27.05074501
HEAD.vtx[3159]	-3.169412613	29.02727699	27.41634941
HEAD.vtx[3160]	-2.115671396	29.05366898	28.91010666
HEAD.vtx[3161]	-2.678904533	31.09708595	27.34961128
HEAD.vtx[3162]	-2.281033993	31.57835388	28.42577934
HEAD.vtx[3163]	-3.627121925	34.79429626	28.93490791
HEAD.vtx[3164]	-2.593083858	34.40819931	29.76464844
HEAD.vtx[3165]	-2.153381824	33.47378922	29.48163605
HEAD.vtx[3166]	-2.931661129	33.73161697	28.47214508
HEAD.vtx[3167]	-3.109455585	35.66843796	30.76632881
HEAD.vtx[3168]	-2.754647732	35.05033112	30.23911095
HEAD.vtx[3169]	-4.315161705	35.51442337	29.35515594
HEAD.vtx[3170]	-5.350952625	36.19103241	29.69809723
HEAD.vtx[3171]	-7.000610828	46.45904541	30.19234276
HEAD.vtx[3172]	-4.744567394	40.47529602	30.94861221
HEAD.vtx[3173]	-9.231708527	37.49087143	29.3548851
HEAD.vtx[3174]	-10.57218456	41.8110733	29.07883263
HEAD.vtx[3175]	-12.21182728	50.64941406	26.49397469
HEAD.vtx[3208]	-12.15818214	35.27433777	21.63010597
HEAD.vtx[3209]	-13.39486027	34.38084793	21.01387405
HEAD.vtx[3210]	-14.02815056	34.67251205	21.76881409
HEAD.vtx[3211]	-13.08724022	35.38619232	22.63319969
HEAD.vtx[3212]	-10.00811291	35.38663483	22.38985443
HEAD.vtx[3213]	-11.00911236	35.45005035	22.03570747
HEAD.vtx[3214]	-11.91809654	35.58649826	23.40489578
HEAD.vtx[3215]	-10.31145382	35.75183105	24.33431053
HEAD.vtx[3216]	-5.917498589	35.89463043	28.35534286
HEAD.vtx[3217]	-4.932037354	35.24429703	28.07385063
HEAD.vtx[3218]	-5.301252365	35.04814911	26.61418915
HEAD.vtx[3219]	-6.225023746	35.71484756	26.99668694
HEAD.vtx[3220]	-4.116693497	34.58431244	27.64748383
HEAD.vtx[3221]	-3.368884563	33.33335114	27.25110626
HEAD.vtx[3222]	-3.843762398	32.5471611	26.03392982
HEAD.vtx[3223]	-4.543094158	34.02945328	26.2491188
HEAD.vtx[3224]	-6.820092201	28.54636955	22.39087486
HEAD.vtx[3225]	-4.894211292	29.34115791	21.91393661
HEAD.vtx[3226]	-4.67889595	29.05875397	23.64400291
HEAD.vtx[3227]	-6.242530346	27.96063423	23.43665886
HEAD.vtx[3228]	-8.983475685	27.91566086	22.75102234
HEAD.vtx[3229]	-9.255690575	27.23239517	23.16604805
HEAD.vtx[3230]	-11.70280552	28.25824738	22.24375725
HEAD.vtx[3231]	-12.37956142	27.17389297	22.16049576
HEAD.vtx[3232]	-13.76065636	29.33043098	21.50718498
HEAD.vtx[3233]	-15.27753639	28.68368912	20.52619743
HEAD.vtx[3234]	-14.54578304	30.60780907	21.09277344
HEAD.vtx[3235]	-16.14948273	30.33556366	19.82089424
HEAD.vtx[3236]	-14.695364	32.62207031	20.41660309
HEAD.vtx[3237]	-14.65293694	31.9538269	20.44567108
HEAD.vtx[3238]	-16.65835953	32.19013214	19.38587189
HEAD.vtx[3239]	-16.1988945	32.81102371	19.72750282
HEAD.vtx[3240]	-14.15621567	33.55489731	20.4262867
HEAD.vtx[3241]	-15.38090706	33.56663513	20.70968628
HEAD.vtx[3242]	-9.788850784	25.6360302	25.71474457
HEAD.vtx[3243]	-14.19272709	25.61857605	22.32516861
HEAD.vtx[3244]	-17.40783119	27.15969658	19.87691116
HEAD.vtx[3245]	-17.95499229	29.211483	18.88259125
HEAD.vtx[3246]	-18.37709808	34.32894135	18.66363716
HEAD.vtx[3247]	-18.96675682	33.10182953	17.72699928
HEAD.vtx[3248]	-15.83970165	35.59910583	22.34109306
HEAD.vtx[3249]	-17.31620598	35.09661102	20.29937744
HEAD.vtx[3250]	-14.23283291	35.61748886	23.91316223
HEAD.vtx[3251]	-10.94570923	36.47427368	26.95254135
HEAD.vtx[3252]	-12.34240913	36.05686188	25.54902267
HEAD.vtx[3253]	-6.974618912	28.20016098	20.80039406
HEAD.vtx[3254]	-5.667801857	28.91240692	20.03007317
HEAD.vtx[3255]	-5.654210091	31.01112175	21.72836876
HEAD.vtx[3256]	-5.765313148	31.80169296	22.05444527
HEAD.vtx[3257]	-6.279146194	32.72406769	22.46489143
HEAD.vtx[3258]	-7.013474464	33.46936417	22.52458763
HEAD.vtx[3259]	-9.792458534	34.56114578	22.18027115
HEAD.vtx[3260]	-10.83107185	34.46554565	22.00971031
HEAD.vtx[3261]	-11.80720139	34.144207	21.80252075
HEAD.vtx[3262]	-12.91385841	33.55178833	20.97953033
HEAD.vtx[3263]	-13.86483574	32.72722244	20.61777306
HEAD.vtx[3264]	-14.24003124	32.23118973	19.92739296
HEAD.vtx[3265]	-14.36533546	31.98279762	19.48604012
HEAD.vtx[3266]	-14.06473732	30.65496254	19.81713486
HEAD.vtx[3267]	-13.45691681	29.58111572	20.77772713
HEAD.vtx[3268]	-11.72950077	27.95810699	21.0582962
HEAD.vtx[3269]	-8.975359917	27.53281593	21.32686424
HEAD.vtx[3270]	-5.439658165	30.54565811	21.23282051
HEAD.vtx[3271]	-5.245725155	28.88108444	19.58630562
HEAD.vtx[3272]	-6.6517663	27.75283813	20.14639473
HEAD.vtx[3273]	-6.015011787	27.27894974	18.83426857
HEAD.vtx[3274]	-4.522401333	28.3625946	18.70547676
HEAD.vtx[3275]	-5.22141552	32.56568146	21.41590881
HEAD.vtx[3276]	-5.03088665	31.44039345	21.13409996
HEAD.vtx[3277]	-2.388870716	31.54888344	18.67480087
HEAD.vtx[3278]	-2.401328087	32.81364441	18.76330757
HEAD.vtx[3279]	-6.021969318	34.00471497	21.5363369
HEAD.vtx[3280]	-5.639003754	33.15471268	21.51503372
HEAD.vtx[3281]	-3.019352436	33.63521957	18.80769539
HEAD.vtx[3282]	-3.78739357	34.73033524	18.02767181
HEAD.vtx[3283]	-10.41696835	35.96204758	20.55407143
HEAD.vtx[3284]	-8.432945251	35.93426132	20.91035652
HEAD.vtx[3285]	-7.007318974	38.07363892	18.84139633
HEAD.vtx[3286]	-8.873189926	38.33863068	18.71458817
HEAD.vtx[3287]	-12.72403717	34.84907532	19.7755909
HEAD.vtx[3288]	-11.64706135	35.64048767	20.00482368
HEAD.vtx[3289]	-10.74695873	37.48403549	18.47750854
HEAD.vtx[3290]	-12.53520298	35.99971771	18.29209709
HEAD.vtx[3291]	-13.77895069	33.72033691	19.42140388
HEAD.vtx[3292]	-13.40286064	35.36602783	17.3220005
HEAD.vtx[3293]	-14.88313961	32.26361084	18.87127113
HEAD.vtx[3294]	-14.35298729	33.10514832	19.08710098
HEAD.vtx[3295]	-14.31451988	34.4721756	17.25656128
HEAD.vtx[3296]	-14.85922146	32.85546112	18.13973236
HEAD.vtx[3297]	-13.76954746	28.80466652	19.20571709
HEAD.vtx[3298]	-14.65086174	30.43416214	19.0603981
HEAD.vtx[3299]	-14.6544466	30.33688927	18.2201519
HEAD.vtx[3300]	-14.19464016	28.22247314	18.20415878
HEAD.vtx[3301]	-12.05093575	27.58254242	20.23612785
HEAD.vtx[3302]	-12.51529312	26.56881714	18.55545998
HEAD.vtx[3303]	-8.741378784	27.14095688	20.70555496
HEAD.vtx[3304]	-8.35740757	26.49090767	18.80214691
HEAD.vtx[3305]	-4.533143044	30.30855179	20.24005508
HEAD.vtx[3306]	-3.21825552	30.20485687	18.65586662
HEAD.vtx[3307]	-9.118708611	26.12256432	14.59941864
HEAD.vtx[3308]	-4.596095562	28.28725052	14.60095978
HEAD.vtx[3309]	-2.391450882	30.94570732	15.11664486
HEAD.vtx[3310]	-3.36681366	33.85595322	15.04044914
HEAD.vtx[3311]	-8.793190002	38.70288849	14.44224548
HEAD.vtx[3312]	-13.53760719	36.30221939	13.95790195
HEAD.vtx[3313]	-14.52409744	35.4213028	13.82051468
HEAD.vtx[3314]	-15.11935616	31.71258545	13.86180782
HEAD.vtx[3315]	-14.79179001	28.57916069	13.87933159
HEAD.vtx[3316]	-9.13124752	30.43236923	12.5091362
HEAD.vtx[3317]	-8.044675827	32.56839371	12.58314705
HEAD.vtx[3318]	-9.575634956	33.99630737	12.4117651
HEAD.vtx[3319]	-11.43803787	33.47040176	12.13715267
HEAD.vtx[3320]	-11.46541405	31.01142311	12.15695477
HEAD.vtx[3321]	-3.580493689	18.18760681	30.75244713
HEAD.vtx[3322]	-2.588291407	17.52320099	30.73494148
HEAD.vtx[3323]	-3.35757494	18.65577698	31.89188194
HEAD.vtx[3324]	-3.246287346	19.19967651	32.91972351
HEAD.vtx[3325]	-2.797520638	19.31271553	33.42496109
HEAD.vtx[3326]	-1.337207794	18.1738739	33.31474304
HEAD.vtx[3327]	-0.944814384	17.97578049	33.32681656
HEAD.vtx[3328]	-1.418927193	16.83094215	30.78405762
HEAD.vtx[3329]	-1.831325054	17.21486282	30.93128586
HEAD.vtx[3330]	-1.750905156	21.06244659	31.25885582
HEAD.vtx[3331]	-1.035688043	21.26861572	31.25104141
HEAD.vtx[3332]	-0.5868037939	21.26197052	31.59848022
HEAD.vtx[3333]	-0.4287177026	21.04084778	32.95353699
HEAD.vtx[3334]	-1.988160253	20.96587944	31.80752945
HEAD.vtx[3335]	-1.943102956	21.02875137	32.45705032
HEAD.vtx[3336]	-1.488544941	21.12521362	33.11194611
HEAD.vtx[3351]	-24.53069305	31.87630653	9.616532326
HEAD.vtx[3352]	-23.888134	32.02714157	11.59229374
HEAD.vtx[3353]	-22.47964668	32.30492401	13.78244877
HEAD.vtx[3354]	-19.91275215	32.03804398	16.45179558
HEAD.vtx[3355]	-21.03003311	32.18635559	15.22776031
HEAD.vtx[3356]	-18.56257439	31.00720787	18.06853676
HEAD.vtx[3357]	-14.68717575	31.41877556	20.73905563
HEAD.vtx[3358]	-16.41398239	31.41207695	19.53149223
HEAD.vtx[3359]	-14.31687164	31.47205353	20.14153862
HEAD.vtx[3360]	-14.4589901	31.50687981	20.56685448
HEAD.vtx[3361]	-14.31349087	31.48161316	19.65620804
HEAD.vtx[3362]	-14.85902405	31.48135376	18.90810585
HEAD.vtx[3363]	-14.93376637	31.75120544	18.24887276
HEAD.vtx[3402]	-1.684083343	18.89201546	33.77589417
HEAD.vtx[3403]	-0.8340304494	21.04383469	33.26805878
HEAD.vtx[3404]	-1.133459687	22.14657211	34.04645157
HEAD.vtx[3405]	-2.023753166	22.0084095	33.75365829
HEAD.vtx[3406]	-2.061456203	20.9105835	34.42315292
HEAD.vtx[3407]	-1.204626322	21.16302872	34.58537292
HEAD.vtx[3408]	-1.891255498	19.65938568	34.58813095
HEAD.vtx[3409]	-1.230235338	19.655756	34.77268982
HEAD.vtx[3410]	-2.013581276	10.91156483	29.80398178
HEAD.vtx[3411]	-1.898870707	11.85884953	29.74819565
HEAD.vtx[3412]	-1.44120729	29.49661636	29.50991058
HEAD.vtx[3413]	-1.753724456	31.83205032	29.25012398
HEAD.vtx[3436]	-5.7166996	37.02542877	14.66709614
HEAD.vtx[3437]	-5.60825491	37.01461411	18.8868866
HEAD.vtx[3438]	-4.761594296	35.85509872	18.02558708
HEAD.vtx[3439]	-7.177964211	35.34446335	21.23763466
HEAD.vtx[3440]	-6.598847389	34.83953476	21.42409134
HEAD.vtx[3441]	-8.759768486	34.38016891	23.41095924
HEAD.vtx[3442]	-7.822049141	34.01945496	23.32591057
HEAD.vtx[3443]	-7.863847733	33.93691635	22.60359764
HEAD.vtx[3444]	-8.788392067	34.28847122	22.46661949
HEAD.vtx[3445]	-7.892041206	34.31832886	23.13792992
HEAD.vtx[3446]	-8.857195854	34.63863373	23.04633713
HEAD.vtx[3447]	-7.874998093	34.7156105	22.79029083
HEAD.vtx[3448]	-8.94638443	35.04554367	22.60767937
HEAD.vtx[3449]	-9.098052979	35.76813126	25.11791992
HEAD.vtx[3450]	-7.625365257	35.92078018	25.55860901
HEAD.vtx[3451]	-7.348794937	36.38542557	28.50580788
HEAD.vtx[3452]	-9.124511719	36.81125641	28.36319542
HEAD.vtx[3453]	-7.028063774	36.78649139	30.2307148
HEAD.vtx[3454]	-4.055473804	36.73218918	31.13329697
HEAD.vtx[3455]	-1.530800343	37.11945343	31.36322212
HEAD.vtx[3456]	-9.538816452	26.61231613	24.34051704
HEAD.vtx[3457]	-5.845705509	27.80300331	25.50853729
HEAD.vtx[3458]	-13.00443459	26.53834724	22.22005081
HEAD.vtx[3459]	-16.64534187	28.01550102	20.12200165
HEAD.vtx[3460]	-17.44796371	30.17018127	19.28446388
HEAD.vtx[3461]	-17.75811386	31.66205597	18.81201363
HEAD.vtx[3462]	-17.81089783	32.85278702	18.83158302
HEAD.vtx[3463]	-17.25926971	33.46618652	19.47677231
HEAD.vtx[3464]	-16.37107086	34.5729599	20.75945282
HEAD.vtx[3465]	-15.06679153	35.00509262	22.27339172
HEAD.vtx[3466]	-14.04930496	35.40725327	23.6201458
HEAD.vtx[3467]	-10.71235847	35.89809418	26.07369423
HEAD.vtx[3468]	-12.45184517	35.7056427	24.61349869
HEAD.vtx[3469]	-7.295294762	36.10383606	27.46683693
HEAD.vtx[3470]	-9.097943306	36.12644958	27.04883957
HEAD.vtx[3471]	-5.107794762	30.34692955	21.74428558
HEAD.vtx[3472]	-4.2389431	30.5755024	24.03554344
HEAD.vtx[3473]	-5.447673798	31.60697746	22.31842232
HEAD.vtx[3474]	-5.768502712	32.63327026	22.68933678
HEAD.vtx[3475]	-5.089672089	33.5548439	24.80336952
HEAD.vtx[3476]	-4.40690136	32.14370728	24.48761749
HEAD.vtx[3477]	-6.271417618	33.49384308	22.88696861
HEAD.vtx[3478]	-6.966018677	34.22116852	22.92185211
HEAD.vtx[3479]	-6.377160549	35.43170929	25.45987129
HEAD.vtx[3480]	-5.682275772	34.63014984	25.08143234
HEAD.vtx[3481]	-3.917753696	29.13000488	25.81086731
HEAD.vtx[3482]	-3.225940704	30.75283432	25.99454117
HEAD.vtx[3483]	-6.796718597	34.20876312	24.06015396
HEAD.vtx[3484]	-6.968234062	33.55332947	23.07324028
HEAD.vtx[3485]	-7.821698189	33.98868942	23.34383011
HEAD.vtx[3486]	-7.73944664	34.80088043	24.24999428
HEAD.vtx[3487]	-11.08149624	35.26647949	23.76424408
HEAD.vtx[3488]	-10.81223011	34.53147888	22.9906311
HEAD.vtx[3489]	-11.91679955	34.27871704	22.55726433
HEAD.vtx[3490]	-12.29014206	34.88503647	23.04009438
HEAD.vtx[3491]	-5.439352989	31.7790699	22.54327011
HEAD.vtx[3492]	-5.667869568	31.05875587	21.77290535
HEAD.vtx[3493]	-5.839693069	31.84634399	22.18434715
HEAD.vtx[3494]	-5.623287201	32.38118744	23.01214218
HEAD.vtx[3495]	-5.361348629	30.85276794	21.94091415
HEAD.vtx[3496]	-5.62823391	30.87965393	21.71133041
HEAD.vtx[3497]	-8.761687279	34.34124374	23.42637825
HEAD.vtx[3498]	-8.883431435	35.14036179	24.20697403
HEAD.vtx[3499]	-13.30119514	33.48091888	21.58231926
HEAD.vtx[3500]	-13.33413601	34.10863876	22.04389763
HEAD.vtx[3501]	-13.99867821	32.69487381	20.92891884
HEAD.vtx[3502]	-13.95033932	33.42515182	21.4251709
HEAD.vtx[3503]	-5.66522789	30.22774315	21.61137581
HEAD.vtx[3504]	-5.666252136	30.21973801	21.45248795
HEAD.vtx[3505]	-6.227838516	32.7550354	22.65048981
HEAD.vtx[3506]	-6.099977493	33.27849197	23.54234314
HEAD.vtx[3507]	-9.733880043	34.5372963	23.41076279
HEAD.vtx[3508]	-9.840480804	35.22475815	24.06578064
HEAD.vtx[3509]	-14.08186722	32.54063034	20.82270432
HEAD.vtx[3510]	-14.23031998	32.82827759	20.77614212
HEAD.vtx[3511]	-14.17728233	32.38230515	20.67876625
HEAD.vtx[3512]	-6.969067574	33.5449791	23.05243874
HEAD.vtx[3513]	-7.821260452	33.97933578	23.32909966
HEAD.vtx[3514]	-10.80741882	34.52765656	22.97831535
HEAD.vtx[3515]	-11.91324043	34.27442932	22.54574776
HEAD.vtx[3516]	-5.66588974	31.06994057	21.75432587
HEAD.vtx[3517]	-5.841509819	31.84440041	22.16724968
HEAD.vtx[3518]	-5.628159046	30.88659668	21.69761086
HEAD.vtx[3519]	-8.757800102	34.33644867	23.41371346
HEAD.vtx[3520]	-13.29803658	33.47770691	21.56892014
HEAD.vtx[3521]	-13.99752808	32.69178391	20.91452789
HEAD.vtx[3522]	-5.6590271	30.22258949	21.4230938
HEAD.vtx[3523]	-5.679495811	30.22602463	21.43597031
HEAD.vtx[3524]	-6.229430199	32.74718475	22.63369179
HEAD.vtx[3525]	-9.728066444	34.53336334	23.39842606
HEAD.vtx[3526]	-14.07866096	32.53260422	20.80631828
HEAD.vtx[3527]	-14.17401314	32.37376785	20.61958313
HEAD.vtx[3528]	-13.69591236	37.2620697	27.08226395
HEAD.vtx[3529]	-15.82385445	37.03450012	24.68583107
HEAD.vtx[3530]	-16.18228531	38.65737534	24.75243187
HEAD.vtx[3531]	-14.01666451	39.35869217	27.09775925
HEAD.vtx[3532]	-4.335667133	37.038517	31.29025841
HEAD.vtx[3533]	-7.118414879	37.21630859	30.82043266
HEAD.vtx[3534]	-7.237399101	39.14459229	30.8225975
HEAD.vtx[3535]	-4.360860825	38.01193237	31.4164257
HEAD.vtx[3536]	-10.76290798	37.48477936	29.12558174
HEAD.vtx[3537]	-11.11487389	39.67881012	29.18829536
HEAD.vtx[3538]	-17.10879326	36.33056259	22.16127205
HEAD.vtx[3539]	-17.459095	37.36904526	22.12267303
HEAD.vtx[3540]	-4.047447205	36.88411713	30.98080254
HEAD.vtx[3541]	-6.926902771	36.97796249	30.13166046
HEAD.vtx[3542]	-7.277701855	39.45549774	30.00114059
HEAD.vtx[3543]	-4.010685444	38.14056396	30.79561424
HEAD.vtx[3544]	-16.82625961	36.03129578	21.64792061
HEAD.vtx[3545]	-17.15857506	37.4294281	21.3086853
HEAD.vtx[3546]	-13.99826336	39.69417572	26.28329468
HEAD.vtx[3547]	-11.08833504	39.93135452	28.32979202
HEAD.vtx[3548]	-10.65702343	37.12175369	28.57441902
HEAD.vtx[3549]	-13.45915508	36.9397316	26.36226273
HEAD.vtx[3550]	-16.19814301	38.92835999	23.91768646
HEAD.vtx[3551]	-15.4592371	36.70578766	24.30288887
HEAD.vtx[3552]	10.17943001	31.995224	12.39205647
HEAD.vtx[3553]	-9.898715973	32.0043602	12.44344234
HEAD.vtx[3554]	1.862962604	21.04492188	32.22462845
HEAD.vtx[3555]	-1.847264528	21.04545593	32.22574997
HEAD.vtx[3556]	5.49587059	36.85786438	30.47957802
HEAD.vtx[3557]	5.683385372	37.0260849	31.18296814
HEAD.vtx[3558]	5.646252155	38.64561844	31.07687759
HEAD.vtx[3559]	5.639409065	38.94600677	30.22609329
HEAD.vtx[3560]	8.891144753	37.15895844	29.84531975
HEAD.vtx[3561]	8.97519207	37.47979355	30.35100746
HEAD.vtx[3562]	9.198706627	39.6451149	30.21618843
HEAD.vtx[3563]	9.24559021	39.93975067	29.40096664
HEAD.vtx[3564]	12.1912899	37.05100632	28.04768562
HEAD.vtx[3565]	12.25670433	37.42024994	28.61276627
HEAD.vtx[3566]	12.61523056	39.55601883	28.51553154
HEAD.vtx[3567]	12.58756256	39.83111191	27.68990898
HEAD.vtx[3568]	14.71567917	36.90765381	25.97434807
HEAD.vtx[3569]	14.74296761	37.22396851	26.5463295
HEAD.vtx[3570]	15.16525078	39.08884811	26.36189842
HEAD.vtx[3571]	15.18860531	39.38475037	25.51937675
HEAD.vtx[3572]	16.55253029	36.33795166	23.50152397
HEAD.vtx[3573]	16.57441139	36.62252808	23.97735214
HEAD.vtx[3574]	16.93470192	38.14041901	23.77927208
HEAD.vtx[3575]	16.93047905	38.13948822	23.00353432
HEAD.vtx[3576]	-5.637680054	38.84393311	30.37938118
HEAD.vtx[3577]	-5.831329823	38.65702057	31.20746422
HEAD.vtx[3578]	-5.677454472	37.06203842	31.08459282
HEAD.vtx[3579]	-5.48306036	36.82779694	30.55369759
HEAD.vtx[3580]	-9.204715729	39.96905899	29.17336464
HEAD.vtx[3581]	-9.221261024	39.67259598	30.14297295
HEAD.vtx[3582]	-8.940659523	37.50362396	30.11623955
HEAD.vtx[3583]	-8.808574677	37.14520264	29.41409111
HEAD.vtx[3584]	-12.51539898	39.9162941	27.30542946
HEAD.vtx[3585]	-12.61540222	39.61218643	28.26959991
HEAD.vtx[3586]	-12.24907303	37.33985138	28.18572426
HEAD.vtx[3587]	-12.03991985	36.94911194	27.45908928
HEAD.vtx[3588]	-15.12605476	39.40237045	25.08248711
HEAD.vtx[3589]	-15.14474678	39.10048676	25.97765541
HEAD.vtx[3590]	-14.65835381	37.25363541	26.02151299
HEAD.vtx[3591]	-14.32554626	36.9185257	25.53646469
HEAD.vtx[3592]	-16.78666687	38.42766953	22.67235184
HEAD.vtx[3593]	-16.95084	38.21816254	23.58950233
HEAD.vtx[3594]	-16.53743744	36.86548996	23.5387516
HEAD.vtx[3595]	-16.2043705	36.38901901	22.98377228
